Place,Sex,Name,CyrillicName,BodyweightKg,Squat1Kg,Squat2Kg,Squat3Kg,Best3SquatKg,Squat4Kg,Bench1Kg,Bench2Kg,Bench3Kg,Best3BenchKg,Bench4Kg,Deadlift1Kg,Deadlift2Kg,Deadlift3Kg,Best3DeadliftKg,Deadlift4Kg,TotalKg,WeightClassKg,Event,Equipment,Tested,Division,Age,BirthDate
1,M,Maksim Popov #1,Максим Попов,71,-225,230,240,240,,135,140,,140,,260,-270,270,270,,650,75,SBD,Raw,No,Pro Open,35,1984-09-03
1,M,Ruslan Tashtamirov,Руслан Таштамиров,89.3,250,270,280,280,,150,-160,160,160,,280,300,-310,300,,740,90,SBD,Raw,No,Pro Open,31,1988-07-15
1,M,Nikolay Zhigalov,Николай Жигалов,95.9,320,335,345,345,,190,-195,195,195,,330,-345,-345,330,,870,100,SBD,Raw,No,Pro Open,22,1997-05-29
2,M,Aleksandr Yudaev,Александр Юдаев,97.5,300,317.5,-325,317.5,,182.5,190,200,200,,290,305,315,315,,832.5,100,SBD,Raw,No,Pro Open,26,1994-02-10
3,M,Aleksandr Matskevich,Александр Мацкевич,100,270,-285,285,285,,177.5,185,190,190,,310,330,340.5,340.5,-350,815.5,100,SBD,Raw,No,Pro Open,31,1988-08-26
1,M,Sergey Akhlestin,Сергей Ахлестин,104,325,-345,345,345,,180,190,-195,190,,330,352.5,-365,352.5,,887.5,110,SBD,Raw,No,Pro Open,30,1989-09-15
1,M,Levon Trdatyan,Левон Трдатьян,124.2,330,342.5,-350,342.5,,175,187.5,-195,187.5,,290,310,325,325,,855,125,SBD,Raw,No,Pro Open,39,1980-11-28
1,F,Mariya Pyrina,Мария Пырина,48.8,90,-95,-95,90,,42.5,47.5,-50,47.5,,100,-105,105,105,,242.5,52,SBD,Wraps,No,Pro Juniors 20-23,22,1997-08-28
1,M,Denis Kostryukov,Денис Кострюков,81.2,135,-140,140,140,,85,90,-95,90,,150,-160,-160,150,,380,82.5,SBD,Wraps,No,Pro Open,33,1986-07-02
1,M,Aleksandr Ilenko,Александр Ильенко,84.7,205,-220,220,220,,150,157.5,162.5,162.5,,230,250,262.5,262.5,-280,645,90,SBD,Wraps,No,Pro Juniors 20-23,23,1996-03-23
1,M,Aleksandr Lebedev,Александр Лебедев,88.4,230,240,,240,,130,140,147.5,147.5,,230,-240,-240,230,,617.5,90,SBD,Wraps,No,Pro Open,26,1993-10-14
2,M,Evgeniy Sidorov,Евгений Сидоров,89.8,170,-190,-200,170,,150,165,-170,165,,170,190,-210,190,,525,90,SBD,Wraps,No,Pro Open,36,1983-07-15
1,M,Artem Nikitin,Артем Никитин,97.9,-270,275,300,300,,145,157.5,165,165,,245,265,275,275,,740,100,SBD,Wraps,No,Pro Juniors 20-23,22,1998-02-01
1,M,Yuriy Marenkov,Юрий Маренков,99.9,250,270,280,280,,155,165,167.5,167.5,,245,252.5,260,260,,707.5,100,SBD,Wraps,No,Pro Open,43,1976-12-18
2,M,Dmitriy Pashchenko,Дмитрий Пащенко,94.2,200,-220,220,220,,140,150,155,155,,230,-240,240,240,,615,100,SBD,Wraps,No,Pro Open,24,1995-04-17
1,M,Yuriy Marenkov,Юрий Маренков,99.9,250,270,280,280,,155,165,167.5,167.5,,245,252.5,260,260,,707.5,100,SBD,Wraps,No,Pro Masters 40-44,43,1976-12-18
2,M,Aleksandr Lakalin,Александр Лакалин,95.5,155,165,175,175,,120,130,-140,130,,212.5,220,230,230,,535,100,SBD,Wraps,No,Pro Masters 40-44,40,1979-07-15
1,M,Nikolay Shelemetev,Николай Шелеметьев,106.5,-250,-250,255,255,,155,165,170,170,,190,210,-220,210,,635,110,SBD,Wraps,No,Pro Open,33,1987-01-14
DQ,M,Maksim Lukhin,Максим Лухин,66.5,,,,,,,,,,,,,,,,,67.5,SBD,Raw,No,Pro Juniors 20-23,20,1999-07-16
1,M,Roman Khomenko,Роман Хоменко,89.9,235,245,250,250,,155,162.5,167.5,167.5,,290,-310,-310,290,,707.5,90,SBD,Raw,No,Pro Open,23,1996-10-22
2,M,Nikolay Afanasev,Николай Афанасьев,89.6,220,240,-250,240,,165,-172.5,-172.5,165,,260,280,,280,,685,90,SBD,Raw,No,Pro Open,38,1981-04-27
3,M,Oleg Chernov,Олег Чернов,87.2,180,190,200,200,,110,115,117.5,117.5,,200,215,-230,215,,532.5,90,SBD,Raw,No,Pro Open,33,1986-06-04
1,M,Igor Chernyavskiy,Игорь Чернявский,98.1,225,230,-237.5,230,,160,167.5,172.5,172.5,,225,232.5,237.5,237.5,,640,100,SBD,Raw,No,Pro Open,35,1984-08-05
2,M,Aleksey Karnilov,Алексей Карнилов,95.3,200,-210,210,210,,120,130,-135,130,,200,-210,210,210,,550,100,SBD,Raw,No,Pro Open,35,1984-12-02
1,M,Denis Kaputin,Денис Капутин,102.8,200,-220,220,220,,160,170,180,180,,230,240,250,250,,650,110,SBD,Raw,No,Pro Open,31,1988-05-03
DQ,M,Aleksandr Dvortsov,Александр Дворцов,107.5,245,-260,,245,,-165,,,,,-280,,,,,,110,SBD,Raw,No,Pro Open,38,1981-07-09
1,M,Valeriy Stepovoy,Валерий Степовой,117.7,230,-240,-250,230,,160,165,170,170,,245,260,280,280,,680,125,SBD,Raw,No,Pro Masters 45-49,46,1973-06-25
1,F,Tatyana Shalimova,Татьяна Шалимова,73.3,,,,,,42.5,45,-50,45,,,,,,,45,75,B,Single-ply,No,Pro Masters 40-44,44,1976-01-10
1,M,Vladislav Sannikov,Владислав Санников,73.8,,,,,,82.5,-87.5,87.5,87.5,,,,,,,87.5,75,B,Single-ply,No,Pro Open,81,1938-10-29
2,M,Vladimir Kulakov,Владимир Кулаков,72.9,,,,,,75,,,75,,,,,,,75,75,B,Single-ply,No,Pro Open,64,1955-12-24
1,M,Vladimir Kulakov,Владимир Кулаков,72.9,,,,,,75,,,75,,,,,,,75,75,B,Single-ply,No,Pro Masters 65-69,64,1955-12-24
DQ,M,Aleksandr Shabrov,Александр Шабров,97,,,,,,-250,-260,-260,,,,,,,,,100,B,Single-ply,No,Pro Open,29,1991-02-07
1,F,Darya Davydenko,Дарья Давыденко,55.4,,,,,,32.5,35,-37.5,35,,,,,,,35,56,B,Raw,No,Pro Open,35,1984-04-29
1,F,Irina Rodionova,Ирина Родионова,64.6,,,,,,55,-60,-60,55,,,,,,,55,67.5,B,Raw,No,Pro Open,32,1987-03-01
1,M,Maksim Popov #1,Максим Попов,71,,,,,,135,140,,140,,,,,,,140,75,B,Raw,No,Pro Open,35,1984-09-03
2,M,Vladimir Kulakov,Владимир Кулаков,72.9,,,,,,75,80,,80,,,,,,,80,75,B,Raw,No,Pro Open,64,1955-12-24
1,M,Vladimir Kulakov,Владимир Кулаков,72.9,,,,,,75,80,,80,,,,,,,80,75,B,Raw,No,Pro Masters 65-69,64,1955-12-24
DQ,M,Nikolay Petrokovich,Николай Петрокович,78,,,,,,-95,-102.5,-102.5,,,,,,,,,82.5,B,Raw,No,Pro Masters 40-44,40,1979-08-17
1,M,Aleksey Molochkov,Алексей Молочков,82,,,,,,135,140,145,145,,,,,,,145,82.5,B,Raw,No,Pro Masters 55-59,57,1962-08-08
1,M,Dmitriy Sobtsov,Дмитрий Собцов,88.7,,,,,,190,-200,-200,190,,,,,,,190,90,B,Raw,No,Pro Open,28,1991-06-04
2,M,Beymurad Murzabekov,Беймурад Мурзабеков,90,,,,,,170,177.5,182.5,182.5,,,,,,,182.5,90,B,Raw,No,Pro Open,31,1988-09-06
1,M,Aleksandr Shabalin,Александр Шабалин,89.8,,,,,,150,160,165,165,,,,,,,165,90,B,Raw,No,Pro Masters 45-49,48,1971-09-07
1,M,Gennadiy Postanogov,Геннадий Постаногов,98,,,,,,182.5,187.5,-192.5,187.5,,,,,,,187.5,100,B,Raw,No,Pro Open,35,1984-04-26
2,M,Aleksandr Muchler,Александр Мучлер,95.9,,,,,,175,180,-185,180,,,,,,,180,100,B,Raw,No,Pro Open,40,1979-08-06
3,M,Maksim Yuyukin,Максим Ююкин,98.9,,,,,,-175,175,-180,175,,,,,,,175,100,B,Raw,No,Pro Open,37,1982-05-09
4,M,Sergey Gonchar,Сергей Гончар,98.5,,,,,,135,145,-150,145,,,,,,,145,100,B,Raw,No,Pro Open,30,1989-06-14
1,M,Aleksandr Muchler,Александр Мучлер,95.9,,,,,,175,180,-185,180,,,,,,,180,100,B,Raw,No,Pro Masters 40-44,40,1979-08-06
1,M,Vadim Utkin,Вадим Уткин,98.4,,,,,,150,160,-165,160,,,,,,,160,100,B,Raw,No,Pro Masters 45-49,47,1972-07-10
1,M,Artur Petrosyan,Артур Петросян,97.9,,,,,,170,172.5,-175,172.5,,,,,,,172.5,100,B,Raw,No,Pro Masters 50-54,50,1970-02-23
1,M,Konstantin Komissarov,Константин Комиссаров,107.1,,,,,,225,232.5,242.5,242.5,,,,,,,242.5,110,B,Raw,No,Pro Open,34,1985-05-12
2,M,Yuriy Samsonov,Юрий Самсонов,110,,,,,,200,210,-220,210,,,,,,,210,110,B,Raw,No,Pro Open,37,1982-08-24
3,M,Vladimir Tsymbalenko,Владимир Цымбаленко,108.6,,,,,,190,-200,-200,190,,,,,,,190,110,B,Raw,No,Pro Open,34,1985-07-13
1,M,Vyacheslav Filin,Вячеслав Филин,102.5,,,,,,185,190,-192.5,190,,,,,,,190,110,B,Raw,No,Pro Masters 55-59,58,1961-11-12
1,M,Vladimir Kudryashov,Владимир Кудряшов,121.1,,,,,,240,-247.5,-247.5,240,,,,,,,240,125,B,Raw,No,Pro Open,34,1985-11-05
2,M,Igor Golovanov,Игорь Голованов,119.5,,,,,,212.5,222.5,-232.5,222.5,,,,,,,222.5,125,B,Raw,No,Pro Open,36,1983-11-04
3,M,Aleksandr Sedykh,Александр Седых,114.7,,,,,,207.5,217.5,-222.5,217.5,,,,,,,217.5,125,B,Raw,No,Pro Open,29,1990-05-24
1,M,Aleksandr Bykov,Александр Быков,114.9,,,,,,190,195,200,200,,,,,,,200,125,B,Raw,No,Pro Masters 45-49,45,1974-04-06
2,M,Vitaliy Ishchenko,Виталий Ищенко,113.1,,,,,,180,185,187.5,187.5,,,,,,,187.5,125,B,Raw,No,Pro Masters 45-49,44,1975-07-03
1,M,Alikhan Alkhazov,Алихан Алхазов,125,,,,,,190,-200,,190,,,,,,,190,125,B,Raw,No,Pro Masters 50-54,52,1968-01-21
1,M,Yuriy Mishta,Юрий Мишта,120,,,,,,160,167.5,170,170,,,,,,,170,125,B,Raw,No,Pro Masters 60-64,61,1958-11-24
1,M,Maksim Popov #1,Максим Попов,71,,,,,,,,,,,260,-270,270,270,,270,75,D,Raw,No,Pro Open,35,1984-09-03
1,M,Evgeniy Remizevich,Евгений Ремизевич,80.3,,,,,,,,,,,-210,210,220,220,,220,82.5,D,Raw,No,Pro Open,27,1992-03-03
1,M,Ivan Kachaev,Иван Качаев,88.5,,,,,,,,,,,215,-235,-242.5,215,,215,90,D,Raw,No,Pro Juniors 20-23,23,1996-11-05
1,M,Aleksandr Matskevich,Александр Мацкевич,100,,,,,,,,,,,310,330,340.5,340.5,,340.5,100,D,Raw,No,Pro Open,31,1988-08-26
2,M,Pavel Sazonov,Павел Сазонов,98.8,,,,,,,,,,,300,315,-320,315,,315,100,D,Raw,No,Pro Open,33,1986-06-08
1,M,Nikolay Zamp,Николай Замп,100.5,,,,,,,,,,,260,270,-280,270,,270,110,D,Raw,No,Pro Open,29,1990-03-02
1,M,Andrey Zolotarenok,Андрей Золотаренок,108,,,,,,,,,,,250,-265,-270,250,,250,110,D,Raw,No,Pro Masters 40-44,41,1978-11-23
1,M,Viktor Yashin,Виктор Яшин,87.4,235,-250,-250,235,,150,-157.5,160,160,,205,210,-215,210,,605,90,SBD,Single-ply,No,Amateur Open,30,1989-10-29
1,M,Sergey Klypov,Сергей Клыпов,99.2,240,255,-270,255,,200,210,-220,210,,230,-240,240,240,,705,100,SBD,Single-ply,No,Amateur Open,39,1980-08-24
1,F,Natalya Konchakova,Наталья Кончакова,51.7,135,142.5,147.5,147.5,,65,67.5,70,70,,160,170,175,175,,392.5,52,SBD,Wraps,No,Amateur Open,42,1977-08-14
1,F,Oksana Fatkina,Оксана Фатькина,53.3,96,102.5,-105,102.5,,52.5,55,-57.5,55,,85,-95,-95,85,,242.5,56,SBD,Wraps,No,Amateur Open,46,1973-04-25
1,F,Oksana Fatkina,Оксана Фатькина,53.3,96,102.5,-105,102.5,,52.5,55,-57.5,55,,85,-95,-95,85,,242.5,56,SBD,Wraps,No,Amateur Masters 45-49,46,1973-04-25
1,F,Alina Ryzhova,Алина Рыжова,63,110,120,127.5,127.5,,50,52.5,-55,52.5,,100,-105,-105,100,,280,67.5,SBD,Wraps,No,Amateur Juniors 20-23,23,1996-03-27
1,F,Alina Ryzhova,Алина Рыжова,63,110,120,127.5,127.5,,50,52.5,-55,52.5,,100,-105,-105,100,,280,67.5,SBD,Wraps,No,Amateur Open,23,1996-03-27
1,F,Anastasiya Loginova,Анастасия Логинова,86.5,-110,-117.5,122.5,122.5,,60,65,-67.5,65,,100,110,117.5,117.5,,305,90,SBD,Wraps,No,Amateur Open,24,1995-04-04
1,F,Yana Zenkova,Яна Зенькова,107.5,160,-167.5,-167.5,160,,65,70,-72.5,70,,150,-160,-160,150,,380,90+,SBD,Wraps,No,Amateur Juniors 20-23,21,1998-10-09
1,M,Vladislav Sharapov,Владислав Шарапов,74.1,190,200,210,210,,125,130,135,135,,200,210,-220,210,,555,75,SBD,Wraps,No,Amateur Juniors 20-23,22,1998-01-19
1,M,Vitaliy Tarasov,Виталий Тарасов,86.8,230,240,-250,240,,145,-150,150,150,,220,230,240,240,,630,90,SBD,Wraps,No,Amateur Open,42,1977-06-09
2,M,Maksim Lavrenchuk,Максим Лавренчук,88.1,-210,210,-225,210,,135,-150,-150,135,,200,215,,215,,560,90,SBD,Wraps,No,Amateur Open,27,1992-03-05
1,M,Anton Petrov,Антон Петров,99.2,-220,230,-250,230,,125,135,-140,135,,210,230,-250,230,,595,100,SBD,Wraps,No,Amateur Open,29,1990-09-06
1,M,Anton Veremeenko,Антон Веремеенко,96.1,200,205,215,215,,142.5,-150,150,150,,185,195,-205,195,,560,100,SBD,Wraps,No,Amateur Masters 40-44,43,1977-01-29
1,M,Andrey Drozhzhin,Андрей Дрожжин,116.8,270,290,310,310,,170,180,190,190,,250,270,-285,270,,770,125,SBD,Wraps,No,Amateur Open,42,1977-11-21
2,M,Ivan Rak,Иван Рак,120,250,265,-277.5,265,,150,157.5,165,165,,245,255,265,265,,695,125,SBD,Wraps,No,Amateur Open,45,1974-08-27
1,M,Ivan Rak,Иван Рак,120,250,265,-277.5,265,,150,157.5,165,165,,245,255,265,265,,695,125,SBD,Wraps,No,Amateur Masters 45-49,45,1974-08-27
1,M,Sergey Tsurkanu,Сергей Цуркану,133.3,280,-300,300,300,,-170,170,-175,170,,250,270,-280,270,,740,140,SBD,Wraps,No,Amateur Open,36,1983-04-08
1,F,Ekaterina Suchkova,Екатерина Сучкова,44.1,67.5,72.5,77.5,77.5,,35,37.5,40,40,,97.5,102.5,107.5,107.5,,225,48,SBD,Raw,No,Amateur Juniors 20-23,22,1997-05-15
1,F,Ekaterina Kargina,Екатерина Каргина,47.9,80,85,90,90,,55,57.5,60,60,,100,105,110,110,,260,48,SBD,Raw,No,Amateur Open,26,1993-10-16
1,F,Marina Sharova,Марина Шарова,55.2,97.5,-102.5,-107.5,97.5,,57.5,-63,-63,57.5,,105,-117.5,-117.5,105,,260,56,SBD,Raw,No,Amateur Teen 18-19,19,2000-03-04
1,F,Marina Sharova,Марина Шарова,55.2,97.5,-102.5,-107.5,97.5,,57.5,-63,-63,57.5,,105,-117.5,-117.5,105,,260,56,SBD,Raw,No,Amateur Open,19,2000-03-04
2,F,Anastasiya Popova,Анастасия Попова,56,82.5,90,-92.5,90,,42.5,47.5,-50,47.5,,85,92.5,100,100,,237.5,56,SBD,Raw,No,Amateur Open,27,1992-05-09
1,F,Alena Vasileva,Алена Васильева,58.5,50,-60,-65,50,,35,42.5,45,45,,80,95,105,105,,200,60,SBD,Raw,No,Amateur Juniors 20-23,21,1998-05-09
1,F,Yulya Badaeva,Юля Бадаева,59.3,85,-90,90,90,,52.5,55,-57.5,55,,85,90,95,95,,240,60,SBD,Raw,No,Amateur Masters 40-44,40,1979-04-01
1,F,Emiliya Gorelovskaya,Эмилия Гореловская,62.5,115,125,,125,,-60,60,-65,60,,90,100,110,110,,295,67.5,SBD,Raw,No,Amateur Open,28,1991-06-12
2,F,Diana Sultanova,Диана Султанова,67.5,77.5,82.5,87.5,87.5,,45,-47.5,-47.5,45,,110,117.5,122.5,122.5,,255,67.5,SBD,Raw,No,Amateur Open,24,1995-04-15
1,F,Anna Ushkova,Анна Ушкова,70.6,80,85,90,90,,50,55,-57.5,55,,100,110,120,120,,265,75,SBD,Raw,No,Amateur Open,37,1982-06-03
1,M,Maksim Lukhin,Максим Лухин,66.6,-180,180,-190,180,,92.5,97.5,-102.5,97.5,,200,210,-215,210,,487.5,67.5,SBD,Raw,No,Amateur Juniors 20-23,20,1999-07-16
1,M,Andrey Kukushkin,Андрей Кукушкин,66.4,125,135,140,140,,105,110,-115,110,,145,155,165,165,,415,67.5,SBD,Raw,No,Amateur Open,33,1986-03-28
1,M,Artyom Kashnikov,Артём Кашников,70.3,-130,135,145,145,,97.5,102.5,-107.5,102.5,,150,157.5,165,165,,412.5,75,SBD,Raw,No,Amateur Teen 16-17,16,2003-08-22
2,M,Yaroslav Frolov,Ярослав Фролов,72.2,100,112.5,120,120,,62.5,67.5,-70,67.5,,-115,115,-130,115,,302.5,75,SBD,Raw,No,Amateur Teen 13-15,15,2004-12-17
1,M,Mikhail Vorobev,Михаил Воробьев,80.7,200,220,225,225,,170,180,-187.5,180,,220,240,-245,240,,645,82.5,SBD,Raw,No,Amateur Open,29,1990-11-21
2,M,Andrey Pronin,Андрей Пронин,81.9,125,135,-145,135,,110,115,-120,115,,125,145,160,160,,410,82.5,SBD,Raw,No,Amateur Open,28,1991-04-03
3,M,Dmitriy Mikheev,Дмитрий Михеев,76.8,135,140,-145,140,,85,92.5,-100,92.5,,145,155,162.5,162.5,,395,82.5,SBD,Raw,No,Amateur Open,36,1983-10-25
1,M,Aleksey Gvozdev,Алексей Гвоздев,81.8,177.5,187.5,-195,187.5,,100,-110,-110,100,,220,227.5,232.5,232.5,,520,82.5,SBD,Raw,No,Amateur Masters 45-49,47,1972-03-27
1,M,Kirill Lednyov,Кирилл Леднёв,87.2,190,200,-210,200,,-110,110,117.5,117.5,,220,230,-240,230,,547.5,90,SBD,Raw,No,Amateur Open,32,1987-04-05
2,M,Mikhail Pashev,Михаил Пашев,89.3,165,177.5,-187.5,177.5,,130,-140,-140,130,,205,220,230,230,,537.5,90,SBD,Raw,No,Amateur Open,33,1986-11-09
DQ,M,Denis Fayzi,Денис Файзи,89.7,-150,-150,,,,-125,,,,,-160,,,,,,90,SBD,Raw,No,Amateur Open,31,1989-01-28
1,M,Aleksey Anisimov,Алексей Анисимов,91.4,200,210,-220,210,,150,-155,-157.5,150,,210,220,-230,220,,580,100,SBD,Raw,No,Amateur Open,27,1992-02-25
2,M,Sergey Batanov,Сергей Батанов,95,180,200,-220,200,,120,125,130,130,,180,200,-205,200,,530,100,SBD,Raw,No,Amateur Open,32,1987-07-14
DQ,M,Oleg Trunov,Олег Трунов,97.7,-230,-230,-230,,,-170,,,,,-240,,,,,,100,SBD,Raw,No,Amateur Open,31,1988-08-08
1,M,Vitaliy Parmut,Виталий Пармут,109.3,220,230,240,240,,190,200,,200,,240,250,260,260,,700,110,SBD,Raw,No,Amateur Open,32,1987-04-18
1,M,Cheslav Targonskiy,Чеслав Таргонский,101.9,190,200,205,205,,110,117.5,,117.5,,270,-280,-280,270,,592.5,110,SBD,Raw,No,Amateur Masters 60-64,62,1958-01-06
1,M,Artem Shiryaev,Артем Ширяев,121.5,220,235,-240,235,,160,175,180,180,,240,267.5,,267.5,,682.5,125,SBD,Raw,No,Amateur Open,27,1992-11-12
2,M,Aleksandr Frolov,Александр Фролов,124.3,165,-172.5,172.5,172.5,,165,172.5,-175,172.5,,190,200,-210,200,,545,125,SBD,Raw,No,Amateur Open,32,1988-01-17
1,F,Arina Podgornova,Арина Подгорнова,63.6,,,,,,87.5,95,-100,95,,,,,,,95,67.5,B,Single-ply,No,Amateur Teen 16-17,17,2002-03-11
1,M,Andrey Semeshov,Андрей Семешов,81.7,,,,,,172.5,177.5,180,180,,,,,,,180,82.5,B,Single-ply,No,Amateur Open,39,1980-06-02
1,M,Andrey Ignatov,Андрей Игнатов,100,,,,,,270,-280,-280,270,,,,,,,270,100,B,Single-ply,No,Amateur Open,28,1992-02-22
2,M,Pavel Panyushin,Павел Панюшин,98.3,,,,,,155,165,-170,165,,,,,,,165,100,B,Single-ply,No,Amateur Open,30,1989-09-26
1,M,Nikolay Pankov,Николай Панков,106.3,,,,,,190,200,-210,200,,,,,,,200,110,B,Single-ply,No,Amateur Juniors 20-23,23,1996-07-17
1,M,Mikhail Litovskiy,Михаил Литовский,105.8,,,,,,180,187.5,-192.5,187.5,,,,,,,187.5,110,B,Single-ply,No,Amateur Open,27,1993-01-16
1,F,Polina Churina,Полина Чурина,45,,,,,,25,27.5,30,30,-32.5,,,,,,30,48,B,Raw,No,Amateur Teen 13-15,15,2004-05-03
1,F,Ekaterina Bazhina,Екатерина Бажина,47.4,,,,,,52.5,55,-60,55,,,,,,,55,48,B,Raw,No,Amateur Open,36,1983-04-04
2,F,Olga Tsatneva,Ольга Цатнева,46.5,,,,,,37.5,-42.5,-42.5,37.5,,,,,,,37.5,48,B,Raw,No,Amateur Open,27,1992-03-29
1,F,Aliya Bolshakova,Алия Большакова,51.9,,,,,,40,45,-50,45,,,,,,,45,52,B,Raw,No,Amateur Open,36,1983-12-25
1,F,Viktoriya Staroverova,Виктория Староверова,55,,,,,,55,-60,-60,55,,,,,,,55,56,B,Raw,No,Amateur Juniors 20-23,23,1996-08-02
2,F,Anastasiya Monakhova,Анастасия Монахова,56,,,,,,30,32.5,-37.5,32.5,,,,,,,32.5,56,B,Raw,No,Amateur Juniors 20-23,23,1996-10-04
1,F,Elena Ochirova,Елена Очирова,55.9,,,,,,67.5,70,-72.5,70,,,,,,,70,56,B,Raw,No,Amateur Open,44,1975-09-15
2,F,Elena Shcherbakova,Елена Щербакова,53.7,,,,,,32.5,-37.5,-37.5,32.5,,,,,,,32.5,56,B,Raw,No,Amateur Open,40,1979-04-14
1,F,Elena Shcherbakova,Елена Щербакова,53.7,,,,,,32.5,-37.5,-37.5,32.5,,,,,,,32.5,56,B,Raw,No,Amateur Masters 40-44,40,1979-04-14
DQ,F,Yuliya Baldina,Юлия Балдина,55.2,,,,,,-52.5,-52.5,-55,,,,,,,,,56,B,Raw,No,Amateur Masters 40-44,40,1979-12-30
1,F,Anna Dubrovskaya,Анна Дубровская,60,,,,,,57.5,-60,60,60,,,,,,,60,60,B,Raw,No,Amateur Open,24,1996-01-10
1,F,Anna Yatsmenko,Анна Яцменко,65,,,,,,-45,45,-47.5,45,,,,,,,45,67.5,B,Raw,No,Amateur Open,29,1990-04-03
1,F,Aleksandra Aleshkina,Александра Алешкина,70,,,,,,47.5,55,-60,55,,,,,,,55,75,B,Raw,No,Amateur Teen 18-19,19,2000-10-27
1,F,Inna Gorbunova,Инна Горбунова,73.7,,,,,,57.5,-60,60,60,,,,,,,60,75,B,Raw,No,Amateur Open,36,1983-05-26
1,M,Andrey Kukushkin,Андрей Кукушкин,66.4,,,,,,105,110,-115,110,,,,,,,110,67.5,B,Raw,No,Amateur Open,33,1986-03-28
2,M,Andrey Bulygin,Андрей Булыгин,66.7,,,,,,-90,100,-110,100,,,,,,,100,67.5,B,Raw,No,Amateur Open,26,1993-11-30
1,M,Dmitriy Sotnikov,Дмитрий Сотников,69.3,,,,,,102.5,107.5,112.5,112.5,,,,,,,112.5,75,B,Raw,No,Amateur Teen 16-17,16,2003-03-16
2,M,Andrey Chicherin-Lukyanenko,Андрей Чичерин-Лукьяненко,74.3,,,,,,102.5,107.5,-112.5,107.5,,,,,,,107.5,75,B,Raw,No,Amateur Teen 18-19,19,2000-11-23
3,M,Mikhail Monin,Михаил Монин,73.5,,,,,,-85,85,90,90,,,,,,,90,75,B,Raw,No,Amateur Teen 18-19,19,2000-06-24
1,M,Ilya Sokov,Илья Соков,74.2,,,,,,-115,122.5,-127.5,122.5,,,,,,,122.5,75,B,Raw,No,Amateur Juniors 20-23,23,1997-02-13
1,M,Anton Kondratyuk,Антон Кондратюк,73.9,,,,,,120,130,-137.5,130,,,,,,,130,75,B,Raw,No,Amateur Open,33,1986-09-06
1,M,Nikolay Vetrov,Николай Ветров,74.4,,,,,,80,82.5,,82.5,,,,,,,82.5,75,B,Raw,No,Amateur Masters 70-74,74,1945-09-12
DQ,M,Filipp Aksenov,Филипп Аксенов,77.6,,,,,,-130,-130,-130,,,,,,,,,82.5,B,Raw,No,Amateur Teen 16-17,16,2003-08-29
1,M,Aleksandr Ravkin,Александр Равкин,78.8,,,,,,110,115,-120,115,,,,,,,115,82.5,B,Raw,No,Amateur Juniors 20-23,20,1999-05-27
1,M,Mikhail Vorobev,Михаил Воробьев,80.7,,,,,,170,180,-187.5,180,,,,,,,180,82.5,B,Raw,No,Amateur Open,29,1990-11-21
2,M,Aleksey Kozhevnikov,Алексей Кожевников,81.8,,,,,,165,170,172.5,172.5,,,,,,,172.5,82.5,B,Raw,No,Amateur Open,36,1983-12-20
3,M,Andrey Poronkin,Андрей Поронькин,81.1,,,,,,125,130,-135,130,,,,,,,130,82.5,B,Raw,No,Amateur Open,25,1995-01-15
4,M,Sergey Kuzmin,Сергей Кузьмин,78.4,,,,,,115,-122.5,-122.5,115,,,,,,,115,82.5,B,Raw,No,Amateur Open,26,1993-09-15
5,M,Aleksey Kirin,Алексей Кирин,81,,,,,,110,-112.5,-112.5,110,,,,,,,110,82.5,B,Raw,No,Amateur Open,33,1986-12-31
1,M,Oleg Ilkaev,Олег Илькаев,80,,,,,,90,100,-110,100,,,,,,,100,82.5,B,Raw,No,Amateur Masters 40-44,43,1976-06-20
1,M,Sergey Kondrashev,Сергей Кондрашев,82.5,,,,,,120,125,-130,125,,,,,,,125,82.5,B,Raw,No,Amateur Masters 55-59,56,1963-09-16
1,M,Nikolay Azarskov,Николай Азарсков,87.8,,,,,,135,145,150,150,,,,,,,150,90,B,Raw,No,Amateur Juniors 20-23,23,1996-05-24
DQ,M,Egor Chepchenko,Егор Чепченко,89,,,,,,,,,,,,,,,,,90,B,Raw,No,Amateur Juniors 20-23,22,1997-04-10
1,M,Artem Mishchenko,Артем Мищенко,89.7,,,,,,170,175,177.5,177.5,,,,,,,177.5,90,B,Raw,No,Amateur Open,35,1984-06-26
2,M,Oleg Bryndin,Олег Брындин,87.1,,,,,,-150,150,155,155,,,,,,,155,90,B,Raw,No,Amateur Open,26,1993-06-21
3,M,Aleksandr Legkiy,Александр Легкий,87.5,,,,,,135,-155,155,155,,,,,,,155,90,B,Raw,No,Amateur Open,33,1986-03-26
4,M,Igor Pochitalkin,Игорь Почиталкин,85.8,,,,,,-145,-145,145,145,,,,,,,145,90,B,Raw,No,Amateur Open,35,1984-06-22
1,M,Denis Bolshakov,Денис Большаков,88.6,,,,,,117.5,-125,-125,117.5,,,,,,,117.5,90,B,Raw,No,Amateur Masters 40-44,40,1979-07-22
1,M,Igor Khorkhordin,Игорь Хорхордин,87.8,,,,,,155,160,162.5,162.5,165,,,,,,162.5,90,B,Raw,No,Amateur Masters 50-54,52,1967-06-15
2,M,Aleksey Protasov,Алексей Протасов,88,,,,,,145,150,155,155,,,,,,,155,90,B,Raw,No,Amateur Masters 50-54,52,1967-11-16
1,M,Gennadiy Sorokin,Геннадий Сорокин,88.9,,,,,,142.5,150,155,155,,,,,,,155,90,B,Raw,No,Amateur Masters 60-64,60,1959-09-08
2,M,Leonid Smirnov,Леонид Смирнов,89.6,,,,,,117.5,-125,-125,117.5,,,,,,,117.5,90,B,Raw,No,Amateur Masters 60-64,62,1957-09-26
1,M,Maksim Alekseenko,Максим Алексеенко,97.4,,,,,,120,130,-142.5,130,,,,,,,130,100,B,Raw,No,Amateur Juniors 20-23,22,1997-09-17
1,M,Pavel Matveev,Павел Матвеев,97,,,,,,180,187.5,-190,187.5,,,,,,,187.5,100,B,Raw,No,Amateur Open,26,1993-08-06
2,M,Oleg Trunov,Олег Трунов,97.7,,,,,,170,180,-190,180,,,,,,,180,100,B,Raw,No,Amateur Open,31,1988-08-08
3,M,Pavel Miloserdov,Павел Милосердов,98,,,,,,140,145,-150,145,,,,,,,145,100,B,Raw,No,Amateur Open,26,1993-10-11
1,M,Dmitriy Zaytsev,Дмитрий Зайцев,97.5,,,,,,150,157.5,162.5,162.5,,,,,,,162.5,100,B,Raw,No,Amateur Masters 40-44,43,1976-10-16
2,M,Andrey Chaganov,Андрей Чаганов,99.7,,,,,,-150,157.5,160,160,,,,,,,160,100,B,Raw,No,Amateur Masters 40-44,43,1976-11-18
3,M,Grigoriy Bannov,Григорий Баннов,98.4,,,,,,115,120,122.5,122.5,,,,,,,122.5,100,B,Raw,No,Amateur Masters 40-44,44,1975-10-19
1,M,Roman Kanishchev,Роман Канищев,97.4,,,,,,140,145,150,150,,,,,,,150,100,B,Raw,No,Amateur Masters 45-49,46,1973-09-05
1,M,Stepan Senatorov,Степан Сенаторов,108,,,,,,102.5,107.5,112.5,112.5,,,,,,,112.5,110,B,Raw,No,Amateur Teen 16-17,16,2003-04-18
1,M,Oleg Chlenov,Олег Членов,102.4,,,,,,170,-175,175,175,,,,,,,175,110,B,Raw,No,Amateur Open,26,1993-03-27
2,M,Yaroslav Dolin,Ярослав Долин,106.1,,,,,,-120,120,-125,120,,,,,,,120,110,B,Raw,No,Amateur Open,31,1988-07-12
1,M,Kirill Ryomin,Кирилл Рёмин,103.8,,,,,,170,175,-180,175,,,,,,,175,110,B,Raw,No,Amateur Masters 40-44,44,1975-08-13
2,M,Arkadiy Karchevskiy,Аркадий Карчевский,107.9,,,,,,152.5,157.5,162.5,162.5,,,,,,,162.5,110,B,Raw,No,Amateur Masters 40-44,44,1975-04-28
1,M,Sergey Gershtanskiy,Сергей Герштанский,107.8,,,,,,150,155,-157.5,155,,,,,,,155,110,B,Raw,No,Amateur Masters 45-49,45,1974-04-06
DQ,M,Vitaliy Stolbovoy,Виталий Столбовой,109,,,,,,,,,,,,,,,,,110,B,Raw,No,Amateur Masters 45-49,46,1973-06-14
1,M,Ivan Burlov,Иван Бурлов,109,,,,,,-170,170,-172.5,170,,,,,,,170,110,B,Raw,No,Amateur Masters 50-54,50,1970-01-20
2,M,Dmitriy Kireev,Дмитрий Киреев,108.9,,,,,,160,165,-170,165,,,,,,,165,110,B,Raw,No,Amateur Masters 50-54,50,1969-08-25
1,M,Valeriy Kondratev,Валерий Кондратьев,105.2,,,,,,130,135,140,140,,,,,,,140,110,B,Raw,No,Amateur Masters 55-59,56,1964-01-15
1,M,Vladimir Yakovenko,Владимир Яковенко,107.3,,,,,,130,137.5,142.5,142.5,,,,,,,142.5,110,B,Raw,No,Amateur Masters 60-64,60,1959-03-27
1,M,Vladimir Poletaev,Владимир Полетаев,123.3,,,,,,-140,-147.5,147.5,147.5,,,,,,,147.5,125,B,Raw,No,Amateur Open,32,1988-01-01
1,M,Vladimir Chubarov,Владимир Чубаров,122.9,,,,,,172.5,177.5,180,180,,,,,,,180,125,B,Raw,No,Amateur Masters 55-59,55,1964-04-03
1,M,Grigoriy Sakharov,Григорий Сахаров,128.4,,,,,,182.5,190,-205,190,,,,,,,190,140,B,Raw,No,Amateur Masters 40-44,42,1977-06-17
1,M,Vladislav Zolotukhin,Владислав Золотухин,91.4,,,,,,,,,,,200,-217.5,-217.5,200,,200,100,D,Single-ply,No,Amateur Teen 18-19,18,2002-01-30
1,F,Mariya Tsepeleva,Мария Цепелева,48,,,,,,,,,,,120,-127.5,-127.5,120,,120,48,D,Raw,No,Amateur Open,30,1989-04-28
2,F,Ekaterina Bazhina,Екатерина Бажина,47.4,,,,,,,,,,,90,95,100,100,,100,48,D,Raw,No,Amateur Open,36,1983-04-04
1,F,Svetlana Postnikova,Светлана Постникова,50.9,,,,,,,,,,,117.5,125,-135,125,,125,52,D,Raw,No,Amateur Open,33,1986-09-04
DQ,F,Viktoriya Viktorova,Виктория Викторова,51.6,,,,,,,,,,,-115,-115,-115,,,,52,D,Raw,No,Amateur Open,20,1999-09-15
DQ,F,Elena Shcherbakova,Елена Щербакова,51,,,,,,,,,,,,,,,,,52,D,Raw,No,Amateur Masters 40-44,40,1979-04-14
1,F,Kristina Nikiforova,Кристина Никифорова,55.5,,,,,,,,,,,90,-97.5,97.5,97.5,,97.5,56,D,Raw,No,Amateur Teen 16-17,17,2002-12-24
1,F,Elena Shcherbakova,Елена Щербакова,53.7,,,,,,,,,,,70,80,90,90,,90,56,D,Raw,No,Amateur Open,40,1979-04-14
1,F,Elena Shcherbakova,Елена Щербакова,53.7,,,,,,,,,,,70,80,90,90,,90,56,D,Raw,No,Amateur Masters 40-44,40,1979-04-14
1,F,Olga Legkaya,Ольга Легкая,58.4,,,,,,,,,,,107.5,112.5,115,115,,115,60,D,Raw,No,Amateur Open,34,1985-12-19
2,F,Ekaterina Litvinenko,Екатерина Литвиненко,59,,,,,,,,,,,100,112.5,,112.5,,112.5,60,D,Raw,No,Amateur Open,34,1985-05-27
3,F,Svetlana Yusupova,Светлана Юсупова,59.8,,,,,,,,,,,70,80,85,85,,85,60,D,Raw,No,Amateur Open,37,1982-11-30
1,F,Diana Sultanova,Диана Султанова,67.5,,,,,,,,,,,110,117.5,122.5,122.5,,122.5,67.5,D,Raw,No,Amateur Open,24,1995-04-15
1,F,Olga Turkovskaya,Ольга Турковская,69.9,,,,,,,,,,,120,130,135,135,,135,75,D,Raw,No,Amateur Masters 50-54,52,1967-06-05
1,F,Svetlana Zaykovskaya,Светлана Зайковская,81,,,,,,,,,,,120,132.5,140,140,,140,82.5,D,Raw,No,Amateur Open,30,1989-07-24
1,F,Izabella Orlova,Изабелла Орлова,104.6,,,,,,,,,,,120,137.5,142.5,142.5,,142.5,90+,D,Raw,No,Amateur Open,38,1981-05-07
1,M,Nikita Rusakov,Никита Русаков,58.9,,,,,,,,,,,125,145,-152.5,145,,145,60,D,Raw,No,Amateur Teen 16-17,17,2002-09-06
1,M,Denis Sidorov,Денис Сидоров,63.5,,,,,,,,,,,100,110,-115,110,,110,67.5,D,Raw,No,Amateur Teen 16-17,17,2003-01-06
1,M,Vladimir Zhevtunov,Владимир Жевтунов,73.2,,,,,,,,,,,155,-165,-165,155,,155,75,D,Raw,No,Amateur Open,31,1988-05-11
1,M,Nikolay Vetrov,Николай Ветров,74.4,,,,,,,,,,,145,150,155,155,,155,75,D,Raw,No,Amateur Masters 70-74,74,1945-09-12
1,M,Aleksandr Sorochinskiy,Александр Сорочинский,75,,,,,,,,,,,135,145,,145,,145,75,D,Raw,No,Amateur Masters 80+,81,1939-01-04
1,M,Ruslan Orkhan,Руслан Орхан,81,,,,,,,,,,,115,125,140,140,,140,82.5,D,Raw,No,Amateur Teen 16-17,16,2003-11-26
1,M,Nikita Maslakov,Никита Маслаков,81.2,,,,,,,,,,,170,-180,-180,170,,170,82.5,D,Raw,No,Amateur Open,31,1988-07-19
1,M,Kirill Lednyov,Кирилл Леднёв,87.2,,,,,,,,,,,220,230,-240,230,,230,90,D,Raw,No,Amateur Open,32,1987-04-05
2,M,Pavel Velikanov,Павел Великанов,87.9,,,,,,,,,,,190,200,205,205,,205,90,D,Raw,No,Amateur Open,30,1989-11-08
1,M,Pyotr Mikhaylov,Пётр Михайлов,97.5,,,,,,,,,,,215,225,237.5,237.5,,237.5,100,D,Raw,No,Amateur Juniors 20-23,21,1998-06-24
1,M,Ivan Bogachev,Иван Богачев,98.6,,,,,,,,,,,225,235,-240,235,,235,100,D,Raw,No,Amateur Open,41,1978-06-08
2,M,Mikhail Kazakov,Михаил Казаков,96,,,,,,,,,,,200,210,217.5,217.5,,217.5,100,D,Raw,No,Amateur Open,25,1994-02-24
3,M,Denis Gavrilov,Денис Гаврилов,98.7,,,,,,,,,,,190,207.5,-212.5,207.5,,207.5,100,D,Raw,No,Amateur Open,33,1986-10-27
1,M,Ivan Bogachev,Иван Богачев,98.6,,,,,,,,,,,225,235,-240,235,,235,100,D,Raw,No,Amateur Masters 40-44,41,1978-06-08
2,M,Dmitriy Zaytsev,Дмитрий Зайцев,97.5,,,,,,,,,,,210,220,227.5,227.5,,227.5,100,D,Raw,No,Amateur Masters 40-44,43,1976-10-16
DQ,M,Denis Plenkin,Денис Пленкин,99,,,,,,,,,,,,,,,,,100,D,Raw,No,Amateur Masters 45-49,45,1974-05-19
1,M,Andrey Butko,Андрей Бутко,108.7,,,,,,,,,,,265,-280,-280,265,,265,110,D,Raw,No,Amateur Open,34,1985-05-05
2,M,Andrey Dyachev,Андрей Дьячев,108.3,,,,,,,,,,,240,250,-260,250,,250,110,D,Raw,No,Amateur Open,35,1984-04-15
1,M,Aleksey Grigorev,Алексей Григорьев,107.5,,,,,,,,,,,-185,195,205,205,,205,110,D,Raw,No,Amateur Masters 45-49,49,1970-10-27
1,M,Gleb Danin,Глеб Данин,122.1,,,,,,,,,,,100,155,172.5,172.5,185,172.5,125,D,Raw,No,Amateur Teen 18-19,18,2001-04-09
1,M,Andrey Gaposhko,Андрей Гапошко,117.3,,,,,,,,,,,260,270,-275,270,,270,125,D,Raw,No,Amateur Open,33,1986-04-11
2,M,Ivan Rak,Иван Рак,120,,,,,,,,,,,245,255,265,265,,265,125,D,Raw,No,Amateur Open,45,1974-08-27
1,M,Ivan Rak,Иван Рак,120,,,,,,,,,,,245,255,265,265,,265,125,D,Raw,No,Amateur Masters 45-49,45,1974-08-27
2,M,Oleg Tarasov,Олег Тарасов,124,,,,,,,,,,,245,257.5,-262.5,257.5,,257.5,125,D,Raw,No,Amateur Masters 45-49,47,1972-06-22
1,M,Anton Mikhalin,Антон Михалин,137,,,,,,,,,,,210,227.5,260,260,,260,140,D,Raw,No,Amateur Open,33,1987-01-05
