Place,Sex,Name,CyrillicName,BodyweightKg,Bench1Kg,Bench2Kg,Bench3Kg,Best3BenchKg,Bench4Kg,TotalKg,WeightClassKg,Event,Equipment,Tested,Division,Age,BirthDate
1,F,Anastasiya Medvedeva,Анастасия Медведева,67.4,40,45,50,50,,50,67.5,B,Raw,No,Open,20,1998-01-13
1,F,Elena Safronova,Елена Сафронова,73,80,90,95,95,,95,75,B,Raw,No,Masters 45-49,45,1973-06-02
1,M,Andrey Katanov,Андрей Катанов,54,45,47.5,50,50,,50,56,B,Raw,No,Teen 13-15,15,2003-03-19
1,M,Nikolay Rybin,Николай Рыбин,59.5,80,85,-92.5,85,,85,60,B,Raw,No,Open,25,1993-06-02
1,M,Aleksey Balko,Алексей Балько,66.7,110,115,-122.5,115,,115,67.5,B,Raw,No,Open,33,1985-07-17
2,M,Oleg Kharin,Олег Харин,67.5,100,110,-115,110,,110,67.5,B,Raw,No,Open,23,1995-06-02
1,M,Dmitriy Tarasov,Дмитрий Тарасов,81.9,120,130,142.5,142.5,,142.5,82.5,B,Raw,No,Open,25,1993-06-02
2,M,Ilya Gayduk,Илья Гайдук,82.3,100,105,-110,105,,105,82.5,B,Raw,No,Open,22,1995-10-18
1,M,Viktor Popov #7,Виктор Попов,90,150,155,-157.5,155,,155,90,B,Raw,No,Open,43,1974-09-23
2,M,Oleg Bilyukov,Олег Билюков,87.6,100,110,-117.5,110,,110,90,B,Raw,No,Open,23,1995-05-23
3,M,Dmitriy Krivoruchko,Дмитрий Криворучко,90,100,105,-107.5,105,,105,90,B,Raw,No,Open,22,1996-06-13
1,M,Timur Radzhabov,Тимур Раджабов,100,120,130,140,140,,140,100,B,Raw,No,Open,37,1981-04-11
2,M,Denis Veskov,Денис Весков,95,85,90,95,95,,95,100,B,Raw,No,Open,25,1993-04-12
3,M,Ilya Golub,Илья Голубь,96,75,80,-85,80,,80,100,B,Raw,No,Open,24,1994-05-06
1,M,Sergey Lir,Сергей Лир,107.8,100,200,230,230,,230,110,B,Raw,No,Open,26,1991-08-25
