Place,Name,CyrillicName,Sex,BodyweightKg,Bench1Kg,Bench2Kg,Bench3Kg,Best3BenchKg,TotalKg,WeightClassKg,Event,Equipment,Deadlift1Kg,Deadlift2Kg,Deadlift3Kg,Best3DeadliftKg,Deadlift4Kg,Bench4Kg,Squat1Kg,Squat2Kg,Squat3Kg,Best3SquatKg,Squat4Kg,Division,Age,Tested
1,Irina Isaeva,Ирина Исаева,F,59.5,52.5,-57.5,-57.5,52.5,52.5,60,B,Raw,,,,,,,,,,,,Teen,15,Yes
1,Yuliya Tarasova,Юлия Тарасова,F,59.6,72.5,77.5,-80,77.5,77.5,60,B,Raw,,,,,,,,,,,,Open,42,Yes
1,Esakov Vadim,Есаков Вадим,M,57.8,67.5,70,72.5,72.5,72.5,60,B,Raw,,,,,,,,,,,,Teen,14,Yes
1,Vitaliy Shatalov,Виталий Шаталов,M,78.6,130,-140,-140,130,130,82.5,B,Raw,,,,,,,,,,,,Open,31,Yes
1,Oleg Vinokurov,Олег Винокуров,M,74.8,-112.5,115,117.5,117.5,117.5,75,B,Raw,,,,,,,,,,,,Masters 45-49,49,Yes
1,Taras Itunin,Тарас Итунин,M,86.5,145,150,155,155,155,90,B,Raw,,,,,,,,,,,,Open,37,Yes
1,Eduard Tarasov,Эдуард Тарасов,M,89.8,100,110,115,115,115,90,B,Raw,,,,,,,,,,,,Masters 50-54,53,Yes
1,Dmitriy Vasilev,Дмитрий Васильев,M,93.3,165,170,175,175,175,100,B,Raw,,,,,,,,,,,,Open,32,Yes
1,Igor Kurotchenko,Игорь Куротченко,M,106.9,135,147.5,150,150,150,110,B,Raw,,,,,,,,,,,,Open,54,Yes
1,Igor Kurotchenko,Игорь Куротченко,M,106.9,135,147.5,150,150,150,110,B,Raw,,,,,,,,,,,,Masters 50-54,54,Yes
1,Valentina Sokolova,Валентина Соколова,F,57.6,62.5,67.5,-72.5,67.5,67.5,60,B,Raw,,,,,,,,,,,,Open,28,No
1,Aleksandra Antipova,Александра Антипова,F,71.9,115,120,123,123,122.5,75,B,Raw,,,,,,,,,,,,Open,22,No
1,Aleksandra Antipova,Александра Антипова,F,71.9,115,120,123,123,122.5,75,B,Raw,,,,,,,,,,,,Open,22,No
1,Nikolay Bletko,Николай Блетько,M,76.5,185,-195,-195,185,185,82.5,B,Raw,,,,,,,,,,,,Open,25,No
1,Vladimir Belokopytov,Владимир Белокопытов,M,97,-140,145,155,155,155,100,B,Raw,,,,,,,,,,,,Open,23,No
1,Aleksandr Lyashenko,Александр Ляшенко,M,95,160,167.5,172.5,172.5,172.5,100,B,Raw,,,,,,,,,,,,Open,39,No
1,Vladimir Khatipov,Владимир Хатипов,M,95,150,160,-170,160,160,100,B,Raw,,,,,,,,,,,,Masters 45-49,47,No
1,Sergey Feofanov,Сергей Феофанов,M,101.9,170,177.5,-182.5,177.5,177.5,110,B,Raw,,,,,,,,,,,,Open,28,No
1,Leonid Baryagin,Леонид Барягин,M,120,160,-170,170,170,170,125,B,Raw,,,,,,,,,,,,Open,54,No
1,Leonid Baryagin,Леонид Барягин,M,120,160,-170,170,170,170,125,B,Raw,,,,,,,,,,,,Masters 50-54,54,No
1,Lavrov Dmitriy,Лавров Дмитрий,M,102.1,170,175,-180,175,175,110,B,Raw,,,,,,,,,,,,Open,37,No
1,Georgi Beroshvili,,M,125,260,275,285,285,285,125,B,Raw,,,,,,,,,,,,Open,32,No
2,Aleksandr Fotin,Александр Фотин,M,122.4,245,252.5,-257.5,252.5,252.5,125,B,Raw,,,,,,,,,,,,Open,25,No
1,Pavel Leonov,Павел Леонов,M,94.4,310,320,-325,320,320,100,B,Multi-ply,,,,,,,,,,,,Open,32,No
2,Meshcheryakov Sergey,Мещеряков Сергей,M,97.5,220,-230,-230,220,220,100,B,Multi-ply,,,,,,,,,,,,Open,38,No
1,Sergey Ivanchikov,Сергей Иванчиков,M,116.2,255,270,-285,270,270,125,B,Multi-ply,,,,,,,,,,,,Open,38,No
1,Larisa Chernobaeva,Лариса Чернобаева,F,54.9,,,,,150,56,D,Multi-ply,137.5,150,,150,,,,,,,,Open,35,No
1,Alisa Bystrova,Алиса Быстрова,F,65.5,,,,,162.5,67.5,D,Multi-ply,155,162.5,-170,162.5,,,,,,,,Open,27,No
1,Roman Durnov,Роман Дурнов,M,80.4,,,,,230,82.5,D,Multi-ply,210,230,-242.5,230,,,,,,,,Open,29,No
1,Aleksey Sheykin,Алексей Шейкин,M,89.3,,,,,270,90,D,Multi-ply,250,265,270,270,,,,,,,,Open,28,No
2,Stanislav Belov,Станислав Белов,M,87.7,,,,,212.5,90,D,Multi-ply,202.5,212.5,-222.5,212.5,,,,,,,,Open,25,No
1,Alena Fedulova,Алена Федулова,F,59.3,,,,,100,60,D,Multi-ply,90,100,-110,100,,,,,,,,Open,25,No
1,Nina Emelyanova,Нина Емельянова,F,66.2,,,,,125,67.5,D,Multi-ply,115,125,-135,125,,,,,,,,Open,35,No
1,Yuliya Medvedeva #1,Юлия Медведева,F,75,,,,,230,75,D,Multi-ply,230,-250,,230,,,,,,,,Open,36,No
1,Nikolay Prokaev,Николай Прокаев,M,64.6,,,,,190,67.5,D,Multi-ply,170,190,-200,190,,,,,,,,Open,28,No
1,Anton Doronin,Антон Доронин,M,73.6,,,,,175,75,D,Multi-ply,155,170,175,175,,,,,,,,Open,24,No
1,Timur Bogdanov,Тимур Богданов,M,82,,,,,245,82.5,D,Multi-ply,-245,-245,245,245,,,,,,,,Open,28,No
2,Parfenov Aleksandr,Парфенов Александр,M,81,,,,,152.5,82.5,D,Multi-ply,145,152.5,-157.5,152.5,,,,,,,,Open,27,No
1,Vladimir Urazov,Владимир Уразов,M,82,,,,,250,82.5,D,Multi-ply,240,250,-260,250,,,,,,,,Masters 45-49,48,No
1,Dmitriy Gorelikov,Дмитрий Гореликов,M,87.6,,,,,265,90,D,Multi-ply,257.5,265,,265,,,,,,,,Open,47,No
2,Petr Samko,Петр Самко,M,90,,,,,240,90,D,Multi-ply,210,240,-250,240,,,,,,,,Open,28,No
3,Roman Tsikolenko,Роман Циколенко,M,87.7,,,,,200,90,D,Multi-ply,175,190,200,200,,,,,,,,Open,31,No
1,Dmitriy Gorelikov,Дмитрий Гореликов,M,87.6,,,,,265,90,D,Multi-ply,257.5,265,,265,,,,,,,,Masters 45-49,47,No
1,Dmitriy Pershin,Дмитрий Першин,M,94,,,,,220,100,D,Multi-ply,200,220,-235,220,,,,,,,,Open,25,No
1,Aleksandr Muratkin,Александр Мураткин,M,109,,,,,345,110,D,Multi-ply,330,-340,345,345,,,,,,,,Open,30,No
DQ,Vladimir Dergunov,Владимир Дергунов,M,108.9,,,,,,110,D,Multi-ply,-342.5,-342.5,-342.5,,,,,,,,,Open,25,No
1,Ruslan Pustovoy,Руслан Пустовой,M,121.5,,,,,320,125,D,Multi-ply,300,320,-335,320,,,,,,,,Open,36,No
1,Maksim Baruzdin,Максим Баруздин,M,126,,,,,340,140,D,Multi-ply,340,-360,-360,340,,,,,,,,Open,33,No
1,Bejerano Rankin,,M,190,,,,,340,140+,D,Multi-ply,300,340,-370,340,,,,,,,,Open,40,No
1,Bejerano Rankin,,M,190,,,,,340,140+,D,Multi-ply,300,340,-370,340,,,,,,,,Masters 40-44,40,No
1,Yuliya Avdeeva,Юлия Авдеева,F,46.1,,,,,90,48,D,Raw,72.5,85,90,90,,,,,,,,Teen,18,Yes
1,Irina Bryukhanova,Ирина Брюханова,F,48,,,,,115,48,D,Raw,100,110,115,115,,,,,,,,Open,31,Yes
1,Yuliya Churakova,Юлия Чуракова,F,51.3,,,,,105,52,D,Raw,95,102.5,105,105,,,,,,,,Open,24,Yes
2,Diana Raylyanu,Диана Райляну,F,52,,,,,105,52,D,Raw,105,-110,-110,105,,,,,,,,Open,26,Yes
1,Ekaterina Dudareva,Екатерина Дударева,F,55.2,,,,,127.5,56,D,Raw,115,125,127.5,127.5,,,,,,,,Juniors 20-23,22,Yes
1,Galina Netrebina,Галина Нетребина,F,54.3,,,,,115,56,D,Raw,105,115,-125,115,,,,,,,,Open,37,Yes
2,Ilina Postnova,Илина Постнова,F,55.4,,,,,100,56,D,Raw,90,95,100,100,,,,,,,,Open,30,Yes
1,Polina Cheshuina,Полина Чешуина,F,59.1,,,,,145,60,D,Raw,132.5,140,145,145,,,,,,,,Teen,18,Yes
1,Darya Ermolaeva,Дарья Ермолаева,F,60,,,,,150,60,D,Raw,130,140,150,150,,,,,,,,Juniors 20-23,23,Yes
1,Ekaterina Sukhoverkova,Екатерина Суховеркова,F,59.3,,,,,177.5,60,D,Raw,160,170,177.5,177.5,,,,,,,,Open,43,Yes
2,Svetlana Okhapkina,Светлана Охапкина,F,59.4,,,,,170,60,D,Raw,165,170,-175,170,,,,,,,,Open,39,Yes
3,Natalya Dyakonova,Наталья Дьяконова,F,58.3,,,,,150,60,D,Raw,135,142.5,150,150,,,,,,,,Open,28,Yes
4,Darya Ermolaeva,Дарья Ермолаева,F,60,,,,,150,60,D,Raw,130,140,150,150,,,,,,,,Open,23,Yes
1,Nadezhda Talikova,Надежда Таликова,F,65.9,,,,,162.5,67.5,D,Raw,162.5,-172.5,-172.5,162.5,,,,,,,,Open,56,Yes
2,Marina Kozhukhantseva,Марина Кожуханцева,F,66.4,,,,,142.5,67.5,D,Raw,125,135,142.5,142.5,,,,,,,,Open,24,Yes
3,Ekaterina Kostina,Екатерина Костина,F,63.8,,,,,140,67.5,D,Raw,-140,140,-150,140,,,,,,,,Open,26,Yes
4,Svetlana Krymovskaya,Светлана Крымовская,F,62.9,,,,,120,67.5,D,Raw,-120,120,-142.5,120,,,,,,,,Open,32,Yes
5,Alina Khlebodarova,Алина Хлебодарова,F,65.6,,,,,112.5,67.5,D,Raw,112.5,-122.5,-122.5,112.5,,,,,,,,Open,26,Yes
6,Elena Prokhina,Елена Прохина,F,64.3,,,,,100,67.5,D,Raw,-95,95,100,100,,,,,,,,Open,32,Yes
1,Nadezhda Talikova,Надежда Таликова,F,65.9,,,,,162.5,67.5,D,Raw,162.5,-172.5,-172.5,162.5,,,,,,,,Masters 55-59,56,Yes
1,Natalya Cherkasova,Наталья Черкасова,F,71.9,,,,,135,75,D,Raw,127.5,135,-140,135,,,,,,,,Open,39,Yes
2,Dinara Musaeva,Динара Мусаева,F,73.7,,,,,125,75,D,Raw,125,-135,-140,125,,,,,,,,Open,35,Yes
1,Lyudmila Gil,Людмила Гиль,F,72.2,,,,,140,75,D,Raw,130,140,-147.5,140,,,,,,,,Masters 40-44,40,Yes
1,Yuliya Panteleeva,Юлия Пантелеева,F,78.7,,,,,132.5,82.5,D,Raw,125,132.5,-137.5,132.5,,,,,,,,Open,34,Yes
2,Yuliya Kamaeva,Юлия Камаева,F,82.4,,,,,115,82.5,D,Raw,115,-125,-125,115,,,,,,,,Open,24,Yes
1,Veronika Ukolova,Вероника Уколова,F,115.7,,,,,150,90+,D,Raw,150,-157.5,-157.5,150,,,,,,,,Open,18,Yes
1,Ivan Dolgorukov,Иван Долгоруков,M,48.9,,,,,132.5,52,D,Raw,110,-122.5,132.5,132.5,,,,,,,,Juniors 20-23,23,Yes
1,Arseniy Tyablikov,Арсений Тябликов,M,52.7,,,,,122.5,56,D,Raw,100,110,122.5,122.5,,,,,,,,Juniors 20-23,22,Yes
DQ,Dmitriy Shurygin,Дмитрий Шурыгин,M,59.5,,,,,,60,D,Raw,-165,-165,-165,,,,,,,,,Teen,18,Yes
DQ,Dmitriy Shurygin,Дмитрий Шурыгин,M,59.5,,,,,,60,D,Raw,-165,-165,-165,,,,,,,,,Open,18,Yes
1,Maksim Popov #1,Максим Попов,M,66,,,,,205,67.5,D,Raw,205,-220,-220,205,,,,,,,,Open,31,Yes
2,Pavel Veselov,Павел Веселов,M,67.4,,,,,200,67.5,D,Raw,-195,195,200,200,,,,,,,,Open,28,Yes
3,Suren Mkrtumyan,Сурен Мкртумян,M,66.6,,,,,195,67.5,D,Raw,180,195,-207.5,195,,,,,,,,Open,27,Yes
4,Aleksey Kozinets,Алексей Козинец,M,65.5,,,,,170,67.5,D,Raw,165,170,-175,170,,,,,,,,Open,29,Yes
5,Andrey Merkulov,Андрей Меркулов,M,66.9,,,,,170,67.5,D,Raw,170,-185,-195,170,,,,,,,,Open,24,Yes
6,Denis Popov,Денис Попов,M,67.4,,,,,170,67.5,D,Raw,152.5,162.5,170,170,,,,,,,,Open,24,Yes
DQ,Sergey Kosinskiy,Сергей Косинский,M,66.5,,,,,,67.5,D,Raw,-175,-175,-180,,,,,,,,,Open,31,Yes
1,Nikolay Obukhov,Николай Обухов,M,67,,,,,155,67.5,D,Raw,145,155,-165,155,,,,,,,,Masters 60-64,63,Yes
1,Saveliy Fadin,Савелий Фадин,M,70.7,,,,,182.5,75,D,Raw,170,182.5,-190,182.5,,,,,,,,Teen,17,Yes
2,Nikita Mizonov,Никита Мизонов,M,73,,,,,130,75,D,Raw,125,130,-135,130,,,,,,,,Teen,16,Yes
1,Vasiliy Olar,Василий Оларь,M,73.6,,,,,217.5,75,D,Raw,210,215,217.5,217.5,,,,,,,,Juniors 20-23,22,Yes
1,Mikhail Chetvergov,Михаил Четвергов,M,71.7,,,,,237.5,75,D,Raw,210,220,237.5,237.5,245,,,,,,,Open,31,Yes
2,Ivan Shatov,Иван Шатов,M,73.4,,,,,215,75,D,Raw,195,207.5,215,215,,,,,,,,Open,29,Yes
3,Mikhail Kostikov,Михаил Костиков,M,74.6,,,,,182.5,75,D,Raw,175,182.5,-187.5,182.5,,,,,,,,Open,40,Yes
4,Evgeniy Batyaev,Евгений Батяев,M,73.5,,,,,180,75,D,Raw,180,-185,-185,180,,,,,,,,Open,29,Yes
1,Sergey Krupka,Сергей Крупка,M,76.6,,,,,220,82.5,D,Raw,195,215,220,220,,,,,,,,Teen,15,Yes
2,Aleksandr Pyanzin,Александр Пьянзин,M,80.8,,,,,157.5,82.5,D,Raw,150,157.5,-165,157.5,,,,,,,,Teen,16,Yes
1,Mikhail Kiselev,Михаил Киселев,M,81.3,,,,,270,82.5,D,Raw,230,250,270,270,,,,,,,,Juniors 20-23,23,Yes
2,Dmitriy Morozov,Дмитрий Морозов,M,80.5,,,,,220,82.5,D,Raw,210,220,-230,220,,,,,,,,Juniors 20-23,20,Yes
3,Andrey Kozhedub,Андрей Кожедуб,M,81.4,,,,,220,82.5,D,Raw,210,-217.5,220,220,,,,,,,,Juniors 20-23,22,Yes
4,Daniil Zyablitskiy,Даниил Зяблицкий,M,80.7,,,,,212.5,82.5,D,Raw,-200,-200,212.5,212.5,,,,,,,,Juniors 20-23,23,Yes
1,Vladislav Kuzmishchev,Владислав Кузьміщев,M,81.5,,,,,282.5,82.5,D,Raw,260,275,282.5,282.5,-300.5,,,,,,,Open,32,Yes
2,Sergey Evseev,Сергей Евсеев,M,81.5,,,,,255,82.5,D,Raw,230,-255,255,255,,,,,,,,Open,25,Yes
3,Igor Shatilo,Игорь Шатило,M,81.3,,,,,222.5,82.5,D,Raw,-210,210,222.5,222.5,,,,,,,,Open,27,Yes
4,Aleksey Sergeev,Алексей Сергеев,M,80.3,,,,,200,82.5,D,Raw,180,192.5,200,200,,,,,,,,Open,26,Yes
5,Sergey Burdakov,Сергей Бурдаков,M,79.7,,,,,170,82.5,D,Raw,150,165,170,170,,,,,,,,Open,36,Yes
DQ,Denis Emelyanov,Денис Емельянов,M,81,,,,,,82.5,D,Raw,-155,-155,,,,,,,,,,Open,27,Yes
1,Ilya Kuznetsov,Илья Кузнецов,M,82,,,,,180,82.5,D,Raw,180,-200,-200,180,,,,,,,,Masters 40-44,40,Yes
1,Saeid Vahidinejad,,M,75.4,,,,,170,82.5,D,Raw,140,155,170,170,,,,,,,,Masters 50-54,50,Yes
1,German Barabanov,Герман Барабанов,M,78.9,,,,,170,82.5,D,Raw,150,160,170,170,,,,,,,,Masters,76,Yes
2,Daneshvar Mohammedhasan,,M,80,,,,,100,82.5,D,Raw,80,100,,100,,,,,,,,Masters,78,Yes
1,Egor Filkin,Егор Филькин,M,84.9,,,,,160,90,D,Raw,160,-180,-180,160,,,,,,,,Teen,14,Yes
1,Lev Averkiev,Лев Аверкиев,M,89.1,,,,,190,90,D,Raw,190,-200,-200,190,,,,,,,,Juniors 20-23,22,Yes
1,Kirill Lomanov,Кирилл Ломанов,M,89.9,,,,,300,90,D,Raw,290,-300,300,300,,,,,,,,Open,28,Yes
2,Vitaliy Zheludev,Виталий Желудев,M,86.8,,,,,265,90,D,Raw,265,-270,-270,265,,,,,,,,Open,31,Yes
3,Aleksey Sheykin,Алексей Шейкин,M,89.3,,,,,265,90,D,Raw,250,265,-275,265,,,,,,,,Open,28,Yes
4,Pavel Zaytsev,Павел Зайцев,M,86.7,,,,,215,90,D,Raw,202.5,215,,215,,,,,,,,Open,25,Yes
5,Nikolay Luppov,Николай Луппов,M,88.9,,,,,215,90,D,Raw,215,-225,-225,215,,,,,,,,Open,37,Yes
1,Aleksandr Dudchenko,Александр Дудченко,M,85.5,,,,,160,90,D,Raw,150,-160,160,160,,,,,,,,Masters 65-69,69,Yes
1,Mikhail Parfenov,Михаил Парфенов,M,96.4,,,,,220,100,D,Raw,195,210,220,220,,,,,,,,Juniors 20-23,23,Yes
1,Aleksey Krylov,Алексей Крылов,M,97.7,,,,,262.5,100,D,Raw,250,262.5,-270,262.5,,,,,,,,Open,28,Yes
2,Aleksey Smirnov,Алексей Смирнов,M,95,,,,,260,100,D,Raw,240,250,260,260,,,,,,,,Open,38,Yes
3,Mikhail Zhukov,Михаил Жуков,M,99.7,,,,,255,100,D,Raw,255,-275,-275,255,,,,,,,,Open,29,Yes
4,Tariel Rurua,Тариел Руруа,M,98.8,,,,,230,100,D,Raw,200,220,230,230,,,,,,,,Open,37,Yes
5,Denis Popov,Денис Попов,M,96.8,,,,,210,100,D,Raw,210,-225,-225,210,,,,,,,,Open,28,Yes
6,Gleb Zubakov,Глеб Зубаков,M,95.6,,,,,205,100,D,Raw,185,195,205,205,,,,,,,,Open,24,Yes
7,Akbar Murataliev,Акбар Мураталиев,M,94.9,,,,,160,100,D,Raw,120,-140,160,160,,,,,,,,Open,31,Yes
DQ,Semen Smirnovskiy,Семен Смирновский,M,103.5,,,,,,110,D,Raw,-165,-175,-175,,,,,,,,,Open,24,Yes
1,Mehrdad Gholamreza,,M,95.4,,,,,135,100,D,Raw,120,135,-150,135,,,,,,,,Masters 50-54,51,Yes
1,Konstantin Morozov #1,Константин Морозов,M,108.1,,,,,362.5,110,D,Raw,345,362.5,-370,362.5,,,,,,,,Open,31,Yes
2,Valeriy Shumbasov,Валерий Шумбасов,M,110,,,,,325,110,D,Raw,305,325,,325,,,,,,,,Open,33,Yes
3,Roman Legchilin,Роман Легчилин,M,102,,,,,280,110,D,Raw,260,270,280,280,,,,,,,,Open,25,Yes
4,Dmitriy Pavlovskiy,Дмитрий Павловский,M,105.2,,,,,260,110,D,Raw,260,-270,-270,260,,,,,,,,Open,28,Yes
5,Andrey Shishkin,Андрей Шишкин,M,108.9,,,,,247.5,110,D,Raw,175,230,247.5,247.5,,,,,,,,Open,53,Yes
6,Reza Zamani,,M,104.9,,,,,235,110,D,Raw,235,-245,,235,,,,,,,,Open,39,Yes
7,Vyacheslav Sergeev,Вячеслав Сергеев,M,109,,,,,215,110,D,Raw,215,-220,-220,215,,,,,,,,Open,30,Yes
1,Plenkin Denis,Пленкин Денис,M,107.3,,,,,240,110,D,Raw,220,-230,240,240,,,,,,,,Masters 40-44,41,Yes
2,Konstantin Pylaev,Константин Пылаев,M,107.9,,,,,230,110,D,Raw,215,230,-240,230,,,,,,,,Masters 40-44,43,Yes
1,Andrey Shishkin,Андрей Шишкин,M,108.9,,,,,247.5,110,D,Raw,175,230,247.5,247.5,,,,,,,,Masters 50-54,53,Yes
1,Vedernikov Igor,Ведерников Игорь,M,122.7,,,,,140,125,D,Raw,110,130,140,140,,,,,,,,Teen,16,Yes
1,Vladimir Borisov,Владимир Борисов,M,119.1,,,,,225,125,D,Raw,200,225,-235,225,,,,,,,,Juniors 20-23,21,Yes
1,Ivan Regulyarnyy,Иван Регулярный,M,116.9,,,,,285,125,D,Raw,260,275,285,285,290,,,,,,,Open,31,Yes
2,Andrey Petrov,Андрей Петров,M,117.4,,,,,252.5,125,D,Raw,230,250,252.5,252.5,,,,,,,,Open,34,Yes
1,Oleg Demchenko,Олег Демченко,M,128.5,,,,,340,140,D,Raw,320,340,-350,340,,,,,,,,Open,38,Yes
2,Andrey Shmorgun,Андрей Шморгун,M,130,,,,,250,140,D,Raw,250,-270,-270,250,,,,,,,,Open,31,Yes
1,Aleksey Shoniya,Алексей Шония,M,135.5,,,,,250,140,D,Raw,230,250,-270,250,,,,,,,,Masters 45-49,45,Yes
1,Anichkina Valeriya,Аничкина Валерия,F,46.7,,,,,55,48,D,Raw,50,55,,55,,,,,,,,Juniors 20-23,21,No
1,Nadezhda Barsukova,Надежда Барсукова,F,49,,,,,110,52,D,Raw,95,-102.5,110,110,,,,,,,,Open,32,No
1,Anastasiya Zorina,Анастасия Зорина,F,54.2,,,,,132.5,56,D,Raw,120,132.5,-142.5,132.5,,,,,,,,Teen,19,No
1,Anastasiya Zorina,Анастасия Зорина,F,54.2,,,,,132.5,56,D,Raw,120,132.5,-142.5,132.5,,,,,,,,Open,19,No
2,Elena Astakhova,Елена Астахова,F,55.6,,,,,122.5,56,D,Raw,122.5,-132.5,-135,122.5,,,,,,,,Open,34,No
1,Belyak Marina,Беляк Марина,F,54.9,,,,,77.5,56,D,Raw,70,77.5,-85,77.5,,,,,,,,Masters 45-49,48,No
1,Galina Bocharova,Галина Бочарова,F,58,,,,,137.5,60,D,Raw,125,137.5,-145,137.5,,,,,,,,Juniors 20-23,23,No
DQ,Alena Fedulova,Алена Федулова,F,59.3,,,,,,60,D,Raw,-90,,,,,,,,,,,Open,25,No
1,Kristina Kalintseva,Кристина Калинцева,F,63.2,,,,,105,67.5,D,Raw,90,100,105,105,,,,,,,,Juniors 20-23,20,No
DQ,Viktoriya Ablaeva,Виктория Аблаева,F,63.4,,,,,,67.5,D,Raw,-170,-170,-170,,,,,,,,,Open,32,No
1,Aleksandra Kalyonova,Александра Калёнова,F,68.7,,,,,110,75,D,Raw,90,100,110,110,,,,,,,,Open,25,No
1,Viktoriya Knysh,Виктория Кныш,F,86.4,,,,,190,90,D,Raw,-180,180,190,190,,,,,,,,Open,33,No
1,Viktoriya Parfenova,Виктория Парфенова,F,109.3,,,,,140,90+,D,Raw,130,135,140,140,,,,,,,,Open,26,No
1,Nikolay Prokaev,Николай Прокаев,M,64.6,,,,,187.5,67.5,D,Raw,170,180,187.5,187.5,,,,,,,,Open,28,No
1,Maksim Sukhobok,Максим Сухобок,M,63.2,,,,,222.5,67.5,D,Raw,200,210,222.5,222.5,,,,,,,,Masters 50-54,51,No
1,Pavel Shcherbakov,Павел Щербаков,M,68.2,,,,,192.5,75,D,Raw,175,185,192.5,192.5,,,,,,,,Teen,17,No
1,Yuriy Aleksandrov,Юрий Александров,M,71.6,,,,,180,75,D,Raw,-150,150,180,180,,,,,,,,Open,25,No
1,Vyacheslav Kapitonov,Вячеслав Капитонов,M,81.3,,,,,212.5,82.5,D,Raw,-200,-212.5,212.5,212.5,,,,,,,,Juniors 20-23,20,No
1,Pavel Zubkov,Павел Зубков,M,80.4,,,,,290,82.5,D,Raw,280,290,-302.5,290,,,,,,,,Open,30,No
2,Maksim Kalenkin,Максим Каленкин,M,80.8,,,,,275,82.5,D,Raw,275,-280,-280,275,,,,,,,,Open,27,No
1,German Barabanov,Герман Барабанов,M,78.9,,,,,170,82.5,D,Raw,150,160,170,170,,,,,,,,Masters,76,No
1,Ilya Katigaridi,Илья Катигариди,M,89.9,,,,,180,90,D,Raw,-180,180,-200,180,,,,,,,,Teen,18,No
1,Evgeniy Khomov,Евгений Хомов,M,88.9,,,,,300,90,D,Raw,-300,300,-305,300,,,,,,,,Open,33,No
2,Aleksey Sheykin,Алексей Шейкин,M,89.3,,,,,265,90,D,Raw,250,265,-275,265,,,,,,,,Open,28,No
1,Vladimir Fokin,Владимир Фокин,M,87.8,,,,,250,90,D,Raw,235,245,250,250,,,,,,,,Masters 50-54,50,No
1,Daniil Chekmasov,Даниил Чекмасов,M,97.9,,,,,250,100,D,Raw,240,250,-252.5,250,,,,,,,,Teen,18,No
2,Emil Aliev,Эмиль Алиев,M,94.6,,,,,240,100,D,Raw,240,-252.5,-255,240,,,,,,,,Teen,19,No
1,Anton Ilyasov,Антон Илясов,M,94.4,,,,,330,100,D,Raw,310,-325,330,330,,,,,,,,Open,27,No
2,Andrey Bulgar,Андрей Булгарь,M,98.2,,,,,315,100,D,Raw,315,-325,-325,315,,,,,,,,Open,27,No
3,Aleksey Karev,Алексей Карев,M,95.9,,,,,255,100,D,Raw,242.5,255,-260,255,,,,,,,,Open,36,No
4,Artem Kirsanov,Артем Кирсанов,M,90.4,,,,,250,100,D,Raw,235,250,-272.5,250,,,,,,,,Open,25,No
5,Valentin Efremov,Валентин Ефремов,M,97.2,,,,,250,100,D,Raw,250,-260,-272.5,250,,,,,,,,Open,30,No
DQ,Semen Sinitsyn,Семен Синицын,M,94,,,,,,100,D,Raw,-200,,,,,,,,,,,Open,25,No
1,Vitaliy Gnatko,Виталий Гнатко,M,94.2,,,,,227.5,100,D,Raw,200,215,227.5,227.5,,,,,,,,Masters 50-54,54,No
1,Artur Borisov,Артур Борисов,M,109.8,,,,,260,110,D,Raw,260,-280,-280,260,,,,,,,,Teen,18,No
1,Pavel Koltsov,Павел Кольцов,M,103.8,,,,,250,110,D,Raw,230,250,-270,250,,,,,,,,Juniors 20-23,22,No
1,Konstantin Morozov #1,Константин Морозов,M,108.1,,,,,362.5,110,D,Raw,345,362.5,-370,362.5,,,,,,,,Open,31,No
2,Aleksandr Vasev,Александр Васев,M,103.5,,,,,335,110,D,Raw,-335,335,-345,335,,,,,,,,Open,24,No
3,Sergey Anikin,Сергей Аникин,M,105.6,,,,,305,110,D,Raw,280,292.5,305,305,,,,,,,,Open,35,No
4,Vasiliy Dovgoborets,Василий Довгоборец,M,109.1,,,,,300,110,D,Raw,300,-310,-310,300,,,,,,,,Open,26,No
5,Artyom Reshetnikov,Артём Решетников,M,106.4,,,,,290,110,D,Raw,290,-300,-300,290,,,,,,,,Open,26,No
6,Pavel Ermolaev,Павел Ермолаев,M,100.1,,,,,250,110,D,Raw,230,250,-300,250,,,,,,,,Open,25,No
7,Zhaslan Zhumanyazov,Жаслан Жуманьязов,M,106.2,,,,,235,110,D,Raw,235,-252.5,-252.5,235,,,,,,,,Open,28,No
1,Valeriy Sytnikov,Валерий Сытников,M,108.8,,,,,280,110,D,Raw,-260,260,280,280,,,,,,,,Masters 45-49,46,No
1,Vladislav Bernetskiy,Владислав Бернецкий,M,118.7,,,,,311,125,D,Raw,260,300,311,311,315,,,,,,,Juniors 20-23,22,No
2,Ilya Klopkov,Илья Клопков,M,116.3,,,,,310,125,D,Raw,310,-335,-335,310,,,,,,,,Juniors 20-23,21,No
1,Athanasios Liouras,,M,117,,,,,300,125,D,Raw,290,300,-305,300,,,,,,,,Open,33,No
2,Vladimir Marchenko,Владимир Марченко,M,118.8,,,,,300,125,D,Raw,300,-335,-335,300,,,,,,,,Open,38,No
3,Aleksey Lebed,Алексей Лебедь,M,120,,,,,265,125,D,Raw,-250,250,265,265,,,,,,,,Open,26,No
1,Alexander Klyushev,Александр Клюшев,M,138,,,,,370,140,D,Raw,370,-385,,370,,,,,,,,Open,32,No
2,Oleg Livshits,Олег Лившиц,M,134.1,,,,,355,140,D,Raw,355,-375,-375,355,,,,,,,,Open,42,No
3,Viktor Krylov,Виктор Крылов,M,133,,,,,320,140,D,Raw,310,320,-325,320,,,,,,,,Open,30,No
1,Irina Bryukhanova,Ирина Брюханова,F,48,60,67.5,-75,67.5,67.5,48,B,Multi-ply,,,,,,,,,,,,Open,31,Yes
1,Nikitina Kseniya,Никитина Ксения,F,52,70,75,80,80,80,52,B,Multi-ply,,,,,,-82.5,,,,,,Teen,19,Yes
1,Elena Prokopova,Елена Прокопова,F,60.9,40,-45,-45,40,40,67.5,B,Multi-ply,,,,,,,,,,,,Masters 50-54,50,Yes
1,Olga Konkova,Ольга Конькова,F,68.8,80,-85,-92.5,80,80,75,B,Multi-ply,,,,,,,,,,,,Juniors 20-23,21,Yes
1,Marina Sinotova,Марина Синотова,F,72.8,100,-105,-105,100,100,75,B,Multi-ply,,,,,,,,,,,,Open,27,Yes
1,Rinat Khuzin,Ринат Хузин,M,74.2,190,202.5,,202.5,202.5,75,B,Multi-ply,,,,,,,,,,,,Open,46,Yes
2,Yuriy Kolesnikov #1,Юрий Колесников,M,74.6,155,-160,,155,155,75,B,Multi-ply,,,,,,,,,,,,Open,34,Yes
1,Sergey Sidorovskiy,Сергей Сидоровский,M,73.6,152.5,162.5,175,175,175,75,B,Multi-ply,,,,,,,,,,,,Masters 40-44,44,Yes
1,Denis Ryadinskiy,Денис Рядинский,M,82,195,202.5,207.5,207.5,207.5,82.5,B,Multi-ply,,,,,,,,,,,,Open,30,Yes
1,Sergey Rasskazov,Сергей Рассказов,M,81.4,-140,140,,140,140,82.5,B,Multi-ply,,,,,,,,,,,,Masters 40-44,43,Yes
1,Kirill Sukharev,Кирилл Сухарев,M,88.7,-195,200,-207.5,200,200,90,B,Multi-ply,,,,,,,,,,,,Juniors 20-23,22,Yes
1,Aleksey Bukalov,Алексей Букалов,M,88.1,190,-195,-195,190,190,90,B,Multi-ply,,,,,,,,,,,,Open,39,Yes
1,Andrey Sukharev,Андрей Сухарев,M,98,240,252.5,257.5,257.5,257.5,100,B,Multi-ply,,,,,,,,,,,,Open,41,Yes
2,Pavel Trukhtanov,Павел Трухтанов,M,96.8,195,215,220,220,220,100,B,Multi-ply,,,,,,,,,,,,Open,39,Yes
3,Pavel Vasilev,Павел Васильев,M,99.3,-200,200,202.5,202.5,202.5,100,B,Multi-ply,,,,,,,,,,,,Open,31,Yes
4,Aleksandr Snetkov,Александр Снетков,M,99.9,175,185,200,200,200,100,B,Multi-ply,,,,,,,,,,,,Open,29,Yes
1,Andrey Sukharev,Андрей Сухарев,M,98,240,252.5,257.5,257.5,257.5,100,B,Multi-ply,,,,,,,,,,,,Masters 40-44,41,Yes
1,Mikhail Prokopov,Михаил Прокопов,M,94.7,175,185,190,190,190,100,B,Multi-ply,,,,,,,,,,,,Masters 55-59,59,Yes
2,Aleksey Styopyshev,Алексей Стёпышев,M,96.7,140,-150,150,150,150,100,B,Multi-ply,,,,,,,,,,,,Masters 50-54,52,Yes
DD,Denis Radin,Денис Радин,M,101.2,180,190,-195,190,,110,B,Multi-ply,,,,,,,,,,,,Teen,19,Yes
1,Aleksandr Kudashkin,Александр Кудашкин,M,107.3,202.5,212.5,,212.5,212.5,110,B,Multi-ply,,,,,,,,,,,,Juniors 20-23,23,Yes
1,Roman Yurasov,Роман Юрасов,M,107.3,250,267.5,275,275,275,110,B,Multi-ply,,,,,,-285,,,,,,Open,40,Yes
2,Aleksandr Zhiltsov,Александр Жильцов,M,101.4,170,-177.5,-177.5,170,170,110,B,Multi-ply,,,,,,,,,,,,Open,31,Yes
1,Roman Yurasov,Роман Юрасов,M,107.3,250,267.5,275,275,275,110,B,Multi-ply,,,,,,-285,,,,,,Masters 40-44,40,Yes
1,Denis Ogloblin,Денис Оглоблин,M,122.3,240,-250,250,250,250,125,B,Multi-ply,,,,,,,,,,,,Open,48,Yes
1,Denis Ogloblin,Денис Оглоблин,M,122.3,240,-250,250,250,250,125,B,Multi-ply,,,,,,,,,,,,Masters 45-49,48,Yes
DQ,Vladimir Chubarov,Владимир Чубаров,M,119.2,-195,-195,-195,,,125,B,Multi-ply,,,,,,,,,,,,Masters 50-54,52,Yes
1,Galina Bocharova,Галина Бочарова,F,58,-70,70,-80,70,70,60,B,Multi-ply,,,,,,,,,,,,Juniors 20-23,23,No
1,Anna Sverchkova,Анна Сверчкова,F,73.4,100,110,-125,110,110,75,B,Multi-ply,,,,,,,,,,,,Open,25,No
2,Elena Shushura,Елена Шушура,F,71.1,70,75,-80,75,75,75,B,Multi-ply,,,,,,,,,,,,Open,40,No
1,Elena Shushura,Елена Шушура,F,71.1,70,75,-80,75,75,75,B,Multi-ply,,,,,,,,,,,,Masters 40-44,40,No
1,Ilya Katigaridi,Илья Катигариди,M,89.9,135,145,-155,145,145,90,B,Multi-ply,,,,,,,,,,,,Teen,18,No
1,Denis Piklyaev,Денис Пикляев,M,89.9,255,272.5,277.5,277.5,277.5,90,B,Multi-ply,,,,,,282.5,,,,,,Open,34,No
2,Pavel Dvoryadkin,Павел Дворядкин,M,85.4,210,220,-230,220,220,90,B,Multi-ply,,,,,,,,,,,,Open,29,No
3,Pavel Loginov,Павел Логинов,M,87.3,-200,-200,200,200,200,90,B,Multi-ply,,,,,,,,,,,,Open,30,No
4,Tsikolenko Roman,Циколенко Роман,M,87.7,130,-140,-140,130,130,90,B,Multi-ply,,,,,,,,,,,,Open,31,No
1,Daniil Maksimkin,Даниил Максимкин,M,97,220,230,250,250,250,100,B,Multi-ply,,,,,,,,,,,,Juniors 20-23,23,No
2,Vladimir Belokopytov,Владимир Белокопытов,M,97,200,-215,-225,200,200,100,B,Multi-ply,,,,,,,,,,,,Juniors 20-23,23,No
1,Sergey Meshcheryakov,Сергей Мещеряков,M,97.5,225,230,235,235,235,100,B,Multi-ply,,,,,,,,,,,,Open,38,No
1,Mikhail Kalmykov,Михаил Калмыков,M,106.3,220,237.5,-242.5,237.5,237.5,110,B,Multi-ply,,,,,,,,,,,,Teen,18,No
1,Evgeniy Filatov,Евгений Филатов,M,103.3,260,280,300,300,300,110,B,Multi-ply,,,,,,,,,,,,Open,34,No
2,Dmitriy Vasilenko,Дмитрий Василенко,M,108.5,260,275,-302.5,275,275,110,B,Multi-ply,,,,,,-302.5,,,,,,Open,40,No
1,Dmitriy Vasilenko,Дмитрий Василенко,M,108.5,260,275,-302.5,275,275,110,B,Multi-ply,,,,,,-302.5,,,,,,Masters 40-44,40,No
1,Maksim Natorkin,Максим Наторкин,M,111,230,240,-255,240,240,125,B,Multi-ply,,,,,,,,,,,,Open,29,No
2,Konstantin Vorobev,Константин Воробьев,M,110.6,160,170,180,180,180,125,B,Multi-ply,,,,,,,,,,,,Open,25,No
1,Kirill Pisarev,Кирилл Писарев,M,119.2,220,-240,-240,220,220,125,B,Multi-ply,,,,,,,,,,,,Masters 40-44,43,No
1,Roman Zalutskiy,Роман Залуцкий,M,126.8,-300,310,317.5,317.5,317.5,140,B,Multi-ply,,,,,,,,,,,,Open,37,No
1,Vyacheslav Solovyev,Вячеслав Соловьев,M,159.9,330,350,365,365,365,140+,B,Multi-ply,,,,,,,,,,,,Open,39,No
1,Marina Gorikova,Марина Горикова,F,59.3,72.5,-77.5,-77.5,72.5,72.5,60,B,Raw,,,,,,,,,,,,Open,33,No
1,Natalya Bakhmatova,Наталья Бахматова,F,63.5,70,75,77.5,77.5,77.5,67.5,B,Raw,,,,,,,,,,,,Masters 45-49,46,No
1,Alesya Gusarova,Алеся Гусарова,F,70,62.5,67.5,70,70,70,75,B,Raw,,,,,,,,,,,,Open,30,No
1,Vladimir Bardokin,Владимир Бардокин,M,48.9,70,80,-90,80,80,52,B,Raw,,,,,,,,,,,,Juniors 20-23,21,No
1,Aleksandr Shalaev,Александр Шалаев,M,67.5,105,-110,-110,105,105,67.5,B,Raw,,,,,,,,,,,,Teen,15,No
1,Pavel Varavin,Павел Варавин,M,66.7,85,90,95,95,95,67.5,B,Raw,,,,,,,,,,,,Open,33,No
1,Yakov Pastukh,Яков Пастух,M,72,120,125,130,130,130,75,B,Raw,,,,,,,,,,,,Open,37,No
2,Abdalov Dmitriy,Абдалов Дмитрий,M,75,80,-85,-85,80,80,75,B,Raw,,,,,,,,,,,,Open,27,No
1,Georgiy Gvozdev,Георгий Гвоздев,M,74.7,100,105,107.5,107.5,107.5,75,B,Raw,,,,,,,,,,,,Masters 55-59,56,No
1,Sergey Kovalyov,Сергей Ковалёв,M,99,77.5,80,-82.5,80,80,100,B,Raw,,,,,,,,,,,,Open,27,No
1,Sergey Kovalyov,Сергей Ковалёв,M,96,110,115,-122.5,115,115,100,B,Raw,,,,,,,,,,,,Masters 45-49,46,No
1,Konstantin Bogdanov,Константин Богданов,M,136.4,180,190,197.5,197.5,197.5,140,B,Raw,,,,,,,,,,,,Open,39,No
2,Stanislav Goryachev,Станислав Горячев,M,126.7,182.5,190,-195,190,190,140,B,Raw,,,,,,,,,,,,Open,40,No
1,Mikhail Sukhanov,Михаил Суханов,M,159.3,-185,185,-190,185,185,140+,B,Raw,,,,,,,,,,,,Open,36,No
DQ,Svetlana Maletskaya,Светлана Малецкая,F,59.4,-92.5,-92.5,-97.5,,,60,B,Single-ply,,,,,,,,,,,,Open,32,Yes
1,Yuliya Kuznetsova,Юлия Кузнецова,F,63.3,125,-132.5,-135,125,125,67.5,B,Single-ply,,,,,,,,,,,,Open,42,Yes
1,Denis Kopyttsev,Денис Копытцев,M,73.2,160,-170,170,170,170,75,B,Single-ply,,,,,,,,,,,,Open,25,Yes
2,Roman Grinev,Роман Гринев,M,72.4,140,-150,150,150,150,75,B,Single-ply,,,,,,,,,,,,Open,31,Yes
DQ,Andrey Dyozhin,Андрей Дёжин,M,81.6,-192.5,-195,-195,,,82.5,B,Single-ply,,,,,,,,,,,,Juniors 20-23,23,Yes
1,Artem Bykhovets,Артем Быховец,M,82.3,210,217.5,-222.5,217.5,217.5,82.5,B,Single-ply,,,,,,,,,,,,Open,32,Yes
1,Vladimir Konchakov,Владимир Кончаков,M,88.3,210,225,232.5,232.5,232.5,90,B,Single-ply,,,,,,,,,,,,Open,42,Yes
2,Sergey Mokhov,Сергей Мохов,M,87,230,-240,-240,230,230,90,B,Single-ply,,,,,,,,,,,,Open,26,Yes
3,Aleksey Sheykin,Алексей Шейкин,M,89.3,-200,200,-210,200,200,90,B,Single-ply,,,,,,,,,,,,Open,28,Yes
4,Maksim Bragin,Максим Брагин,M,85.4,180,-187.5,-187.5,180,180,90,B,Single-ply,,,,,,,,,,,,Open,36,Yes
1,Vladimir Konchakov,Владимир Кончаков,M,88.3,210,225,232.5,232.5,232.5,90,B,Single-ply,,,,,,,,,,,,Masters 40-44,42,Yes
1,Oleg Zverev,Олег Зверев,M,100,200,-215,215,215,215,100,B,Single-ply,,,,,,,,,,,,Open,41,Yes
1,Oleg Zverev,Олег Зверев,M,100,200,-215,215,215,215,100,B,Single-ply,,,,,,,,,,,,Masters 40-44,41,Yes
1,Konstantin Kryzhanovskiy,Константин Крыжановский,M,107.9,250,-255,,250,250,110,B,Single-ply,,,,,,,,,,,,Open,41,Yes
1,Konstantin Kryzhanovskiy,Константин Крыжановский,M,107.9,250,-255,,250,250,110,B,Single-ply,,,,,,,,,,,,Masters 40-44,41,Yes
2,Eduard Abdyushev,Эдуард Абдюшев,M,106.4,-190,190,197.5,197.5,197.5,110,B,Single-ply,,,,,,,,,,,,Masters 60-64,61,Yes
1,Vladimir Popov,Владимир Попов,M,123.7,180,190,195,195,195,125,B,Single-ply,,,,,,,,,,,,Masters 60-64,60,Yes
1,Yuliya Medvedeva #1,Юлия Медведева,F,75,180,190,,190,190,75,B,Multi-ply,,,,,,,,,,,,Open,36,No
2,Ekaterina Zaytseva,Екатерина Зайцева,F,74,150,160,-165,160,160,75,B,Multi-ply,,,,,,,,,,,,Open,29,No
3,Ekaterina Sibalakova,Екатерина Сибалакова,F,74.3,140,147.5,155,155,155,75,B,Multi-ply,,,,,,,,,,,,Open,27,No
1,Alla Pugovkina,Алла Пуговкина,F,85,150,-155,155,155,155,90,B,Multi-ply,,,,,,-160,,,,,,Open,40,No
1,Pavel Silushin,Павел Силушин,M,81.3,-230,230,240,240,240,82.5,B,Multi-ply,,,,,,-252.5,,,,,,Open,26,No
2,Igor Baranovskiy,Игорь Барановский,M,81.5,200,212.5,-220,212.5,212.5,82.5,B,Multi-ply,,,,,,,,,,,,Open,,No
1,Sergey Semenov,Сергей Семенов,M,88.3,190,200,-215,200,200,90,B,Multi-ply,,,,,,,,,,,,Juniors 20-23,23,No
DD,Ivan Semenikhin,Иван Семенихин,M,85,220,230,-235.5,230,,90,B,Multi-ply,,,,,,,,,,,,Open,25,No
2,David Matevosyan,Давид Матевосян,M,89.4,225,-235.5,-235.5,225,225,90,B,Multi-ply,,,,,,,,,,,,Open,24,No
2,Petrov Vsevolod,Петров Всеволод,M,89.4,225,-232.5,-236,225,225,90,B,Multi-ply,,,,,,,,,,,,Open,36,No
4,Aleksey Sheykin,Алексей Шейкин,M,89.3,-200,200,-210,200,200,90,B,Multi-ply,,,,,,,,,,,,Open,28,No
1,Sergey Popov,Сергей Попов,M,89.7,227.5,232.5,-237.5,232.5,232.5,90,B,Multi-ply,,,,,,,,,,,,Masters 40-44,41,No
1,Vladislav Shkudas,Владислав Шкудас,M,99.6,-305,305,315,315,315,100,B,Multi-ply,,,,,,-320,,,,,,Open,27,No
2,Ivan Solntsev,Иван Солнцев,M,98.4,225,235,-240,235,235,100,B,Multi-ply,,,,,,,,,,,,Open,42,No
DQ,Sergey Gradin,Сергей Градин,M,98,-210,-210,-210,,,100,B,Multi-ply,,,,,,,,,,,,Open,36,No
DQ,Aleksey Yakushevich,Алексей Якушевич,M,99.5,-235,-235,,,,100,B,Multi-ply,,,,,,,,,,,,Open,24,No
1,Ivan Solntsev,Иван Солнцев,M,98.4,225,235,-240,235,235,100,B,Multi-ply,,,,,,,,,,,,Masters 40-44,42,No
1,Sergey Strilchuk,Сергей Стрильчук,M,101.6,260,275,285,285,285,110,B,Multi-ply,,,,,,,,,,,,Open,29,No
2,Aleksandr Olkhovskiy,Александр Ольховский,M,107.1,260,267.5,-277.5,267.5,267.5,110,B,Multi-ply,,,,,,,,,,,,Open,37,No
1,Kirill Kayava,Кирилл Каява,M,138,315,-325,325,325,325,140,B,Multi-ply,,,,,,-332.5,,,,,,Open,39,No
2,Dmitriy Bubnov,Дмитрий Бубнов,M,126.6,300,-312.5,312.5,312.5,312.5,140,B,Multi-ply,,,,,,,,,,,,Open,42,No
3,Dmitriy Shabalin #1,Дмитрий Шабалин,M,134.1,305,-315,,305,305,140,B,Multi-ply,,,,,,,,,,,,Open,47,No
1,Dmitriy Bubnov,Дмитрий Бубнов,M,126.6,300,-312.5,312.5,312.5,312.5,140,B,Multi-ply,,,,,,,,,,,,Masters 40-44,42,No
1,Dmitriy Shabalin #1,Дмитрий Шабалин,M,134.1,305,-315,,305,305,140,B,Multi-ply,,,,,,,,,,,,Masters 45-49,47,No
1,Oleksiy Lisogor,Олексій Лісогор,M,162.7,300,310,315,315,315,140+,B,Multi-ply,,,,,,,,,,,,Open,29,No
DQ,Rankin Bejerano,,M,190,-320,-320,-320,,,140+,B,Multi-ply,,,,,,,,,,,,Open,40,No
DQ,Rankin Bejerano,,M,190,-320,-320,-320,,,140+,B,Multi-ply,,,,,,,,,,,,Masters 40-44,40,No
1,Veronika Lebedeva,Вероника Лебедева,F,46.9,65,70,-72.5,70,70,48,B,Raw,,,,,,,,,,,,Open,26,Yes
2,Anastasiya Fedorova,Анастасия Федорова,F,47.9,47.5,52.5,-55,52.5,52.5,48,B,Raw,,,,,,,,,,,,Open,26,Yes
3,Anna Oparina,Анна Опарина,F,47.9,42.5,47.5,-52.5,47.5,47.5,48,B,Raw,,,,,,,,,,,,Open,27,Yes
1,Nadezhda Belova,Надежда Белова,F,51.1,-60,60,-62.5,60,60,52,B,Raw,,,,,,,,,,,,Open,29,Yes
2,Diana Raylyanu,Диана Райляну,F,52,45,,,45,45,52,B,Raw,,,,,,,,,,,,Open,26,Yes
1,Alla Pavlichenko,Алла Павличенко,F,49.7,-50,-50,50,50,50,52,B,Raw,,,,,,,,,,,,Masters 40-44,41,Yes
1,Polina Bobrova,Полина Боброва,F,54.3,40,42.5,-45,42.5,42.5,56,B,Raw,,,,,,,,,,,,Teen,19,Yes
1,Ekaterina Dudareva,Екатерина Дударева,F,55.2,72.5,-75,-75,72.5,72.5,56,B,Raw,,,,,,,,,,,,Open,22,Yes
2,Elena Subbotina,Елена Субботина,F,53,32.5,37.5,-40,37.5,37.5,56,B,Raw,,,,,,,,,,,,Open,31,Yes
3,Anna Slavina,Анна Славина,F,56,32.5,37.5,-47.5,37.5,37.5,56,B,Raw,,,,,,,,,,,,Open,28,Yes
1,Vladislava Dluzhnevskaya,Владислава Длужневская,F,59,95,97.5,100,100,100,60,B,Raw,,,,,,102.5,,,,,,Teen,15,Yes
1,Anastasiya Zakhovaeva,Анастасия Заховаева,F,59.8,-62.5,62.5,65,65,65,60,B,Raw,,,,,,,,,,,,Juniors 20-23,21,Yes
2,Yuliya Kupriyanova,Юлия Куприянова,F,57.5,52.5,57.5,-60,57.5,57.5,60,B,Raw,,,,,,,,,,,,Juniors 20-23,23,Yes
1,Vladislava Dluzhnevskaya,Владислава Длужневская,F,59,95,97.5,100,100,100,60,B,Raw,,,,,,102.5,,,,,,Open,15,Yes
2,Leyla Rudneva,Лейла Руднева,F,58.4,52.5,57.5,62.5,62.5,62.5,60,B,Raw,,,,,,,,,,,,Open,30,Yes
1,Alla Samoylenko,Алла Самойленко,F,62.3,67.5,70,-75,70,70,67.5,B,Raw,,,,,,,,,,,,Teen,16,Yes
1,Kristina Lyashenko,Кристина Ляшенко,F,60.9,65,-70,-70,65,65,67.5,B,Raw,,,,,,,,,,,,Juniors 20-23,23,Yes
1,Yuliya Kuznetsova,Юлия Кузнецова,F,63.3,100,105,-107.5,105,105,67.5,B,Raw,,,,,,,,,,,,Open,42,Yes
2,Olga Zhilina,Ольга Жилина,F,63,80,85,-90,85,85,67.5,B,Raw,,,,,,,,,,,,Open,35,Yes
3,Yuliya Shvedova-Viardo,Юлия Шведова-Виардо,F,67.4,80,85,-90,85,85,67.5,B,Raw,,,,,,,,,,,,Open,31,Yes
4,Kristina Lyashenko,Кристина Ляшенко,F,60.9,65,-70,-70,65,65,67.5,B,Raw,,,,,,,,,,,,Open,23,Yes
5,Irina Kaznakova,Ирина Казнакова,F,61.2,-62.5,-62.5,62.5,62.5,62.5,67.5,B,Raw,,,,,,,,,,,,Open,27,Yes
6,Olesya Shekhvatova,Олеся Шехватова,F,64.7,55,60,-65,60,60,67.5,B,Raw,,,,,,,,,,,,Open,33,Yes
1,Tatyana Strelkova,Татьяна Стрелкова,F,65.3,50,52.5,-55,52.5,52.5,67.5,B,Raw,,,,,,,,,,,,Masters 40-44,41,Yes
1,Ekaterina Marchenko,Екатерина Марченко,F,69.8,85,-92.5,-92.5,85,85,75,B,Raw,,,,,,,,,,,,Open,29,Yes
2,Polina Kuzmina,Полина Кузьмина,F,73.6,70,75,-80,75,75,75,B,Raw,,,,,,,,,,,,Open,39,Yes
3,Alina Misfakhutdinova,Алина Мисфахутдинова,F,67.8,45,47.5,50,50,50,75,B,Raw,,,,,,,,,,,,Open,24,Yes
1,Olga Gavrilova,Ольга Гаврилова,F,88.7,55,57.5,-60,57.5,57.5,90,B,Raw,,,,,,,,,,,,Masters 55-59,55,Yes
1,Svetlana Poletaeva,Светлана Полетаева,F,98.2,45,50,-57.5,50,50,90+,B,Raw,,,,,,,,,,,,Open,38,Yes
1,Ivan Nikitinskiy,Иван Никитинский,M,38.9,20,22.5,-25,22.5,22.5,52,B,Raw,,,,,,,,,,,,Youth,10,Yes
1,Ivan Dolgorukov,Иван Долгоруков,M,48.9,62.5,67.5,-72.5,67.5,67.5,52,B,Raw,,,,,,,,,,,,Juniors 20-23,23,Yes
1,Aleksey Dulin,Алексей Дулин,M,50.6,77.5,-82.5,-82.5,77.5,77.5,52,B,Raw,,,,,,,,,,,,Open,29,Yes
1,Grigoriy Savin,Григорий Савин,M,57.6,-45,45,-47.5,45,45,60,B,Raw,,,,,,,,,,,,Teen,13,Yes
1,Sergey Pronichkin,Сергей Проничкин,M,59,115,120,-122.5,120,120,60,B,Raw,,,,,,,,,,,,Open,26,Yes
1,Maksim Polyakov,Максим Поляков,M,64.2,-60,70,-75,70,70,67.5,B,Raw,,,,,,,,,,,,Teen,15,Yes
2,Vladimir Lipin,Владимир Липин,M,66.3,52.5,57.5,62.5,62.5,62.5,67.5,B,Raw,,,,,,,,,,,,Teen,15,Yes
1,Leonid Sumtsov,Леонид Сумцов,M,66,115,120,-127.5,120,120,67.5,B,Raw,,,,,,,,,,,,Open,46,Yes
2,Emil Nakopiya,Эмиль Накопия,M,66.3,115,120,-125,120,120,67.5,B,Raw,,,,,,,,,,,,Open,27,Yes
3,Evgeniy Karpov,Евгений Карпов,M,66.7,117.5,-122.5,-125,117.5,117.5,67.5,B,Raw,,,,,,,,,,,,Open,36,Yes
4,Aleksey Kozinets,Алексей Козинец,M,65.5,112.5,-115,-115,112.5,112.5,67.5,B,Raw,,,,,,,,,,,,Open,29,Yes
DQ,Sergey Sotnikov,Сергей Сотников,M,67.5,-110,-110,,,,67.5,B,Raw,,,,,,,,,,,,Open,42,Yes
1,Leonid Sumtsov,Леонид Сумцов,M,66,115,120,-127.5,120,120,67.5,B,Raw,,,,,,,,,,,,Masters 45-49,46,Yes
1,Nikolay Obukhov,Николай Обухов,M,67,97.5,102.5,-105,102.5,102.5,67.5,B,Raw,,,,,,,,,,,,Masters 60-64,63,Yes
1,Sergey Pshegodskiy,Сергей Пшегодский,M,73.4,117.5,-122.5,-122.5,117.5,117.5,75,B,Raw,,,,,,,,,,,,Teen,18,Yes
2,Sergey Mustafin,Сергей Мустафин,M,73.8,-117.5,117.5,-120,117.5,117.5,75,B,Raw,,,,,,,,,,,,Teen,19,Yes
3,Nikita Mizonov,Никита Мизонов,M,73,77.5,-82.5,82.5,82.5,82.5,75,B,Raw,,,,,,,,,,,,Teen,16,Yes
DQ,Kirill Kholodkov,Кирилл Холодков,M,74.5,-112.5,-112.5,-117.5,,,75,B,Raw,,,,,,,,,,,,Teen,17,Yes
1,Sergey Chugurov,Сергей Чугуров,M,74.5,150,157.5,-162.5,157.5,157.5,75,B,Raw,,,,,,,,,,,,Juniors 20-23,22,Yes
2,Stanislav Rezinkin,Станислав Резинкин,M,72.8,127.5,-130,-135,127.5,127.5,75,B,Raw,,,,,,,,,,,,Juniors 20-23,20,Yes
3,Kirill Sitdikov,Кирилл Ситдиков,M,69.2,112.5,117.5,-125,117.5,117.5,75,B,Raw,,,,,,,,,,,,Juniors 20-23,22,Yes
1,Denis Sokov,Денис Соков,M,74.9,165,172.5,177.5,177.5,177.5,75,B,Raw,,,,,,,,,,,,Open,30,Yes
2,Akhmed Mereshkov,Ахмед Мерешков,M,74.1,160,165,-172.5,165,165,75,B,Raw,,,,,,,,,,,,Open,27,Yes
3,Sergey Chugurov,Сергей Чугуров,M,74.5,150,157.5,-162.5,157.5,157.5,75,B,Raw,,,,,,,,,,,,Open,22,Yes
4,Pavel Grisheev,Павел Гришеев,M,73.1,145,-150,-150,145,145,75,B,Raw,,,,,,,,,,,,Open,33,Yes
5,Anton Khozyaykin,Антон Хозяйкин,M,73.6,125,135,-140,135,135,75,B,Raw,,,,,,,,,,,,Open,27,Yes
6,Roman Ozornov,Роман Озорнов,M,74.6,130,135,,135,135,75,B,Raw,,,,,,,,,,,,Open,33,Yes
7,Artur Minasyan,Артур Минасян,M,74.9,135,-142.5,-142.5,135,135,75,B,Raw,,,,,,,,,,,,Open,28,Yes
8,Stanislav Samara,Станислав Самара,M,70.7,117.5,122.5,-127.5,122.5,122.5,75,B,Raw,,,,,,,,,,,,Open,27,Yes
9,Bakhtiyar Danayarov,Бахтияр Данаяров,M,71.9,112.5,117.5,122.5,122.5,122.5,75,B,Raw,,,,,,,,,,,,Open,27,Yes
10,Serob Avetisyan,Сероб Аветисян,M,73.8,110,117.5,-127.5,117.5,117.5,75,B,Raw,,,,,,,,,,,,Open,28,Yes
DQ,Ivan Nagornykh,Иван Нагорных,M,74.5,-117.5,-117.5,-117.5,,,75,B,Raw,,,,,,,,,,,,Open,33,Yes
DQ,Sergey Syrnykh,Сергей Сырных,M,74,-112.5,-117.5,,,,75,B,Raw,,,,,,,,,,,,Open,25,Yes
1,Roman Vasilev,Роман Васильев,M,73.2,150,155,157.5,157.5,157.5,75,B,Raw,,,,,,,,,,,,Masters 40-44,43,Yes
1,Andrey Vdovin,Андрей Вдовин,M,80.8,145,-150,-150,145,145,82.5,B,Raw,,,,,,,,,,,,Teen,17,Yes
2,Daniil Yudin,Даниил Юдин,M,82.5,117.5,-122.5,122.5,122.5,122.5,82.5,B,Raw,,,,,,,,,,,,Teen,18,Yes
3,Daniil Troshin,Даниил Трошин,M,76.3,105,-112.5,-112.5,105,105,82.5,B,Raw,,,,,,,,,,,,Teen,17,Yes
4,Evgeniy Prokopenko,Евгений Прокопенко,M,78.9,72.5,80,,80,80,82.5,B,Raw,,,,,,,,,,,,Teen,14,Yes
1,Andrey Dyozhin,Андрей Дёжин,M,81.6,150,157.5,-160,157.5,157.5,82.5,B,Raw,,,,,,,,,,,,Juniors 20-23,23,Yes
2,Mikhail Kiselev,Михаил Киселев,M,81.3,135,140,-145,140,140,82.5,B,Raw,,,,,,,,,,,,Juniors 20-23,23,Yes
3,Mikhail Persheev,Михаил Першеев,M,78.3,120,-127.5,-127.5,120,120,82.5,B,Raw,,,,,,,,,,,,Juniors 20-23,20,Yes
1,Ilya Pankratov,Илья Панкратов,M,80,187.5,195,-200,195,195,82.5,B,Raw,,,,,,,,,,,,Open,29,Yes
2,Igor Shatilo,Игорь Шатило,M,81.3,-157.5,-157.5,157.5,157.5,157.5,82.5,B,Raw,,,,,,,,,,,,Open,27,Yes
3,Levon Pogosov,Левон Погосов,M,77.4,150,-155,-155,150,150,82.5,B,Raw,,,,,,,,,,,,Open,33,Yes
4,Dmitriy Nechaev,Дмитрий Нечаев,M,79.4,130,137.5,145,145,145,82.5,B,Raw,,,,,,,,,,,,Open,33,Yes
5,Vladimir Fedorovskiy,Владимир Федоровский,M,77.4,-140,140,-145,140,140,82.5,B,Raw,,,,,,,,,,,,Open,30,Yes
6,Roman Tatarenkov,Роман Татаренков,M,82.1,135,-145,-145,135,135,82.5,B,Raw,,,,,,,,,,,,Open,35,Yes
7,Egor Batanov,Егор Батанов,M,80.7,-117.5,-117.5,117.5,117.5,117.5,82.5,B,Raw,,,,,,,,,,,,Open,31,Yes
8,Kirill Gavrikov,Кирилл Гавриков,M,76,95,-100,-100,95,95,82.5,B,Raw,,,,,,,,,,,,Open,29,Yes
DQ,Viktor Fadeev,Виктор Фадеев,M,80.6,-127.5,-127.5,-127.5,,,82.5,B,Raw,,,,,,,,,,,,Open,40,Yes
DQ,Vasiliy Sushchak,Василий Сущак,M,81.3,-117.5,-122.5,,,,82.5,B,Raw,,,,,,,,,,,,Open,36,Yes
DQ,Viktor Fadeev,Виктор Фадеев,M,80.6,-127.5,-127.5,-127.5,,,82.5,B,Raw,,,,,,,,,,,,Masters 40-44,40,Yes
1,Saeid Vahidinejad,,M,75.4,90,95,-100,95,95,82.5,B,Raw,,,,,,,,,,,,Masters 50-54,50,Yes
DQ,Viktor Ovsyanyy,Виктор Овсяный,M,80.8,-142.5,-142.5,-145,,,82.5,B,Raw,,,,,,,,,,,,Masters 55-59,58,Yes
1,German Barabanov,Герман Барабанов,M,78.9,120,125,127.5,127.5,127.5,82.5,B,Raw,,,,,,,,,,,,Masters,76,Yes
2,Daneshvar Mohammedhasan,,M,80,40,50,-60,50,50,82.5,B,Raw,,,,,,,,,,,,Masters,78,Yes
1,Egor Filkin,Егор Филькин,M,84.9,102.5,107.5,-110,107.5,107.5,90,B,Raw,,,,,,,,,,,,Teen,14,Yes
1,Ivan Samusenkov,Иван Самусенков,M,87.2,160,170,180,180,180,90,B,Raw,,,,,,190,,,,,,Juniors 20-23,23,Yes
2,Mikhail Litovskiy,Михаил Литовский,M,87.7,120,-132.5,132.5,132.5,132.5,90,B,Raw,,,,,,,,,,,,Juniors 20-23,23,Yes
1,Jalal Yazdani,,M,89.5,180,187.5,192.5,192.5,192.5,90,B,Raw,,,,,,,,,,,,Open,35,Yes
2,Vladimir Konchakov,Владимир Кончаков,M,88.3,175,185,190,190,190,90,B,Raw,,,,,,,,,,,,Open,42,Yes
3,Sergey Kurochkin,Сергей Курочкин,M,88.2,175,182.5,187.5,187.5,187.5,90,B,Raw,,,,,,,,,,,,Open,41,Yes
4,Aleksey Sheykin,Алексей Шейкин,M,89.3,160,175,,175,175,90,B,Raw,,,,,,,,,,,,Open,28,Yes
5,Nikita Romanov,Никита Романов,M,89.7,170,175,-185,175,175,90,B,Raw,,,,,,,,,,,,Open,24,Yes
6,Maksim Fedoryuk,Максим Федорюк,M,87.7,160,167.5,-175,167.5,167.5,90,B,Raw,,,,,,,,,,,,Open,31,Yes
7,Ivan Yankin,Иван Янкин,M,88.5,145,152.5,-157.5,152.5,152.5,90,B,Raw,,,,,,,,,,,,Open,29,Yes
8,Anton Sergeev,Антон Сергеев,M,85.5,130,-132.5,132.5,132.5,132.5,90,B,Raw,,,,,,,,,,,,Open,24,Yes
9,Dmitriy Synkov,Дмитрий Сынков,M,89.3,125,-130,130,130,130,90,B,Raw,,,,,,,,,,,,Open,42,Yes
DQ,Sergey Lesnitskiy,Сергей Лесницкий,M,89.3,-122.5,-122.5,-122.5,,,90,B,Raw,,,,,,,,,,,,Open,29,Yes
1,Vladimir Konchakov,Владимир Кончаков,M,88.3,175,185,190,190,190,90,B,Raw,,,,,,,,,,,,Masters 40-44,42,Yes
2,Sergey Kurochkin,Сергей Курочкин,M,88.2,182.5,187.5,,187.5,187.5,90,B,Raw,,,,,,,,,,,,Masters 40-44,41,Yes
1,Aleksandr Vorobev,Александр Воробьев,M,88.6,155,160,165,165,165,90,B,Raw,,,,,,,,,,,,Masters 45-49,49,Yes
2,Aleksey Kondakov,Алексей Кондаков,M,88.4,147.5,152.5,-157.5,152.5,152.5,90,B,Raw,,,,,,,,,,,,Masters 45-49,45,Yes
3,Igor Chernyshov,Игорь Чернышов,M,89,145,150,-155,150,150,90,B,Raw,,,,,,,,,,,,Masters 45-49,46,Yes
DQ,Vladimir Kozlov,Владимир Козлов,M,86,-150,-155,-155,,,90,B,Raw,,,,,,,,,,,,Masters 60-64,61,Yes
1,Daniil Buslaev,Даниил Буслаев,M,93.9,130,135,-140,135,135,100,B,Raw,,,,,,,,,,,,Teen,16,Yes
2,Mikhail Skvortsov,Михаил Скворцов,M,93.6,70,75,77.5,77.5,77.5,100,B,Raw,,,,,,,,,,,,Teen,16,Yes
1,Kirill Volodin,Кирилл Володин,M,94,170,177.5,-180,177.5,177.5,100,B,Raw,,,,,,,,,,,,Juniors 20-23,23,Yes
1,Ibrahim Khamkhoev,Ибрагим Хамхоев,M,99,200,215,-220,215,215,100,B,Raw,,,,,,,,,,,,Open,31,Yes
2,Konstantin Pasechnik,Константин Пасечник,M,93.1,170,175,180,180,180,100,B,Raw,,,,,,-182.5,,,,,,Open,44,Yes
3,Artur Cheremisin,Артур Черемисин,M,97.7,162.5,175,-185,175,175,100,B,Raw,,,,,,,,,,,,Open,26,Yes
4,Vasiliy Zharkov,Василий Жарков,M,96.6,125,-140,140,140,140,100,B,Raw,,,,,,,,,,,,Open,36,Yes
5,Ivan Sakhno,Иван Сахно,M,98.9,-135,135,140,140,140,100,B,Raw,,,,,,,,,,,,Open,32,Yes
6,Murataliev Akbar,Мураталиев Акбар,M,94.9,95,-100,-105,95,95,100,B,Raw,,,,,,,,,,,,Open,31,Yes
DQ,Aleksandr Snetkov,Александр Снетков,M,99.9,-185,-185,-185,,,100,B,Raw,,,,,,,,,,,,Open,29,Yes
1,Konstantin Pasechnik,Константин Пасечник,M,93.1,175,180,-182.5,180,180,100,B,Raw,,,,,,,,,,,,Masters 40-44,44,Yes
2,Igor Klimanov,Игорь Климанов,M,92.4,-152.5,-152.5,152.5,152.5,152.5,100,B,Raw,,,,,,,,,,,,Masters 40-44,41,Yes
3,Aleksey Krasovskiy,Алексей Красовский,M,97.2,-140,140,-150,140,140,100,B,Raw,,,,,,,,,,,,Masters 40-44,42,Yes
1,Ivan Kazantsev,Иван Казанцев,M,98,-167.5,172.5,175,175,175,100,B,Raw,,,,,,,,,,,,Masters 45-49,48,Yes
2,Mikhail Skvortsov,Михаил Скворцов,M,94.9,125,132.5,137.5,137.5,137.5,100,B,Raw,,,,,,-140,,,,,,Masters 45-49,46,Yes
1,Andrey Makevnin,Андрей Макевнин,M,96.7,130,140,152.5,152.5,152.5,100,B,Raw,,,,,,,,,,,,Masters 50-54,54,Yes
2,Mehrdad Gholamreza,,M,95.4,120,-125,127.5,127.5,127.5,100,B,Raw,,,,,,,,,,,,Masters 50-54,51,Yes
3,Aleksey Styopyshev,Алексей Стёпышев,M,96.7,120,125,127.5,127.5,127.5,100,B,Raw,,,,,,,,,,,,Masters 50-54,52,Yes
4,Andrey Chelyshev,Андрей Челышев,M,99.5,105,107.5,110,110,110,100,B,Raw,,,,,,,,,,,,Masters 50-54,52,Yes
1,Semen Borkin,Семен Борькин,M,104.5,195,202.5,-207.5,202.5,202.5,110,B,Raw,,,,,,,,,,,,Open,34,Yes
2,Aleksandr Zhukov,Александр Жуков,M,103.9,170,180,185,185,185,110,B,Raw,,,,,,,,,,,,Open,33,Yes
3,Valeriy Bashkirov,Валерий Башкиров,M,103.4,180,-195,-195,180,180,110,B,Raw,,,,,,,,,,,,Open,29,Yes
4,Reza Zamani,,M,104.9,170,177.5,-182.5,177.5,177.5,110,B,Raw,,,,,,,,,,,,Open,39,Yes
5,Stanislav Gusev,Станислав Гусев,M,109.3,147.5,152.5,-155,152.5,152.5,110,B,Raw,,,,,,,,,,,,Open,27,Yes
6,Boris Avetisyan,Борис Аветисян,M,104.9,145,150,,150,150,110,B,Raw,,,,,,,,,,,,Open,28,Yes
7,Konstantin Snarskiy,Константин Снарский,M,102.7,125,-132.5,-132.5,125,125,110,B,Raw,,,,,,,,,,,,Open,34,Yes
DQ,Kirill Spirodin,Кирилл Спиродин,M,106.5,-157.5,-157.5,,,,110,B,Raw,,,,,,,,,,,,Open,37,Yes
1,Nikolay Makarov,Николай Макаров,M,106.3,160,-165,-165,160,160,110,B,Raw,,,,,,,,,,,,Masters 45-49,49,Yes
1,Andrey Skorobogatko,Андрей Скоробогатько,M,106.9,165,172.5,-177.5,172.5,172.5,110,B,Raw,,,,,,,,,,,,Masters 50-54,53,Yes
1,Boris Grabovoy,Борис Грабовой,M,103.7,125,130,-132.5,130,130,110,B,Raw,,,,,,,,,,,,Masters 60-64,60,Yes
1,Ergash Khaziev,Эргаш Хазиев,M,113,220,-227.5,-227.5,220,220,125,B,Raw,,,,,,,,,,,,Open,25,Yes
2,Ivan Regulyarnyy,Иван Регулярный,M,116.9,192.5,-202.5,-202.5,192.5,192.5,125,B,Raw,,,,,,,,,,,,Open,31,Yes
3,Andrey Petrov,Андрей Петров,M,117.5,160,170,175,175,175,125,B,Raw,,,,,,,,,,,,Open,34,Yes
4,Mohammodhossein Shahani,,M,120.6,160,170,172.5,172.5,172.5,125,B,Raw,,,,,,,,,,,,Open,38,Yes
5,Dmitriy Ivanchinkov,Дмитрий Иванчинков,M,120.4,152.5,160,170,170,170,125,B,Raw,,,,,,,,,,,,Open,25,Yes
6,Semen Potapov,Семен Потапов,M,122.4,155,-177.5,-177.5,155,155,125,B,Raw,,,,,,,,,,,,Open,32,Yes
7,Anton Levin,Антон Левин,M,112.5,145,152.5,-155,152.5,152.5,125,B,Raw,,,,,,,,,,,,Open,27,Yes
8,Ilya Klimenchuk,Илья Клименчук,M,125,130,142.5,-152.5,142.5,142.5,125,B,Raw,,,,,,,,,,,,Open,29,Yes
1,Vladimir Chubarov,Владимир Чубаров,M,119.2,162.5,167.5,-172.5,167.5,167.5,125,B,Raw,,,,,,,,,,,,Masters 50-54,52,Yes
1,Vladimir Popov,Владимир Попов,M,123.7,160,165,-170,165,165,125,B,Raw,,,,,,,,,,,,Masters 60-64,60,Yes
1,Karen Avetisyan #1,Карэн Аветисян,M,131,200,205,,205,205,140,B,Raw,,,,,,,,,,,,Open,27,Yes
2,Andrey Shmorgun,Андрей Шморгун,M,130,180,190,-195,190,190,140,B,Raw,,,,,,,,,,,,Open,31,Yes
3,Aleksey Galygin,Алексей Галыгин,M,136.2,175,-182.5,-182.5,175,175,140,B,Raw,,,,,,,,,,,,Open,38,Yes
1,Aleksey Shoniya,Алексей Шония,M,135.5,170,177.5,-182.5,177.5,177.5,140,B,Raw,,,,,,,,,,,,Masters 45-49,45,Yes
1,Bidgoli Majidi,,M,150,200,-215,-215,200,200,140+,B,Raw,,,,,,,,,,,,Open,33,Yes
1,Marina Belyak,Марина Беляк,F,54.9,35,-40,40,40,40,56,B,Raw,,,,,,,,,,,,Masters 45-49,48,No
1,Margarita Nashchekina,Маргарита Нащекина,F,66.5,-107.5,107.5,-110,107.5,107.5,67.5,B,Raw,,,,,,,,,,,,Open,26,No
2,Mariya Serkova,Мария Серкова,F,67,87.5,-95,95,95,95,67.5,B,Raw,,,,,,,,,,,,Open,34,No
1,Yuliya Bortsova,Юлия Борцова,F,63.7,30,-35,-37.5,30,30,67.5,B,Raw,,,,,,,,,,,,Masters 40-44,40,No
1,Valeriya Khabirova,Валерия Хабирова,F,74.1,80,90,,90,90,75,B,Raw,,,,,,,,,,,,Open,28,No
2,Elina Chernina,Элина Чернина,F,73.8,67.5,72.5,75,75,75,75,B,Raw,,,,,,,,,,,,Open,28,No
1,Viktoriya Knysh,Виктория Кныш,F,86.4,-155,155,-160,155,155,90,B,Raw,,,,,,,,,,,,Open,33,No
1,Egor Grechkin,Егор Гречкин,M,41.2,40,42.5,45,45,45,52,B,Raw,,,,,,,,,,,,Teen,13,No
1,Roman Belousov,Роман Белоусов,M,55,-157.5,157.5,162.5,162.5,162.5,56,B,Raw,,,,,,,,,,,,Open,24,No
1,Rishat Yusupov,Ришат Юсупов,M,58.7,80,-87.5,87.5,87.5,87.5,60,B,Raw,,,,,,,,,,,,Open,26,No
1,Ilkhom Ergashev,Ильхом Эргашев,M,64.4,110,120,130,130,130,67.5,B,Raw,,,,,,,,,,,,Teen,19,No
2,Lev Lipin,Лев Липин,M,66.3,55,60,-65,60,60,67.5,B,Raw,,,,,,,,,,,,Teen,15,No
1,Artem Danelyants,Артём Данельянц,M,67.5,120,127.5,132.5,132.5,132.5,67.5,B,Raw,,,,,,,,,,,,Juniors 20-23,22,No
1,Anatoliy Vilchitskiy,Анатолий Вильчицкий,M,65.3,80,90,-95,90,90,67.5,B,Raw,,,,,,,,,,,,Masters 60-64,60,No
1,Artur Belous,Артур Белоус,M,73.7,190,-202.5,-202.5,190,190,75,B,Raw,,,,,,,,,,,,Open,31,No
2,Yuriy Aleksandrov,Юрий Александров,M,71.6,120,-130,-130,120,120,75,B,Raw,,,,,,,,,,,,Open,25,No
1,Evgeniy Vyborov,Евгений Выборов,M,71.9,80,90,,90,90,75,B,Raw,,,,,,,,,,,,Masters,76,No
1,Aleksandr Yakovskiy,Александр Яковский,M,82,195,-205,-205,195,195,82.5,B,Raw,,,,,,,,,,,,Open,28,No
2,Maksim Kalenkin,Максим Каленкин,M,80.8,-175,175,-180,175,175,82.5,B,Raw,,,,,,,,,,,,Open,27,No
3,Sergey Mozhaev,Сергей Можаев,M,82,145,-150,-150,145,145,82.5,B,Raw,,,,,,,,,,,,Open,28,No
4,Dmitriy Yanaki,Дмитрий Янаки,M,82,-130,130,-142.5,130,130,82.5,B,Raw,,,,,,,,,,,,Open,30,No
1,Bogdan Lukyanov,Богдан Лукьянов,M,86.1,-120,122.5,-127.5,122.5,122.5,90,B,Raw,,,,,,,,,,,,Teen,17,No
1,Andrey Zhuravlev,Андрей Журавлев,M,86.3,155,-160,-160,155,155,90,B,Raw,,,,,,,,,,,,Juniors 20-23,23,No
1,Evgeniy Khomov,Евгений Хомов,M,88.9,195,,,195,195,90,B,Raw,,,,,,,,,,,,Open,33,No
2,Anton Doroshenkov,Антон Дорошенков,M,89.8,170,180,-190,180,180,90,B,Raw,,,,,,,,,,,,Open,37,No
3,Aleksey Sheykin,Алексей Шейкин,M,89.3,175,,,175,175,90,B,Raw,,,,,,,,,,,,Open,28,No
4,Roman Shchekleev,Роман Щеклеев,M,87.8,157.5,170,-180,170,170,90,B,Raw,,,,,,,,,,,,Open,26,No
1,Daniil Maksimkin,Даниил Максимкин,M,99.4,190,197.5,202.5,202.5,202.5,100,B,Raw,,,,,,-205,,,,,,Juniors 20-23,23,No
2,Eduard Martirosov,Эдуард Мартиросов,M,95.1,185,-192.5,-192.5,185,185,100,B,Raw,,,,,,,,,,,,Juniors 20-23,20,No
3,Vladislav Popov,Владислав Попов,M,98.3,180,185,-190,185,185,100,B,Raw,,,,,,,,,,,,Juniors 20-23,22,No
4,Konstantin Rodionov,Константин Родионов,M,95.7,160,165,170,170,170,100,B,Raw,,,,,,,,,,,,Juniors 20-23,22,No
DQ,Dilavar Mamedov,Дилавар Мамедов,M,99,-185,-185,-185,,,100,B,Raw,,,,,,,,,,,,Juniors 20-23,22,No
1,Aleksandr Tyshchenko,Александр Тыщенко,M,98.1,200,210,-215,210,210,100,B,Raw,,,,,,,,,,,,Open,29,No
2,Pavel Kondratev,Павел Кондратьев,M,93.4,190,200,205,205,205,100,B,Raw,,,,,,,,,,,,Open,26,No
3,Aleksandr Cherednichenko,Александр Чередниченко,M,98,195,200,-207.5,200,200,100,B,Raw,,,,,,,,,,,,Open,40,No
4,Aleksey Melnikov,Алексей Мельников,M,98.2,195,200,-205,200,200,100,B,Raw,,,,,,,,,,,,Open,28,No
5,Konstantinos Alexopoulos,,M,98.7,190,,,190,190,100,B,Raw,,,,,,,,,,,,Open,47,No
6,Mikhail Chmirevskiy,Михаил Чмиревский,M,94.7,-175,175,180,180,180,100,B,Raw,,,,,,,,,,,,Open,38,No
7,Ivan Solntsev,Иван Солнцев,M,98.8,-180,180,-192.5,180,180,100,B,Raw,,,,,,,,,,,,Open,42,No
8,Aleksandr Kletsov,Александр Клецов,M,96,-165,-165,165,165,165,100,B,Raw,,,,,,,,,,,,Open,48,No
DQ,Maksim Ryblin,Максим Рыблин,M,99.5,-170,-175,-175,,,100,B,Raw,,,,,,,,,,,,Open,24,No
1,Aleksandr Cherednichenko,Александр Чередниченко,M,98,195,200,-207.5,200,200,100,B,Raw,,,,,,,,,,,,Masters 40-44,40,No
2,Ivan Solntsev,Иван Солнцев,M,98.8,-180,180,-192.5,180,180,100,B,Raw,,,,,,,,,,,,Masters 40-44,42,No
3,Dmitriy Sivachev,Дмитрий Сивачев,M,99.1,170,-180,-180,170,170,100,B,Raw,,,,,,,,,,,,Masters 40-44,41,No
1,Konstantinos Alexopoulos,,M,98.7,190,,,190,190,100,B,Raw,,,,,,,,,,,,Masters 45-49,47,No
2,Aleksandr Kletsov,Александр Клецов,M,96,-165,-165,165,165,165,100,B,Raw,,,,,,,,,,,,Masters 45-49,48,No
1,Sergey Kartavov,Сергей Картавов,M,97.6,157.5,165,-170,165,165,100,B,Raw,,,,,,,,,,,,Masters 50-54,50,No
1,Andrey Kochetkov,Андрей Кочетков,M,101.2,150,160,-170,160,160,110,B,Raw,,,,,,,,,,,,Teen,19,No
1,Mikhail Seryogin,Михаил Серёгин,M,107.4,180,-192.5,-192.5,180,180,110,B,Raw,,,,,,,,,,,,Juniors 20-23,21,No
1,Evgeniy Filatov,Евгений Филатов,M,103.3,220,-230,235,235,235,110,B,Raw,,,,,,,,,,,,Open,34,No
2,Rustem Sagdiev,Рустем Сагдиев,M,105.9,225,232.5,235,235,235,110,B,Raw,,,,,,,,,,,,Open,44,No
3,Evgeniy Zorin,Евгений Зорин,M,107.9,210,220,-225,220,220,110,B,Raw,,,,,,,,,,,,Open,36,No
4,Evgeniy Spirkin,Евгений Спиркин,M,102.4,217.5,-222.5,-222.5,217.5,217.5,110,B,Raw,,,,,,,,,,,,Open,28,No
5,Aleksey Stolyarov,Алексей Столяров,M,108.1,215,-222.5,-222.5,215,215,110,B,Raw,,,,,,,,,,,,Open,30,No
6,Viktor Eliseev,Виктор Елисеев,M,103.7,185,-200,200,200,200,110,B,Raw,,,,,,,,,,,,Open,29,No
7,Aleksandr Andronov,Александр Андронов,M,107.5,170,180,192.5,192.5,192.5,110,B,Raw,,,,,,,,,,,,Open,38,No
8,Dmitriy Tsymbalov,Дмитрий Цымбалов,M,104.7,-180,185,-192.5,185,185,110,B,Raw,,,,,,,,,,,,Open,36,No
9,Sergey Filinovich,Сергей Филинович,M,104.4,167.5,175,177.5,177.5,177.5,110,B,Raw,,,,,,,,,,,,Open,55,No
DQ,Vitaliy Andriyakin,Виталий Андриякин,M,106.8,-180,-180,-180,,,110,B,Raw,,,,,,,,,,,,Open,32,No
1,Rustem Sagdiev,Рустем Сагдиев,M,105.9,225,232.5,235,235,235,110,B,Raw,,,,,,,,,,,,Masters 40-44,44,No
2,Evgeniy Aleksandrov,Евгений Александров,M,104.8,192.5,200,-210,200,200,110,B,Raw,,,,,,,,,,,,Masters 40-44,41,No
3,Aleksey Kovrigin,Алексей Ковригин,M,101.3,192.5,195,197.5,197.5,197.5,110,B,Raw,,,,,,,,,,,,Masters 40-44,40,No
4,Andrey Proshchenkov,Андрей Прощенков,M,105.5,185,192.5,-197.5,192.5,192.5,110,B,Raw,,,,,,,,,,,,Masters 40-44,41,No
DQ,Aleksandr Galakhov,Александр Галахов,M,106.5,-192.5,-192.5,-192.5,,,110,B,Raw,,,,,,,,,,,,Masters 40-44,44,No
1,Andrey Lukyanov,Андрей Лукьянов,M,105,155,165,170,170,170,110,B,Raw,,,,,,,,,,,,Masters 45-49,47,No
2,Valeriy Chernov #1,Валерий Чернов,M,107.2,160,162.5,-167.5,162.5,162.5,110,B,Raw,,,,,,,,,,,,Masters 45-49,46,No
1,Shakro Uznadze,Шакро Узнадзе,M,108.9,180,192.5,-201,192.5,192.5,110,B,Raw,,,,,,,,,,,,Masters 50-54,53,No
2,Vadim Tarasov,Вадим Тарасов,M,106.8,145,152.5,-155,152.5,152.5,110,B,Raw,,,,,,,,,,,,Masters 50-54,54,No
1,Sergey Filinovich,Сергей Филинович,M,104.4,167.5,175,177.5,177.5,177.5,110,B,Raw,,,,,,,,,,,,Masters 55-59,55,No
1,Yuriy Molchanov,Юрий Молчанов,M,101.9,100,107.5,-110,107.5,107.5,110,B,Raw,,,,,,,,,,,,Masters 60-64,64,No
1,Vitaliy Zaytsev,Виталий Зайцев,M,111.3,180,190,195,195,195,125,B,Raw,,,,,,-200,,,,,,Teen,19,No
1,Aleksandr Pedchenko,Александр Педченко,M,110.3,215,222.5,-227.5,222.5,222.5,125,B,Raw,,,,,,,,,,,,Juniors 20-23,22,No
1,Aleksey Markelov,Алексей Маркелов,M,112.7,240,247.5,250,250,250,125,B,Raw,,,,,,,,,,,,Open,31,No
2,Maksim Lisyutin,Максим Лисютин,M,116.2,240,-250,250,250,250,125,B,Raw,,,,,,,,,,,,Open,31,No
3,Pantelis Sapounakis,,M,119.3,240,,,240,240,125,B,Raw,,,,,,,,,,,,Open,35,No
4,Sergey Molchanov,Сергей Молчанов,M,115.4,230,-240,-240,230,230,125,B,Raw,,,,,,,,,,,,Open,43,No
5,Vladimir Sibalakov,Владимир Сибалаков,M,114.4,220,-235,-235,220,220,125,B,Raw,,,,,,,,,,,,Open,34,No
6,Aleksey Lebed,Алексей Лебедь,M,120,200,,,200,200,125,B,Raw,,,,,,,,,,,,Open,26,No
1,Sergey Molchanov,Сергей Молчанов,M,115.4,230,-240,-240,230,230,125,B,Raw,,,,,,,,,,,,Masters 40-44,43,No
2,Eduard Dmitriev,Эдуард Дмитриев,M,111.6,215,-222.5,222.5,222.5,222.5,125,B,Raw,,,,,,,,,,,,Masters 40-44,43,No
3,Denis Puzyrev,Денис Пузырев,M,115.7,185,192.5,-202.5,192.5,192.5,125,B,Raw,,,,,,,,,,,,Masters 40-44,42,No
1,Nikolay Dubina,Николай Дубина,M,116.4,175,-182.5,182.5,182.5,182.5,125,B,Raw,,,,,,,,,,,,Masters 50-54,50,No
1,Anatoliy Logunov,Анатолий Логунов,M,113.3,155,162.5,-167.5,162.5,162.5,125,B,Raw,,,,,,,,,,,,Masters 60-64,63,No
1,Dmitriy Samsonov,Дмитрий Самсонов,M,125.8,-190,190,-205,190,190,140,B,Raw,,,,,,,,,,,,Juniors 20-23,23,No
DQ,Aleksandr Morozov,Александр Морозов,M,126.6,-210,-210,-210,,,140,B,Raw,,,,,,,,,,,,Open,28,No
1,Andrey Inyutin,Андрей Инютин,M,129.2,222.5,,,222.5,222.5,140,B,Raw,,,,,,,,,,,,Masters 40-44,40,No
1,Rankin Bejerano,,M,190,240,-252.5,,240,240,140+,B,Raw,,,,,,,,,,,,Open,40,No
1,Rankin Bejerano,,M,190,240,-252.5,,240,240,140+,B,Raw,,,,,,,,,,,,Masters 40-44,40,No
1,Roman Durnov,Роман Дурнов,M,80.4,,,,,295,82.5,S,Single-ply,,,,,,,260,285,295,295,,Open,29,Yes
1,Maksim Tomilin,Максим Томилин,M,106.5,,,,,250,110,S,Single-ply,,,,,,,250,-260,-262.5,250,,Juniors 20-23,22,Yes
1,Andrey Izvekov,Андрей Извеков,M,122.2,,,,,300,125,S,Single-ply,,,,,,,300,-310,-310,300,,Open,34,Yes
1,Denis Lomakin,Денис Ломакин,M,112.5,,,,,280,125,S,Multi-ply,,,,,,,280,-287.5,-292.5,280,,Open,24,No
DQ,Diana Raylyanu,Диана Райляну,F,52,,,,,,52,S,Wraps,,,,,,,-105,-105,-105,,,Open,26,Yes
1,Veronika Ukolova,Вероника Уколова,F,115.7,,,,,185,90+,S,Wraps,,,,,,,180,185,-190,185,,Open,18,Yes
1,Maksim Popov #1,Максим Попов,M,66,,,,,180,67.5,S,Wraps,,,,,,,-180,180,-190,180,,Open,31,Yes
1,Egor Selikhov,Егор Селихов,M,78.2,,,,,240,82.5,S,Wraps,,,,,,,240,-250,-250,240,,Teen,18,Yes
1,Grigoriy Yudin,Григорий Юдин,M,80.8,,,,,232.5,82.5,S,Wraps,,,,,,,220,232.5,-242.5,232.5,,Open,30,Yes
2,Artem Bykhovets,Артем Быховец,M,82.3,,,,,230,82.5,S,Wraps,,,,,,,230.5,-250.5,-250.5,230.5,,Open,32,Yes
3,Daniil Grigin,Даниил Григин,M,77.1,,,,,220,82.5,S,Wraps,,,,,,,200,220,-230,220,,Open,26,Yes
1,Aleksandr Kochetov,Александр Кочетов,M,96.4,,,,,275,100,S,Wraps,,,,,,,255,265,275,275,,Open,28,Yes
2,Tariel Rurua,Тариел Руруа,M,98.8,,,,,210,100,S,Wraps,,,,,,,-200,210,-220,210,,Open,37,Yes
1,Alena Fedulova,Алена Федулова,F,59.5,,,,,65,60,S,Wraps,,,,,,,55,60,65,65,,Open,25,No
1,Viktoriya Tolstosheeva,Виктория Толстошеева,F,67.4,,,,,100,67.5,S,Wraps,,,,,,,75,-85,100,100,,Juniors 20-23,23,No
1,Olga Nasonova,Ольга Насонова,F,67.5,,,,,200,67.5,S,Wraps,,,,,,,185,200,-215,200,,Open,20,No
2,Nina Emelyanova,Нина Емельянова,F,66.2,,,,,75,67.5,S,Wraps,,,,,,,65,75,-80,75,,Open,35,No
1,Mariia Panferova,Мария Панферова,F,74.2,,,,,227.5,75,S,Wraps,,,,,,,207.5,220,228,228,,Open,38,No
2,Ekaterina Romanovskaya,Екатерина Романовская,F,69.8,,,,,75,75,S,Wraps,,,,,,,-65,65,75,75,,Open,24,No
DQ,Anna Sverchkova,Анна Сверчкова,F,73.4,,,,,,75,S,Wraps,,,,,,,-180,-180,-190,,,Open,25,No
1,Aleksandr Rek,Александр Рек,M,66.4,,,,,217.5,67.5,S,Wraps,,,,,,,-200,205,217.5,217.5,,Open,28,No
2,Demin Artem,Демин Артем,M,66.7,,,,,115,67.5,S,Wraps,,,,,,,-100,100,115,115,,Open,26,No
1,Egor Savelev,Егор Савельев,M,70.4,,,,,165,75,S,Wraps,,,,,,,150,-162.5,165,165,,Juniors 20-23,20,No
1,Daniil Khamatdinov,Даниил Хаматдинов,M,79.9,,,,,200,82.5,S,Wraps,,,,,,,200,-217.5,-217.5,200,,Teen,19,No
1,Parfenov Aleksandr,Парфенов Александр,M,81,,,,,130,82.5,S,Wraps,,,,,,,130,-140,-140,130,,Open,27,No
1,Dmitriy Egorov,Дмитрий Егоров,M,98.9,,,,,267.5,100,S,Wraps,,,,,,,250,260,267.5,267.5,,Open,27,No
1,Aleksandr Prokopev,Александр Прокопьев,M,114.3,,,,,350,125,S,Wraps,,,,,,,-350,350,-370,350,,Juniors 20-23,22,No
1,Pantelis Sapounakis,,M,119.3,,,,,300,125,S,Wraps,,,,,,,270,-300,300,300,,Open,35,No
2,Athanasios Liouras,,M,117,,,,,250,125,S,Wraps,,,,,,,240,250,-260,250,,Open,33,No
3,Aleksey Lebed,Алексей Лебедь,M,120,,,,,250,125,S,Wraps,,,,,,,-240,240,250,250,,Open,26,No
1,Ivan Podrez,Іван Подрез,M,175.2,,,,,425,140+,S,Wraps,,,,,,,400,415,425,425,,Open,24,No
1,Yuliya Avdeeva,Юлия Авдеева,F,46.1,,,,,77.5,48,S,Raw,,,,,,,65,72.5,77.5,77.5,,Teen,18,Yes
1,Aleksey Sheykin,Алексей Шейкин,M,89.3,,,,,235,90,S,Raw,,,,,,,220,230,235,235,,Open,28,Yes
1,Andrey Shishkin,Андрей Шишкин,M,108.9,,,,,212.5,110,S,Raw,,,,,,,175,-210,212.5,212.5,,Open,53,Yes
1,Andrey Shishkin,Андрей Шишкин,M,108.9,,,,,212.5,110,S,Raw,,,,,,,175,-210,212.5,212.5,,Masters 50-54,53,Yes
1,Andrey Petrov,Андрей Петров,M,117.4,,,,,260,125,S,Raw,,,,,,,230,250,260,260,,Open,34,Yes
1,Aleksandr Cherednichenko,Александр Чередниченко,M,89.3,,,,,240,90,S,Raw,,,,,,,-240,240,-250,240,,Open,25,No
2,Aleksey Sheykin,Алексей Шейкин,M,89.3,,,,,235,90,S,Raw,,,,,,,220,230,235,235,,Open,28,No
1,Vitaliy Gnatko,Виталий Гнатко,M,94.2,,,,,190,100,S,Raw,,,,,,,170,180,190,190,-195,Masters 50-54,54,No
1,Pavel Chukhnov,Павел Чухнов,M,104.1,,,,,285,110,S,Raw,,,,,,,260,275,285,285,,Open,27,No
2,Ilya Ushkov,Илья Ушков,M,104.9,,,,,275,110,S,Raw,,,,,,,262.5,275,-282.5,275,,Open,39,No
1,Oksana Kuznetsova,Оксана Кузнецова,F,51.2,65,70,-75,70,320,52,SBD,Single-ply,110,120,130,130,,,120,-130,-130,120,,Open,25,Yes
1,Larisa Chernobaeva,Лариса Чернобаева,F,54.9,52.5,60,65,65,345,56,SBD,Single-ply,137.5,150,-157.5,150,,,110,120,130,130,,Open,35,Yes
1,Aleksandra Filippova,Александра Филиппова,F,67.1,-60,60,65,65,265,67.5,SBD,Single-ply,90,100,110,110,,,90,-100,-100,90,,Open,30,Yes
DQ,Roman Durnov,Роман Дурнов,M,80.4,-175,-175,-175,,,82.5,SBD,Single-ply,,,,,,,260,285,295,295,,Open,29,Yes
1,Aleksey Sheykin,Алексей Шейкин,M,89.3,-200,200,-210,200,705,90,SBD,Single-ply,265,270,,270,,,220,235,,235,,Open,28,Yes
1,Timur Akhmetov,Тимур Ахметов,M,95.2,190,-200,-200,190,700,100,SBD,Single-ply,230,240,250,250,,,250,-260,260,260,,Open,29,Yes
DQ,Maksim Tomilin,Максим Томилин,M,106.5,-165,-165,-165,,,110,SBD,Single-ply,,,,,,,250,-260,-262.5,250,,Juniors 20-23,22,Yes
1,Andrey Grigorev,Андрей Григорьев,M,106.6,170,175,180,180,640,110,SBD,Single-ply,210,220,230,230,,,200,215,230,230,,Masters 50-54,51,Yes
1,Andrey Izvekov,Андрей Извеков,M,122.2,-200,-200,200,200,765,125,SBD,Single-ply,240,250,265,265,270,,300,-310,-310,300,,Open,34,Yes
1,Alla Pugovkina,Алла Пуговкина,F,85,150,-155,155,155,460,90,SBD,Single-ply,190,205,-210,205,,-160,100,,,100,,Open,40,No
1,Vasiliy Tsvetkov,Василий Цветков,M,81.3,205,215,220,220,800,82.5,SBD,Single-ply,260,275,-285,275,,,300,305,-320,305,,Open,34,No
2,Aleksey Emelyanov,Алексей Емельянов,M,79.4,185,-195,-195,185,745,82.5,SBD,Single-ply,245,255,260,260,,,270,285,300,300,,Open,33,No
1,Stanislav Pryakhin,Станислав Пряхин,M,80.8,183,-187.5,-187.5,183,695.5,82.5,SBD,Single-ply,240,-278,,240,,,272.5,,,272.5,,Masters 40-44,41,No
DQ,Vladimir Urazov,Владимир Уразов,M,82,,,,,,82.5,SBD,Single-ply,,,,,,,-240,-240,-240,,,Masters 45-49,48,No
1,Aleksey Sheykin,Алексей Шейкин,M,89.3,200,,,200,705,90,SBD,Single-ply,270,,,270,,,235,,,235,,Open,28,No
2,Ivan Semenikhin,Иван Семенихин,M,84.7,207.5,217.5,225,225,702.5,90,SBD,Single-ply,220,237.5,,237.5,,,227.5,240,-252.5,240,,Open,25,No
1,Ilya Lipin,Илья Липин,M,97.9,167.5,182.5,187.5,187.5,620,100,SBD,Single-ply,207.5,-225,-227.5,207.5,,,225,-237,-237.5,225,,Teen,19,No
1,Aleksandr Shabrov,Александр Шабров,M,98,-220,220,-230,220,877.5,100,SBD,Single-ply,290,300,307.5,307.5,,,-340,350,-360,350,,Open,25,No
1,Yury Belkin,Юрий Белкин,M,101.3,290,-300,-300,290,1115.5,110,SBD,Single-ply,390,405.5,-418,405.5,,,400,420,,420,,Open,25,No
2,Aleksey Kashirin,Алексей Каширин,M,109.3,-270,280,-290,280,997.5,110,SBD,Single-ply,330,345,357.5,357.5,,,360,-375,-380,360,,Open,42,No
3,Aleksandr Muratkin,Александр Мураткин,M,109,230,235,240,240,900,110,SBD,Single-ply,330,-340,345,345,,,-300,305,315,315,,Open,30,No
DQ,Vladimir Dergunov,Владимир Дергунов,M,108.9,260,272.5,-280,272.5,,110,SBD,Single-ply,-342.5,-342.5,-342.5,,,,350,365,-375,365,,Open,25,No
1,Aleksey Kurkov,Алексей Курков,M,104.9,-160,175,-180,175,700,110,SBD,Single-ply,255,-270,-270,255,,,-255,255,270,270,,Masters 40-44,40,No
1,Nikolay Emtsev,Николай Емцев,M,103.5,160,170,,170,687.5,110,SBD,Single-ply,240,255,,255,,,240,250,262.5,262.5,,Masters 45-49,48,No
1,Dmitriy Loginov,Дмитрий Логинов,M,117,230,-240,240,240,965,125,SBD,Single-ply,350,365,-380,365,,,-360,360,-375,360,,Open,26,No
DQ,Yuliya Nenartovich,Юлия Ненартович,F,51.3,,,,,,52,SBD,Wraps,,,,,,,-85,-85,-90,,,Open,28,Yes
DQ,Diana Raylyanu,Диана Райляну,F,52,,,,,,52,SBD,Wraps,,,,,,,-105,-105,-105,,,Open,26,Yes
1,Ekaterina Kurilo,Екатерина Курило,F,56,42.5,47.5,-50,47.5,262.5,56,SBD,Wraps,95,102.5,-125,102.5,,,112.5,-117.5,-117.5,112.5,,Teen,19,Yes
1,Kristina Dobrya,Кристина Добря,F,55.1,-47.5,-50,50,50,290,56,SBD,Wraps,130,135,140,140,,,90,100,-107.5,100,,Open,27,Yes
DQ,Ilina Postnova,Илина Постнова,F,55.4,-52.5,-52.5,-52.5,,,56,SBD,Wraps,,,,,,,-107.5,107.5,112.5,112.5,,Open,30,Yes
1,Lyudmila Ryamaeva,Людмила Рямаева,F,59.5,57.5,62.5,,62.5,290,60,SBD,Wraps,120,130,137.5,137.5,,,-90,-90,90,90,,Open,36,Yes
2,Irina Smirnova,Ирина Смирнова,F,59.2,45,-50,50,50,270,60,SBD,Wraps,120,130,-142.5,130,,,-90,90,-95,90,,Open,27,Yes
3,Ekaterina Korotkova,Екатерина Короткова,F,58.1,42.5,-45,-45,42.5,225,60,SBD,Wraps,85,-92.5,92.5,92.5,,,-90,-90,90,90,,Open,31,Yes
1,Mariya Voronina,Мария Воронина,F,66.8,50,55,-60,55,267.5,67.5,SBD,Wraps,100,-110,110,110,112.5,,90,102.5,-112.5,102.5,,Open,43,Yes
1,Mariya Voronina,Мария Воронина,F,66.8,50,55,-60,55,267.5,67.5,SBD,Wraps,100,-110,110,110,112.5,,90,102.5,-112.5,102.5,,Masters 40-44,43,Yes
1,Veronika Ukolova,Вероника Уколова,F,115.7,80,82.5,-85,82.5,417.5,90+,SBD,Wraps,150,-157.5,-157.5,150,,,180,185,-190,185,,Open,18,Yes
1,Danila Ganzha,Данила Ганжа,M,53.5,50,57.5,-60,57.5,277.5,56,SBD,Wraps,90,105,-110,105,,,90,105,115,115,,Teen,15,Yes
1,Oleg Zelenyy,Олег Зеленый,M,66.3,-130,-130,130,130,530,67.5,SBD,Wraps,-200,200,-210,200,,,200,-220,-220,200,,Open,31,Yes
2,Maksim Popov #1,Максим Попов,M,66,97.5,100,-102.5,100,485,67.5,SBD,Wraps,205,-220,-220,205,,,-180,180,-190,180,,Open,31,Yes
1,Mikhail Miroshnichenko,Михаил Мирошниченко,M,73.5,110,-120,-120,110,427.5,75,SBD,Wraps,140,150,165,165,,,-140,-145,152.5,152.5,,Teen,18,Yes
2,Nikita Tremaskin,Никита Тремаскин,M,70.3,70,-80,82.5,82.5,377.5,75,SBD,Wraps,150,160,170,170,,,110,115,125,125,,Teen,16,Yes
1,Egor Selikhov,Егор Селихов,M,78.2,-120,-120,120,120,582.5,82.5,SBD,Wraps,222.5,,,222.5,,,240,-250,-250,240,,Teen,18,Yes
1,Artem Bykhovets,Артем Быховец,M,82.3,140,150,-160.5,150,622.5,82.5,SBD,Wraps,220,232.5,242.5,242.5,,,230.5,-250.5,-250.5,230.5,,Open,32,Yes
2,Roman Sekelchuk,Роман Секельчук,M,80.7,135,142.5,147.5,147.5,590,82.5,SBD,Wraps,210,220,225,225,,,200,210,217.5,217.5,,Open,27,Yes
1,Aleksandr Fedorkov,Александр Федорков,M,87.6,125,132.5,135,135,517.5,90,SBD,Wraps,165,180,190,190,,,170,185,192.5,192.5,,Teen,19,Yes
2,Artak Kazaryan,Артак Казарян,M,83.7,105,112.5,-117.5,112.5,500,90,SBD,Wraps,170,185,-202.5,185,,,180,190,202.5,202.5,,Teen,15,Yes
1,Kirill Kuzin,Кирилл Кузин,M,87.1,120,130,135,135,577.5,90,SBD,Wraps,205,215,222.5,222.5,,,205,220,-230,220,,Juniors 20-23,20,Yes
2,Georgiy Pilat,Георгий Пилат,M,89.7,120,130,-140,130,537.5,90,SBD,Wraps,190,205,215,215,,,170,185,192.5,192.5,,Juniors 20-23,23,Yes
DQ,Artyom Bespalov,Артём Беспалов,M,84.7,,,,,,90,SBD,Wraps,,,,,,,-255,-255,-255,,,Juniors 20-23,22,Yes
1,Sergey Klyauzov,Сергей Кляузов,M,88,135,142.5,147.5,147.5,645,90,SBD,Wraps,230,240,245,245,,,220,240,252.5,252.5,,Open,26,Yes
2,Vasiliy Vitovskiy,Василий Витовский,M,88.1,145,-155,-155,145,612.5,90,SBD,Wraps,230,247.5,-260,247.5,,,205,215,220,220,,Open,56,Yes
DQ,Roman Shikhaleev,Роман Шихалеев,M,87.9,-130,-130,-130,,,90,SBD,Wraps,,,,,,,-170,175,190,190,,Open,25,Yes
1,Vasiliy Vitovskiy,Василий Витовский,M,88.1,145,-155,-155,145,612.5,90,SBD,Wraps,230,247.5,-260,247.5,,,205,215,220,220,,Masters 55-59,56,Yes
1,Valeriy Shumbasov,Валерий Шумбасов,M,110,190,202.5,207.5,207.5,872.5,110,SBD,Wraps,305,325,,325,,,300,320,340,340,,Open,33,Yes
1,Yuliya Nenartovich,Юлия Ненартович,F,51.9,45,-50,-50,45,237.5,52,SBD,Wraps,95,105,112.5,112.5,,,-70,80,-85,80,,Open,28,No
1,Anastasiya Shabanova,Анастасия Шабанова,F,53.3,40,42.5,45,45,217.5,56,SBD,Wraps,75,82.5,-90,82.5,,,-90,-90,90,90,,Teen,15,No
1,Evgeniya Andrienko,Евгения Андриенко,F,66.9,42.5,-47.5,-47.5,42.5,250,67.5,SBD,Wraps,85,95,-102.5,95,,,100,112.5,-120,112.5,,Teen,18,No
1,Olga Nasonova,Ольга Насонова,F,67.5,85,90,95,95,475,67.5,SBD,Wraps,170,180,-185,180,,,185,200,-215,200,,Open,20,No
1,Mariia Panferova,Мария Панферова,F,74.2,115,120,125,125,532.5,75,SBD,Wraps,160,170,180,180,,,207.5,220,228,228,,Open,38,No
2,Elvira Mendalieva,Эльвира Мендалиева,F,72.8,80,-90,95,95,425,75,SBD,Wraps,150,170,190,190,,,140,-160,-160,140,,Open,38,No
DQ,Anna Sverchkova,Анна Сверчкова,F,73.4,,,,,,75,SBD,Wraps,,,,,,,-180,-180,-190,,,Open,25,No
1,Aleksandr Rek,Александр Рек,M,66.4,110,117.5,-120,117.5,530,67.5,SBD,Wraps,180,190,195,195,,,-200,205,217.5,217.5,,Open,28,No
DQ,Dmitriy Yarmukhametov,Дмитрий Ярмухаметов,M,73.5,,,,,,75,SBD,Wraps,,,,,,,-150,-150,-150,,,Open,36,No
1,Vladimir Sukhinin,Владимир Сухинин,M,73.2,75,-80,-80,75,402.5,75,SBD,Wraps,175,180,185,185,,,-142.5,-142.5,142.5,142.5,,Masters 60-64,64,No
1,Artem Ulanov,Артем Уланов,M,80,100,-105,-105,100,552.5,82.5,SBD,Wraps,215,227.5,-235,227.5,,,-210,225,-235,225,,Juniors 20-23,20,No
1,Sergey Smirnov,Сергей Смирнов,M,82,180,-182.5,-182.5,180,720,82.5,SBD,Wraps,-280,280,-290,280,,,260,-270,-270,260,,Open,27,No
2,Andrey Smetanyuk,Андрей Сметанюк,M,77.8,120,-125,-125,120,545,82.5,SBD,Wraps,215,225,235,235,,,190,-200,-200,190,,Open,34,No
DQ,Dmitriy Korneev,Дмитрий Корнеев,M,80.8,,,,,,82.5,SBD,Wraps,,,,,,,-230,-235,-235,,,Open,34,No
1,Roman Skorobogatchenko,Роман Скоробогатченко,M,89.3,-170,170,180,180,760,90,SBD,Wraps,260,275,285,285,,,270,282.5,295,295,,Open,28,No
2,Boris Koloskov,Борис Колосков,M,89.6,145,152.5,155,155,652.5,90,SBD,Wraps,-257.5,257.5,-270,257.5,,,220,230,240,240,,Open,29,No
3,Maksim Amanatov,Максим Аманатов,M,86.5,-130,135,140,140,630,90,SBD,Wraps,270,-280,-280,270,,,200,215,220,220,,Open,25,No
4,Sergey Smirnov,Сергей Смирнов,M,87.1,125,132.5,-137.5,132.5,552.5,90,SBD,Wraps,210,220,-230,220,,,-200,200,-215,200,,Open,25,No
5,Vladislav Rekhletskiy,Владислав Рехлецкий,M,84.2,115,-120,-120,115,535,90,SBD,Wraps,210,220,-225,220,,,200,-207.5,-207.5,200,,Open,33,No
1,Igor Lipnik,Игорь Липник,M,88.5,140,-150,-150,140,600,90,SBD,Wraps,220,-230,240,240,,,200,220,-230,220,,Masters 40-44,41,No
1,Vladimir Kudinov,Владимир Кудинов,M,83,130,140,147.5,147.5,537.5,90,SBD,Wraps,190,-200,200,200,,,170,-180,190,190,,Masters 45-49,45,No
1,Nikita Stepanov,Никита Степанов,M,94.6,125,130,-140,130,540,100,SBD,Wraps,180,195,210,210,,,190,200,-210,200,,Juniors 20-23,20,No
1,Aleksey Yakushevich,Алексей Якушевич,M,99.5,160,170,180,180,772.5,100,SBD,Wraps,280,302.5,-310,302.5,,,260,275,290,290,,Open,24,No
2,Aleksey Proskuryakov,Алексей Проскуряков,M,93,125,135,-140,135,562.5,100,SBD,Wraps,205,215,220,220,,,195,-207.5,207.5,207.5,,Open,31,No
3,Pavel Grigorev,Павел Григорьев,M,96.1,-125,130,135,135,475,100,SBD,Wraps,-170,170,-190,170,,,-170,-170,170,170,,Open,29,No
4,Dmitriy Yakovlev,Дмитрий Яковлев,M,97.9,135,145,155,155,665,100,SBD,Wraps,250,280,-300,280,,,230,-255,-255,230,,Open,31,No
1,Konstantinos Alexopoulos,,M,98.7,190,-195,-195,190,670,100,SBD,Wraps,230,240,250,250,-255,,215,230,-250,230,,Masters 45-49,47,No
1,Ruslan Magomadov,Руслан Магомадов,M,97.3,120,125,-130,125,535,100,SBD,Wraps,185,200,210,210,,,185,200,-210,200,,Masters 50-54,52,No
1,Gleb Avetov,Глеб Аветов,M,100.8,130,135,142.5,142.5,500,110,SBD,Wraps,185,187.5,-192.5,187.5,,145,160,170,-177.5,170,,Teen,19,No
1,Ilya Korobov,Илья Коробов,M,102.9,170,180,-185,180,690,110,SBD,Wraps,250,-260,260,260,,,-250,250,-270,250,,Juniors 20-23,22,No
1,Artem Kobanov,Артем Кобанов,M,109.2,205,215,222.5,222.5,832.5,110,SBD,Wraps,295,305,315,315,322.5,-227.5,-295,-295,295,295,322.5,Open,24,No
2,Artyom Reshetnikov,Артём Решетников,M,106.4,180,190,200,200,780,110,SBD,Wraps,290,-300,-300,290,,,-290,290,-300,290,,Open,26,No
3,Daniil Mikitas,Даниил Микитас,M,107.2,170,180,-187.5,180,735,110,SBD,Wraps,-270,285,-300,285,,,-270,270,-290,270,,Open,24,No
4,Konstantin Zadkov,Константин Задков,M,106.5,170,-175,-175,170,670,110,SBD,Wraps,230,240,-250,240,,,240,260,-280,260,,Open,33,No
1,Aleksandr Prokopev,Александр Прокопьев,M,114.3,165,175,-182.5,175,825,125,SBD,Wraps,275,285,300,300,,,-350,350,-370,350,,Juniors 20-23,22,No
2,Aleksandr Luzanov,Александр Лузанов,M,119.7,160,167.5,170,170,710,125,SBD,Wraps,250,265,270,270,,,-270,-270,270,270,,Juniors 20-23,22,No
DQ,Ilya Klopkov,Илья Клопков,M,116.9,,,,,,125,SBD,Wraps,,,,,,,-300,-300,-300,,,Juniors 20-23,21,No
1,Aleksandr Prokopev,Александр Прокопьев,M,124,165,175,,175,825,125,SBD,Wraps,275,285,300,300,,,-350,350,-370,350,,Open,22,No
2,Pantelis Sapounakis,,M,119.3,210,220,-225,220,800,125,SBD,Wraps,-280,280,-292.5,280,,,270,-300,300,300,,Open,35,No
3,Athanasios Liouras,,M,117,160,170,-175,170,720,125,SBD,Wraps,290,300,-305,300,,,240,250,-260,250,,Open,33,No
4,Oleg Bunin,Олег Бунин,M,118.3,170,180,190,190,720,125,SBD,Wraps,260,280,-300,280,,,-230,240,250,250,,Open,36,No
5,Aleksey Lebed,Алексей Лебедь,M,120,185,195,-200,195,710,125,SBD,Wraps,-250,250,265,265,,,-240,240,250,250,,Open,26,No
6,Dmitriy Nenartovich,Дмитрий Ненартович,M,112,170,-180,180,180,650,125,SBD,Wraps,240,-260,-260,240,,,-210,230,-240,230,,Open,28,No
DQ,Ilya Klopkov,Илья Клопков,M,116.9,,,,,,125,SBD,Wraps,,,,,,,-300,-300,-300,,,Open,21,No
1,Konstantin Askhabov,Константин Асхабов,M,129.2,130,140,150,150,710,140,SBD,Wraps,220,260,-300,260,,,220,250,300,300,,Masters 40-44,41,No
1,Andrey Chichikin,Андрей Чичикин,M,127.4,115,-120,-120,115,550,140,SBD,Wraps,200,220,-230,220,,,-200,200,215,215,,Masters 55-59,58,No
1,Ivan Podrez,Іван Подрез,M,175.2,230,240,247.5,247.5,1022.5,140+,SBD,Wraps,320,342.5,350,350,,,400,415,425,425,,Open,24,No
1,Kristina Lytasova,Кристина Лытасова,F,46.3,40,45,-47.5,45,217.5,48,SBD,Raw,85,90,95,95,,,70,75,77.5,77.5,,Open,28,Yes
1,Evgeniya Sinitsyna,Евгения Синицына,F,48.8,-62.5,65,-67.5,65,247.5,52,SBD,Raw,90,97.5,-105,97.5,,,85,-90,-90,85,,Juniors 20-23,20,Yes
2,Veronika Tyuleneva,Вероника Тюленева,F,50.9,50,-52.5,-52.5,50,227.5,52,SBD,Raw,90,100,-105,100,,,65,-75,77.5,77.5,,Juniors 20-23,23,Yes
1,Natalya Konchakova,Наталья Кончакова,F,51.4,57.5,62.5,-65,62.5,322.5,52,SBD,Raw,140,147.5,-152.5,147.5,,,105,-112.5,112.5,112.5,,Open,38,Yes
2,Olga Koltsova,Ольга Кольцова,F,50.7,60,65,-67.5,65,260,52,SBD,Raw,102.5,-110,-110,102.5,,,-85,87.5,92.5,92.5,,Open,32,Yes
1,Natalya Rebrova,Наталья Реброва,F,55.9,55,-57.5,-57.5,55,295,56,SBD,Raw,140,150,-155,150,,,90,-95,-100,90,,Open,39,Yes
1,Kristina Sagdeeva,Кристина Сагдеева,F,59.8,52.5,-57.5,57.5,57.5,250,60,SBD,Raw,90,95,-100,95,,,90,97.5,-102.5,97.5,,Teen,17,Yes
1,Svetlana Okhapkina,Светлана Охапкина,F,59.4,70,-72.5,72.5,72.5,365,60,SBD,Raw,165,170,-175,170,,,-120,122.5,-127.5,122.5,,Open,39,Yes
1,Anna Solomatina,Анна Соломатина,F,64.9,55,-57.5,57.5,57.5,262.5,67.5,SBD,Raw,105,-115,-115,105,,,85,95,100,100,,Juniors 20-23,23,Yes
1,Ekaterina Kostina,Екатерина Костина,F,63.8,65,-70,70,70,330,67.5,SBD,Raw,-140,140,-150,140,,,110,120,-125,120,,Open,26,Yes
1,Evgeniya Ulshina,Евгения Ульшина,F,76.6,40,50,55,55,222.5,82.5,SBD,Raw,80,100,107.5,107.5,,,60,-80,-85,60,,Masters 45-49,46,Yes
1,Nikolay Grachev,Николай Грачёв,M,51.8,72.5,-76,-76,72.5,300,52,SBD,Raw,125,130,135,135,-136,,87.5,90,92.5,92.5,,Masters 60-64,60,Yes
1,Nikolay Sheremeta,Николай Шеремета,M,53.7,65,70,-75,70,267.5,56,SBD,Raw,95,105,,105,,,80,87.5,92.5,92.5,,Open,24,Yes
1,Pavel Sheff,Павел Шефф,M,66.9,115,-120,120,120,442.5,67.5,SBD,Raw,155,162.5,172.5,172.5,,,140,150,-155,150,,Juniors 20-23,22,Yes
DQ,Evgeniy Karpov,Евгений Карпов,M,66.7,-125,-125,-125,,,67.5,SBD,Raw,,,,,,,170,-175,-175,170,,Open,36,Yes
1,Aleksandr Grevtsev,Александр Гревцев,M,66.9,87.5,90,92.5,92.5,360,67.5,SBD,Raw,135,145,152.5,152.5,,,115,-120,-120,115,,Masters 40-44,40,Yes
1,Georgiy Kovalevskiy,Георгий Ковалевский,M,72.2,120,-127.5,-127.5,120,522.5,75,SBD,Raw,205,210,-220,210,,,180,192.5,-200,192.5,,Teen,18,Yes
2,Aleksey Kholin,Алексей Холин,M,71,105,115,-117.5,115,480,75,SBD,Raw,150,170,190,190,,,160,170,175,175,,Teen,19,Yes
1,Nasim Igallun,Насим Игаллун,M,74.2,125,132.5,-138,132.5,537.5,75,SBD,Raw,200,220,225,225,230,,170,-180,180,180,,Juniors 20-23,22,Yes
DQ,Maksim Skripnik,Максим Скрипник,M,72.5,,,,,,75,SBD,Raw,,,,,,,-170,-170,-170,,,Open,33,Yes
1,Maksim Novikov,Максим Новиков,M,81.2,120,125,127.5,127.5,542.5,82.5,SBD,Raw,195,205,210,210,215,,190,200,205,205,,Teen,17,Yes
1,Maksim Novikov,Максим Новиков,M,81.5,120,125,127.5,127.5,542.5,82.5,SBD,Raw,195,205,210,210,215,,190,200,205,205,,Open,17,Yes
2,Grigoriy Yudin,Григорий Юдин,M,80.8,120,130,-135,130,527.5,82.5,SBD,Raw,170,185,-195,185,,,200,210,212.5,212.5,,Open,30,Yes
3,Evgeniy Pervyshin,Евгений Первышин,M,81.6,-115,122.5,-127.5,122.5,517.5,82.5,SBD,Raw,200,225,232.5,232.5,,,150,157.5,162.5,162.5,,Open,42,Yes
4,Andrey Karmishin,Андрей Кармишин,M,82.1,107.5,115,-117.5,115,462.5,82.5,SBD,Raw,165,175,185,185,,,162.5,-172.5,-172.5,162.5,,Open,32,Yes
5,Sergey Burdakov,Сергей Бурдаков,M,80,90,-95,95,95,410,82.5,SBD,Raw,150,165,170,170,,,135,145,-152.5,145,,Open,36,Yes
DQ,Kirill Lednev,Кирилл Леднев,M,81.8,-115,-117.5,-117.5,,,82.5,SBD,Raw,,,,,,,175,182.5,-187.5,182.5,,Open,29,Yes
DQ,Roman Tatarenkov,Роман Татаренков,M,82.1,,,,,,82.5,SBD,Raw,,,,,,,-185,-185,-185,,,Open,35,Yes
1,Evgeniy Pervyshin,Евгений Первышин,M,81.6,-115,122.5,-127.5,122.5,517.5,82.5,SBD,Raw,200,225,232.5,232.5,,,150,157.5,162.5,162.5,,Masters 40-44,42,Yes
1,Pavel Kireev,Павел Киреев,M,83.8,115,-120,-120,115,485,90,SBD,Raw,185,190,195,195,,,175,-180,-180,175,,Teen,16,Yes
1,Sergey Krasheninnikov,Сергей Крашенинников,M,89.3,130,135,140,140,510,90,SBD,Raw,180,190,200,200,,,150,160,170,170,,Juniors 20-23,21,Yes
1,Roman Antonyak,Роман Антоняк,M,88.3,175,182.5,-187.5,182.5,717.5,90,SBD,Raw,280,-300,-300,280,,,-255,255,-270,255,,Open,23,Yes
2,Aleksey Sheykin,Алексей Шейкин,M,89.3,160,170,175,175,675,90,SBD,Raw,250,265,-275,265,,,220,230,235,235,,Open,28,Yes
3,Egor Opichenok,Егор Опиченок,M,88.1,160,-175,-175,160,645,90,SBD,Raw,230,255,265,265,,,190,210,220,220,,Open,34,Yes
4,Anton Gryazev,Антон Грязев,M,88.3,130,135,-140,135,560,90,SBD,Raw,225,-235,235,235,,,175,182.5,190,190,,Open,28,Yes
5,Sergey Vorm,Сергей Ворм,M,85.9,130,-135,135,135,520,90,SBD,Raw,200,212.5,-220,212.5,,,160,172.5,-177.5,172.5,,Open,31,Yes
6,Pavel Zaytsev,Павел Зайцев,M,86.7,112.5,120,-125,120,485,90,SBD,Raw,202.5,215,-230,215,,,137.5,145,150,150,,Open,25,Yes
1,Arsen Akopyan,Арсен Акопян,M,87.4,115,-122.5,-122.5,115,490,90,SBD,Raw,185,197.5,-207.5,197.5,,,160,170,177.5,177.5,,Masters 45-49,45,Yes
1,Aleksey Serpichev,Алексей Серпичев,M,91.8,127.5,-132.5,-132.5,127.5,512.5,100,SBD,Raw,185,192.5,-200,192.5,,,185,192.5,-200,192.5,,Juniors 20-23,23,Yes
1,Evgeniy Boytsov,Евгений Бойцов,M,97.4,-165,175,180,180,605,100,SBD,Raw,210,220,230,230,,,170,185,195,195,,Open,28,Yes
2,Ivan Mechishev,Иван Мечишев,M,95.2,-145,147.5,-155,147.5,600,100,SBD,Raw,220,230,242.5,242.5,,,210,-220,-220,210,,Open,32,Yes
3,Andrey Vostokov,Андрей Востоков,M,97.6,115,125,-132.5,125,585,100,SBD,Raw,220,240,250,250,,,190,210,-230,210,,Open,35,Yes
1,Grigoriy Tochenyy,Григорий Точеный,M,108.6,130,140,150,150,500,110,SBD,Raw,170,190,-210,190,,,-160,-160,160,160,,Juniors 20-23,23,Yes
1,Andrey Shishkin,Андрей Шишкин,M,108.9,105,-122.5,125,125,585,110,SBD,Raw,175,230,247.5,247.5,,,175,-210,212.5,212.5,,Open,53,Yes
1,Dinar Bariev,Динар Бариев,M,105.5,165,172.5,177.5,177.5,700,110,SBD,Raw,245,255,265,265,,,240,250,257.5,257.5,,Masters 40-44,44,Yes
1,Andrey Shishkin,Андрей Шишкин,M,108.9,105,-122.5,125,125,585,110,SBD,Raw,175,230,247.5,247.5,,,175,-210,212.5,212.5,,Masters 50-54,53,Yes
1,Anton Bukhman,Антон Бухман,M,120.3,170,180,190,190,727.5,125,SBD,Raw,240,260,270,270,-280,,240,250,267.5,267.5,,Open,27,Yes
2,Artashes Sudzhyan,Арташес Суджян,M,122.7,180,-190,-190,180,707.5,125,SBD,Raw,260,267.5,-280,267.5,,,250,260,-265,260,,Open,28,Yes
3,Andrey Petrov,Андрей Петров,M,117.4,160,170,175,175,687.5,125,SBD,Raw,230,250,252.5,252.5,,,230,250,260,260,,Open,34,Yes
1,Aleksey Ivanov,Алексей Иванов,M,116.8,-152.5,157.5,160,160,685,125,SBD,Raw,265,275,,275,,,235,242.5,250,250,,Masters 40-44,43,Yes
1,Oleg Demchenko,Олег Демченко,M,128.5,170,180,-185,180,780,140,SBD,Raw,320,340,-350,340,,,230,250,260,260,,Open,38,Yes
1,Nataliya Demkiv,Наталия Демкив,F,59.8,70,-75,-75,70,322.5,60,SBD,Raw,120,-130,132.5,132.5,,,110,120,-125,120,,Open,33,No
1,Prokopyshina Elena,Прокопышина Елена,F,63.4,30,35,-37.5,35,165,67.5,SBD,Raw,65,75,80,80,,,42.5,47.5,50,50,,Masters 50-54,52,No
1,Valeriya Khabirova,Валерия Хабирова,F,74.1,80,90,-100,90,410,75,SBD,Raw,-160,-160,160,160,,,140,150,160,160,,Open,28,No
2,Viktoriya Doga,Виктория Дога,F,74.2,90,95,-100,95,410,75,SBD,Raw,-160,170,190,190,,,115,125,-127.5,125,,Open,33,No
1,Oksana Lomova,Оксана Ломова,F,78.7,95,97.5,-102.5,97.5,462.5,82.5,SBD,Raw,192.5,-200,-200,192.5,,,165,-170,172.5,172.5,175,Open,32,No
1,Viktor Kopaev,Виктор Копаев,M,74.4,140,-155,-155,140,525,75,SBD,Raw,200,-237.5,-237.5,200,,,185,-192.5,-192.5,185,,Open,26,No
1,Pavel Zubkov,Павел Зубков,M,80.4,140,150,-157.5,150,670,82.5,SBD,Raw,280,290,-302.5,290,,,210,220,230,230,,Open,30,No
2,Maksim Grekov,Максим Греков,M,79.8,165,172.5,-177.5,172.5,652.5,82.5,SBD,Raw,250,-260,-260,250,,,220,-230,230,230,,Open,30,No
3,Vladislav Suleymanov,Владислав Сулейманов,M,78.4,120,130,135,135,567.5,82.5,SBD,Raw,210,225,232.5,232.5,,,162.5,185,200,200,,Open,20,No
1,Evgeniy Khomov,Евгений Хомов,M,88.9,180,190,195,195,695,90,SBD,Raw,-300,300,-305,300,,,200,-215,-215,200,,Open,33,No
2,Aleksandr Cherednichenko,Александр Чередниченко,M,89.3,150,160,165,165,685,90,SBD,Raw,270,-280,280,280,,,-240,240,-250,240,,Open,25,No
3,Igor Sidorov,Игорь Сидоров,M,89.2,172.5,185,190,190,677.5,90,SBD,Raw,235,245,-255,245,,,232.5,242.5,-250,242.5,,Open,29,No
4,Aleksey Sheykin,Алексей Шейкин,M,89.3,160,170,175,175,675,90,SBD,Raw,250,265,-275,265,,,220,230,235,235,,Open,28,No
5,Sergey Zelenin,Сергей Зеленин,M,88.4,135,142.5,-150,142.5,572.5,90,SBD,Raw,220,230,-240,230,,,190,200,-210,200,,Open,31,No
1,Artur Beltsov,Артур Бельцов,M,95.5,180,192.5,197.5,197.5,742.5,100,SBD,Raw,270,-295,-295,270,,,240,260,275,275,,Open,34,No
1,Kirill Kovalenko,Кирилл Коваленко,M,105.8,175,185,-190,185,735,110,SBD,Raw,260,270,280,280,,,250,260,270,270,,Juniors 20-23,23,No
1,Vitaliy Bobrov,Виталий Бобров,M,103.1,180,195,205,205,800,110,SBD,Raw,280,-300,-300,280,,,280,300,315,315,,Open,34,No
2,Pavel Chukhnov,Павел Чухнов,M,104.1,160,175,180,180,745,110,SBD,Raw,260,280,-282.5,280,,,260,275,285,285,,Open,27,No
3,Sergey Anikin,Сергей Аникин,M,105.6,170,177.5,180,180,740,110,SBD,Raw,280,292.5,305,305,,,240,245,255,255,,Open,35,No
4,Aleksandr Ivachev,Александр Ивачев,M,109.6,185,192.5,195,195,740,110,SBD,Raw,290,300,-307.5,300,,,235,240,245,245,,Open,32,No
5,Aleksandr Potapov,Александр Потапов,M,108.6,160,170,180,180,730,110,SBD,Raw,260,285,305,305,,,220,235,245,245,,Open,33,No
6,Igor Sharapov,Игорь Шарапов,M,108.8,175,185,-190,185,720,110,SBD,Raw,270,280,-282.5,280,,,235,250,255,255,,Open,44,No
7,Pavel Vysochin,Павел Высочин,M,106.3,175,185,187.5,187.5,715,110,SBD,Raw,250,265,280,280,,,220,235,247.5,247.5,,Open,29,No
8,Pavel Ermolaev,Павел Ермолаев,M,100.1,120,130,-140,130,540,110,SBD,Raw,230,250,-300,250,,,140,160,-180,160,,Open,25,No
1,Igor Sharapov,Игорь Шарапов,M,108.8,175,185,-190,185,720,110,SBD,Raw,270,280,-282.5,280,,,235,250,255,255,,Masters 40-44,44,No
1,Mikhail Sekov,Михаил Секов,M,115.4,190,-202.5,-202.5,190,805,125,SBD,Raw,300,310,-320,310,,,285,300,305,305,,Open,29,No
2,Aleksey Averyanov,Алексей Аверьянов,M,112.7,160,-172.5,-172.5,160,645,125,SBD,Raw,240,-270,-270,240,,,232.5,-242.5,245,245,,Open,22,No
