Place,Name,State,WeightClassKg,BodyweightKg,BirthDate,Age,Squat1Kg,Squat2Kg,Squat3Kg,Best3SquatKg,Bench1Kg,Bench2Kg,Bench3Kg,Best3BenchKg,Deadlift1Kg,Deadlift2Kg,Deadlift3Kg,Best3DeadliftKg,TotalKg,Event,Equipment,Sex,Division
1,Elizabeth Del Mastro,NC,52,48.3,,20,72.5,80,87.5,87.5,62.5,67.5,-72.5,67.5,87.5,95,120,120,275,SBD,Raw,F,Juniors 20-23
1,Samantha Petrone,SC,75,74.2,,25,75,82.5,92.5,92.5,40,-45,-50,40,85,95,102.5,102.5,235,SBD,Raw,F,Open
1,Missy Keller,SC,60,58.7,,54,70,75,80,80,42.5,45,-47.5,45,95,102.5,-107.5,102.5,227.5,SBD,Raw,F,Masters 50-54
1,Penny Hadgeoff,SC,67.5,63.7,,58,-102.5,105,-110,105,52.5,-57.5,-57.5,52.5,112.5,117.5,122.5,122.5,280,SBD,Raw,F,Masters 55-59
1,Malissa Laroche,SC,75,73.8,,44,-110,112.5,-120,112.5,-57.5,60,-62.5,60,120,132.5,137.5,137.5,310,SBD,Raw,F,Masters 40-44
1,Ritvik Verma,SC,82.5,82.2,,17,135,150,-157.5,150,90,97.5,-102.5,97.5,177.5,182.5,187.5,187.5,435,SBD,Raw,M,Juniors 16-17
1,Joseph Schmidt,SC,110,109,,21,230,245,257.5,257.5,180,-192.5,-195,180,260,280,-300,280,717.5,SBD,Raw,M,Juniors 20-23
1,Preston Guess,SC,67.5,63.9,,24,145,167.5,182.5,182.5,100,120,-127.5,120,145,182.5,200,200,502.5,SBD,Raw,M,Open
1,Teddy Perretti,NC,82.5,81.8,,26,230,-247.5,-247.5,230,145,157.5,-160,157.5,275,295,300,300,687.5,SBD,Raw,M,Open
1,Wesley Wright,NC,90,88.9,,28,217.5,227.5,-245,227.5,142.5,150,-155,150,215,227.5,232.5,232.5,610,SBD,Raw,M,Open
1,Eric Wilberg,NC,100,94.6,,24,275,290,-302.5,290,185,195,-202.5,195,310,332.5,345,345,830,SBD,Raw,M,Open
2,Blaine Houck,FL,100,93.8,,28,270,285,295,295,210,227.5,-235,227.5,300,-320,-320,300,822.5,SBD,Raw,M,Open
3,Trevor O'Hara,NC,100,94.7,,25,202.5,207.5,210,210,152.5,160,165,165,215,227.5,-237.5,227.5,602.5,SBD,Raw,M,Open
4,Omar Foreman,NC,100,97.4,,49,125,147.5,-165,147.5,-125,147.5,162.5,162.5,180,192.5,210,210,520,SBD,Raw,M,Open
1,Chas Nimmons,SC,100,91,,36,,,,,130,140,147.5,147.5,215,250,272.5,272.5,420,BD,Raw,M,Open
1,Nicholas Dillon,SC,110,103.6,,23,-235,240,-250,240,175,185,195,195,205,230,-240,230,665,SBD,Raw,M,Open
1,Thomas Napoli,NC,90,88.1,,61,125,140,155,155,140,155,-160,155,185,195,-205,195,505,SBD,Raw,M,Masters 60-64
1,Brian Bates #1,SC,100,92.1,,42,150,-157.5,157.5,157.5,115,117.5,-120,117.5,190,197.5,-200,197.5,472.5,SBD,Raw,M,Masters 40-44
1,Omar Foreman,NC,100,97.4,,49,125,147.5,-165,147.5,-125,147.5,162.5,162.5,180,192.5,210,210,520,SBD,Raw,M,Masters 45-49
1,Gregg Johnson,NC,110,107.4,,48,-210,-210,210,210,165,170,-175,170,210,220,-227.5,220,600,SBD,Raw,M,Masters 45-49
1,Wesley Hoover,SC,140,138.1,,43,180,202.5,210,210,170,-182.5,182.5,182.5,172.5,185,195,195,587.5,SBD,Raw,M,Masters 40-44
1,Dillon Conley,NC,90,89.1,,24,235,-257.5,272.5,272.5,167.5,182.5,190,190,255,275,-280,275,737.5,SBD,Wraps,M,Open
1,Anthony Miller,SC,110,109.4,,24,280,302.5,312.5,312.5,172.5,182.5,-190,182.5,255,277.5,-282.5,277.5,772.5,SBD,Wraps,M,Open
1,Jeffrey Elian,WV,140,131.2,,29,275,287.5,297.5,297.5,210,220,227.5,227.5,282.5,292.5,300,300,825,SBD,Wraps,M,Open
1,William Jeffcoat,SC,125,121,,17,,,,,-142.5,152.5,160,160,,,,,160,B,Raw,M,Juniors 16-17
1,Stephen Lane,SC,110,108.8,,32,,,,,185,195,-207.5,195,,,,,195,B,Raw,M,Open
2,Todd King,NC,110,108.1,,54,,,,,115,127.5,137.5,137.5,,,,,137.5,B,Raw,M,Open
1,Todd King,NC,110,108.1,,54,,,,,115,127.5,137.5,137.5,,,,,137.5,B,Raw,M,Masters 50-54
1,Wesley Hoover,SC,140,138.1,,43,,,,,170,-182.5,182.5,182.5,,,,,182.5,B,Raw,M,Masters 40-44
1,Stephen Lane,SC,110,108.8,,32,,,,,,,,,260,-287.5,,260,260,D,Raw,M,Open
2,Todd King,NC,110,108.1,,54,,,,,,,,,200,215,227.5,227.5,227.5,D,Raw,M,Open
1,Leo Fetter,SC,90,86.5,,66,,,,,,,,,155,160,-165,160,160,D,Raw,M,Masters 65-69
1,Todd King,NC,110,108.1,,54,,,,,,,,,200,215,227.5,227.5,227.5,D,Raw,M,Masters 50-54
1,Stephen Lane,SC,110,108.8,,32,,,,,185,195,-207.5,195,260,-287.5,,260,455,BD,Raw,M,Open
