Sex,Name,CyrillicName,BodyweightKg,Squat1Kg,Squat2Kg,Squat3Kg,Best3SquatKg,Squat4Kg,Bench1Kg,Bench2Kg,Bench3Kg,Best3BenchKg,Bench4Kg,Deadlift1Kg,Deadlift2Kg,Deadlift3Kg,Best3DeadliftKg,Deadlift4Kg,TotalKg,WeightClassKg,Event,Equipment,Tested,Division,Age,BirthDate,Place
F,Gegetsik Vardanyan,Гегецик Варданян,45.9,65,67.5,70,70,,40,-42.5,-42.5,40,,90,-97.5,-97.5,90,,200,48,SBD,Raw,Yes,Open,18,1998-07-27,1
F,Mariya Krivoruchenko,Мария Криворученко,59.1,60,-65,,60,,65,-70,70,70,,70,75,80,80,,210,60,SBD,Raw,Yes,Teen 18-19,19,1997-05-01,1
F,Svetlana Buryan,Светлана Бурьян,80.2,95,-105,105,105,,-50,-50,-50,,,-125,,,,,,82.5,SBD,Raw,Yes,Masters 45-49,45,1970-12-21,DQ
M,Ilya Aralov,Илья Аралов,60.6,-90,90,100,100,,70,75,-80,75,,125,135,140,140,,315,67.5,SBD,Raw,Yes,Teen 16-17,16,2000-08-03,1
M,Aleksey Shapovalov,Алексей Шаповалов,62.3,-140,140,-150,140,,-100,100,,100,,140,150,160,160,,400,67.5,SBD,Raw,Yes,Juniors 20-23,23,1993-03-29,1
M,Roman Mitrokhin,Роман Митрохин,73.9,150,160,165,165,,125,132.5,-140,132.5,,190,220,-222.5,220,,517.5,75,SBD,Raw,Yes,Open,39,1977-02-24,1
M,Aleksandr Menshakov,Александр Меньшаков,75,180,-190,-190,180,,-115,115,-120,115,,210,220,-225,220,,515,75,SBD,Raw,Yes,Open,28,1988-06-26,2
M,Denis Pokachalov,Денис Покачалов,74.1,-150,150,-160,150,,110,-115,-115,110,,150,160,170,170,,430,75,SBD,Raw,Yes,Open,26,1989-10-30,3
M,Vadim Loyko,Вадим Лойко,82.2,210,,,210,,135,-145,145,145,,255,270,-282.5,270,,625,82.5,SBD,Raw,Yes,Juniors 20-23,22,1994-04-16,1
M,Vadim Loyko,Вадим Лойко,82.2,210,,,210,,135,-145,145,145,,255,270,-282.5,270,,625,82.5,SBD,Raw,Yes,Open,22,1994-04-16,1
M,Viktor Lazarev,Виктор Лазарев,82.3,-190,200,-215,200,,-145,145,-152.5,145,,220,-230,-230,220,,565,82.5,SBD,Raw,Yes,Open,36,1980-08-31,3
M,Andrey Maslov,Андрей Маслов,80.8,180,195,-205,195,,130,145,-147.5,145,,-180,200,205,205,,545,82.5,SBD,Raw,Yes,Open,29,1987-05-27,4
M,Evgeniy Chursin,Евгений Чурсин,89.5,-180,180,-190,180,,120,125,132.5,132.5,,160,175,185,185,,497.5,90,SBD,Raw,Yes,Juniors 20-23,20,1996-08-31,1
M,Evgeniy Chursin,Евгений Чурсин,89.5,-180,180,-190,180,,120,125,132.5,132.5,,160,175,185,185,,497.5,90,SBD,Raw,Yes,Open,20,1996-08-31,2
M,Ivan Eremenko,Иван Еременко,87.6,150,160,-170,160,,110,120,-127.5,120,,150,170,-180,170,,450,90,SBD,Raw,Yes,Open,25,1991-02-18,3
M,Maksim Rogov,Максим Рогов,85.5,145,152.5,155,155,,105,110,-112.5,110,,160,172.5,177.5,177.5,,442.5,90,SBD,Raw,Yes,Open,16,1999-11-22,4
M,Evgeniy Kulakov,Евгений Кулаков,95,160,170,180,180,,110,120,-125,120,,190,210,-220,210,,510,100,SBD,Raw,Yes,Open,29,1987-03-24,1
M,Dmitriy Efimenko,Дмитрий Ефименко,106.9,-205,-205,205,205,,140,150,-155,150,,230,247.5,-255,247.5,,602.5,110,SBD,Raw,Yes,Open,25,1990-12-11,1
M,Yuriy Belyaev,Юрий Беляев,123.3,260,270,280,280,,172.5,180,-185,180,,270,280,290,290,,750,125,SBD,Raw,Yes,Open,29,1987-02-04,1
M,Andrey Skomorokhov,Андрей Скоморохов,123.3,225,-245,245,245,,150,170,-180,170,,250,270,285,285,,700,125,SBD,Raw,Yes,Open,30,1985-10-29,2
M,Maksim Ochkalov,Максим Очкалов,122.6,190,-205,-220,190,,150,160,-165,160,,230,-252.5,-252.5,230,,580,125,SBD,Raw,Yes,Open,27,1989-05-03,3
F,Irina Filateva,Ирина Филатьева,59.6,70,-75,75,75,,37.5,-40,-40,37.5,,80,85,92.5,92.5,,205,60,SBD,Raw,No,Open,28,1988-08-03,1
F,Elena Saratova,Елена Саратова,57.8,60,-65,65,65,,35,-40,40,40,,70,75,80,80,,185,60,SBD,Raw,No,Open,35,1981-08-11,2
M,Vadim Loyko,Вадим Лойко,82.2,210,,,210,,145,,,145,,270,,,270,,625,82.5,SBD,Raw,No,Juniors 20-23,22,1994-04-16,2
M,Aleksey Belozertsev,Алексей Белозерцев,81.7,-172.5,172.5,-180,172.5,,135,140,-145,140,,215,-230,-230,215,,527.5,82.5,SBD,Raw,No,Juniors 20-23,23,1993-02-01,3
M,Vadim Loyko,Вадим Лойко,82.2,210,,,210,,145,,,145,,270,,,270,,625,82.5,SBD,Raw,No,Open,22,1994-04-16,2
M,Aleksey Belozertsev,Алексей Белозерцев,81.7,-172.5,172.5,-180,172.5,,135,140,-145,140,,215,-230,-230,215,,527.5,82.5,SBD,Raw,No,Open,23,1993-02-01,5
M,Nikolay Glazyrin,Николай Глазырин,86,235,250,-260,250,,165,175,-180,175,,-235,235,-250,235,,660,90,SBD,Raw,No,Open,29,1987-09-02,1
M,Vyacheslav Stepantsov,Вячеслав Степанцов,72.6,175,185,192.5,192.5,,105,115,125,125,,200,-220,-227.5,200,,517.5,75,SBD,Wraps,Yes,Juniors 20-23,22,1993-11-19,1
M,Igor Lobov,Игорь Лобов,86,180,195,-205,195,,115,-125,-125,115,,225,242.5,-250,242.5,,552.5,90,SBD,Wraps,Yes,Open,26,1990-08-19,4
M,Aleksey Lazukin,Алексей Лазукин,106.8,-200,-200,200,200,,135,140,145,145,,210,220,-230,220,,565,110,SBD,Wraps,Yes,Open,26,1990-05-03,2
M,Mikhail Kulakov,Михаил Кулаков,106.3,110,117.5,125,125,,70,-75,-75,70,,125,135,-140,135,,330,110,SBD,Wraps,Yes,Open,30,1986-05-01,3
M,Vladislav Chislov,Владислав Числов,65,160,170,172.5,172.5,,100,102.5,105,105,,180,190,-200,190,,467.5,67.5,SBD,Wraps,No,Teen 16-17,17,1999-09-09,1
M,Ilya Morozov,Илья Морозов,72.1,140,165,180,180,,80,95,-100,95,,130,150,165,165,,440,75,SBD,Wraps,No,Juniors 20-23,23,1993-09-04,2
M,Dmitriy Gromov,Дмитрий Громов,75,-200,210,220,220,,122.5,130,-137.5,130,,250,-255,-255,250,,600,75,SBD,Wraps,No,Open,29,1987-04-12,1
M,Ilya Morozov,Илья Морозов,72.1,140,165,180,180,,80,95,-100,95,,130,150,165,165,,440,75,SBD,Wraps,No,Open,23,1993-09-04,2
M,Aleksey Okolelov,Алексей Околелов,81,105,110,120,120,,77.5,82.5,-87.5,82.5,,-140,145,150,150,,352.5,82.5,SBD,Wraps,No,Teen 13-15,15,2001-08-24,1
M,Dmitriy Dolmatov,Дмитрий Долматов,82.5,250,-270,-270,250,,155,-165,-165,155,,255,-265,-270,255,,660,82.5,SBD,Wraps,No,Open,28,1988-05-01,1
M,Andrey Nerubenko,Андрей Нерубенко,88.7,250,-260,260,260,,210,,,210,,230,240,250,250,,720,90,SBD,Wraps,No,Open,36,1979-11-08,1
M,Sergey Kiselev,Сергей Киселев,88.9,230,245,-250,245,,165,170,-175,170,,280,-290,-290,280,,695,90,SBD,Wraps,No,Open,29,1987-02-24,2
M,Sergey Mozhaev,Сергей Можаев,86.2,210,217.5,-225,217.5,,-142.5,142.5,147.5,147.5,,210,220,-227.5,220,,585,90,SBD,Wraps,No,Open,28,1988-04-16,3
M,Denis Bykov,Денис Быков,84,162.5,-170,,162.5,,135,140,-145,140,,200,-210,-210,200,,502.5,90,SBD,Wraps,No,Open,33,1983-01-02,5
M,Pavel Bezuglov,Павел Безуглов,98.1,270,-290,-290,270,,170,180,,180,,270,290,-295,290,,740,100,SBD,Wraps,No,Open,28,1987-10-19,1
M,Valentin Bezkorovaynyy,Валентин Безкоровайный,97,235,-250,-250,235,,155,162.5,-170,162.5,,240,-260,260,260,,657.5,100,SBD,Wraps,No,Masters 40-44,43,1973-09-14,1
M,Aleksandr Grushevskiy,Александр Грушевский,97.1,220,232.5,242.5,242.5,,110,120,-125,120,,215,-230,-230,215,,577.5,100,SBD,Wraps,No,Masters 40-44,43,1973-01-24,2
M,Konstantin Krivoruchenko,Константин Криворученко,98.4,180,200,220,220,,140,160,170,170,,180,200,210,210,,600,100,SBD,Wraps,No,Masters 45-49,46,1969-10-17,1
M,Andrey Zolotarenok,Андрей Золотаренок,106.4,-200,210,225,225,,150,160,-170,160,,-210,210,230,230,,615,110,SBD,Wraps,No,Open,37,1978-11-23,1
M,Yuriy Prutskov,Юрий Пруцков,119.2,-275,275,285,285,,190,200,205,205,,270,285,300,300,,790,125,SBD,Wraps,No,Open,38,1978-02-14,1
M,Vadim Loyko,Вадим Лойко,82.2,240,,,240,,145,,,145,,265,-275,-275,265,,650,82.5,SBD,Single-ply,Yes,Juniors 20-23,22,1994-04-16,1
M,Vadim Loyko,Вадим Лойко,82.2,240,,,240,,145,,,145,,265,-275,-275,265,,650,82.5,SBD,Single-ply,Yes,Open,22,1994-04-16,1
M,Vadim Loyko,Вадим Лойко,82.2,240,,,240,,145,,,145,,265,,,265,,650,82.5,SBD,Single-ply,No,Juniors 20-23,22,1994-04-16,2
M,Vadim Loyko,Вадим Лойко,82.2,240,,,240,,145,,,145,,265,,,265,,650,82.5,SBD,Single-ply,No,Open,22,1994-04-16,2
M,Aleksey Legostaev,Алексей Легостаев,120.5,300,315,-325,315,,-190,200,-210,200,,250,270,-290,270,,785,125,SBD,Single-ply,No,Open,30,1985-11-04,1
F,Nataliya Volchkova,Наталия Волчкова,58.2,55,60,67.5,67.5,,,,,,,,,,,,67.5,60,S,Raw,Yes,Open,39,1977-03-02,1
M,Vadim Loyko,Вадим Лойко,82.2,210,,,210,,,,,,,,,,,,210,82.5,S,Raw,Yes,Juniors 20-23,22,1994-04-16,2
M,Vadim Loyko,Вадим Лойко,82.2,210,,,210,,,,,,,,,,,,210,82.5,S,Raw,Yes,Open,22,1994-04-16,2
M,Artem Taldykin,Артем Талдыкин,82.6,150,,,150,,,,,,,,,,,,150,90,S,Raw,Yes,Open,24,1991-12-02,1
M,Vadim Loyko,Вадим Лойко,82.2,-200,-210,215,215,,,,,,,,,,,,215,82.5,S,Raw,No,Juniors 20-23,22,1994-04-16,1
M,Vadim Loyko,Вадим Лойко,82.2,-200,-210,215,215,,,,,,,,,,,,215,82.5,S,Raw,No,Open,22,1994-04-16,1
M,Artem Taldykin,Артем Талдыкин,82.6,140,150,-160,150,,,,,,,,,,,,150,90,S,Raw,No,Open,24,1991-12-02,2
M,Vadim Loyko,Вадим Лойко,82.2,230,,,230,,,,,,,,,,,,230,82.5,S,Wraps,Yes,Juniors 20-23,22,1994-04-16,1
M,Vadim Loyko,Вадим Лойко,82.2,230,,,230,,,,,,,,,,,,230,82.5,S,Wraps,Yes,Open,22,1994-04-16,2
M,Artem Taldykin,Артем Талдыкин,82.6,130,140,,140,,,,,,,,,,,,140,90,S,Wraps,Yes,Open,24,1991-12-02,3
M,Ilya Morozov,Илья Морозов,72.1,165,,,165,,,,,,,,,,,,165,75,S,Wraps,No,Juniors 20-23,23,1993-09-04,1
M,Ilya Morozov,Илья Морозов,72.1,165,,,165,,,,,,,,,,,,165,75,S,Wraps,No,Open,23,1993-09-04,1
M,Vadim Loyko,Вадим Лойко,82.2,-220,230,-240,230,,,,,,,,,,,,230,82.5,S,Wraps,No,Juniors 20-23,22,1994-04-16,2
M,Stepan Novikov,Степан Новиков,79.3,220,230,240,240,,,,,,,,,,,,240,82.5,S,Wraps,No,Open,33,1982-11-25,1
M,Vadim Loyko,Вадим Лойко,82.2,-220,230,-240,230,,,,,,,,,,,,230,82.5,S,Wraps,No,Open,22,1994-04-16,3
M,Sergey Mozhaev,Сергей Можаев,86.2,217.5,,,217.5,,,,,,,,,,,,217.5,90,S,Wraps,No,Open,28,1988-04-16,1
M,Artem Taldykin,Артем Талдыкин,82.6,140,160,-170,160,,,,,,,,,,,,160,90,S,Wraps,No,Open,24,1991-12-02,2
M,Sergey Mozhaev,Сергей Можаев,86.2,,,,,,,,,,,,,,,,,90,S,Wraps,No,Open,28,1988-04-16,DQ
M,Konstantin Krivoruchenko,Константин Криворученко,98.4,220,,,220,,,,,,,,,,,,220,100,S,Wraps,No,Masters 45-49,46,1969-10-17,1
M,Andrey Zolotarenok,Андрей Золотаренок,106.4,225,,,225,,,,,,,,,,,,225,110,S,Wraps,No,Open,37,1978-11-23,1
M,Vadim Loyko,Вадим Лойко,82.2,240,,,240,,,,,,,,,,,,240,82.5,S,Single-ply,Yes,Juniors 20-23,22,1994-04-16,2
M,Vadim Loyko,Вадим Лойко,82.2,240,,,240,,,,,,,,,,,,240,82.5,S,Single-ply,Yes,Open,22,1994-04-16,2
M,Andrey Izvekov,Андрей Извеков,123,300,332.5,-340,332.5,,,,,,,,,,,,332.5,125,S,Single-ply,Yes,Open,35,1981-10-15,1
M,Vadim Loyko,Вадим Лойко,82.2,255,,,255,,,,,,,,,,,,255,82.5,S,Single-ply,No,Juniors 20-23,22,1994-04-16,1
M,Vadim Loyko,Вадим Лойко,82.2,255,,,255,,,,,,,,,,,,255,82.5,S,Single-ply,No,Open,22,1994-04-16,1
M,Andrey Izvekov,Андрей Извеков,123,332.5,,,332.5,,,,,,,,,,,,332.5,125,S,Single-ply,No,Open,35,1981-10-15,2
F,Anastasiya Fedorova,Анастасия Федорова,48,,,,,,55,-60,-60,55,,,,,,,55,48,B,Raw,Yes,Open,26,1989-11-20,1
F,Darya Fedoseeva,Дарья Федосеева,50.3,,,,,,57.5,60,-62.5,60,,,,,,,60,52,B,Raw,Yes,Teen 16-17,16,2000-08-09,1
F,Anastasiya Shipilova,Анастасия Шипилова,50.2,,,,,,45,-50,50,50,,,,,,,50,52,B,Raw,Yes,Teen 16-17,16,2000-06-29,2
F,Darya Fedoseeva,Дарья Федосеева,50.3,,,,,,57.5,60,-62.5,60,,,,,,,60,52,B,Raw,Yes,Open,16,2000-08-09,2
F,Irina Lyamina,Ирина Лямина,50.9,,,,,,50,-55,-55,50,,,,,,,50,52,B,Raw,Yes,Open,29,1987-03-14,1
F,Elena Egorova,Елена Егорова,50,,,,,,40,42.5,-45,42.5,,,,,,,42.5,52,B,Raw,Yes,Masters 40-44,42,1974-01-13,1
F,Mariya Burtseva,Мария Бурцева,55.4,,,,,,52.5,-55,-55,52.5,,,,,,,52.5,56,B,Raw,Yes,Teen 13-15,13,2003-03-13,1
F,Irina Mamontova,Ирина Мамонтова,54.2,,,,,,55,-62.5,-62.5,55,,,,,,,55,56,B,Raw,Yes,Open,34,1982-07-13,1
F,Mariya Burtseva,Мария Бурцева,55.4,,,,,,52.5,-55,-55,52.5,,,,,,,52.5,56,B,Raw,Yes,Open,13,2003-03-13,2
F,Irina Filatova,Ирина Филатова,55.1,,,,,,-50,50,-55,50,,,,,,,50,56,B,Raw,Yes,Open,28,1988-04-05,3
F,Mariya Rybalka,Мария Рыбалка,55,,,,,,40,-47.5,-55,40,,,,,,,40,56,B,Raw,Yes,Open,19,1997-08-27,4
F,Ekaterina Tutygina,Екатерина Тутыгина,55.2,,,,,,-55,-55,-55,,,,,,,,,56,B,Raw,Yes,Open,26,1990-09-19,DQ
F,Mariya Krivoruchenko,Мария Криворученко,59.1,,,,,,70,,,70,,,,,,,70,60,B,Raw,Yes,Teen 18-19,19,1997-05-01,1
F,Mariya Krivoruchenko,Мария Криворученко,59.1,,,,,,70,,,70,,,,,,,70,60,B,Raw,Yes,Open,19,1997-05-01,2
F,Anastasiya Prosvetova,Анастасия Просветова,61.7,,,,,,70,75,-85,75,,,,,,,75,67.5,B,Raw,Yes,Juniors 20-23,21,1995-05-07,1
F,Anastasiya Prosvetova,Анастасия Просветова,61.7,,,,,,-70,,,,,,,,,,,67.5,B,Raw,Yes,Juniors 20-23,21,1995-05-07,DQ
F,Anastasiya Prosvetova,Анастасия Просветова,61.7,,,,,,70,75,-85,75,,,,,,,75,67.5,B,Raw,Yes,Open,21,1995-05-07,2
F,Galina Savina,Галина Савина,63.5,,,,,,-60,-60,60,60,,,,,,,60,67.5,B,Raw,Yes,Open,41,1975-06-03,4
F,Galina Savina,Галина Савина,63.5,,,,,,-60,-60,60,60,,,,,,,60,67.5,B,Raw,Yes,Masters 40-44,41,1975-06-03,2
F,Olga Ploskikh,Ольга Плоских,73.3,,,,,,-45,45,-50,45,,,,,,,45,75,B,Raw,Yes,Teen 18-19,18,1998-06-14,1
F,Anna Lukyanenko,Анна Лукьяненко,88,,,,,,40,47.5,-50,47.5,,,,,,,47.5,90,B,Raw,Yes,Open,30,1986-04-16,1
M,Egor Grechkin,Егор Гречкин,44.3,,,,,,45,50,-52.5,50,,,,,,,50,52,B,Raw,Yes,Teen 13-15,14,2002-08-15,1
M,Maksim Chursanov,Максим Чурсанов,56,,,,,,127.5,-132.5,-132.5,127.5,,,,,,,127.5,56,B,Raw,Yes,Teen 18-19,19,1997-02-18,1
M,Roman Poltavtsev,Роман Полтавцев,66.1,,,,,,90,92.5,110,110,,,,,,,110,67.5,B,Raw,Yes,Teen 13-15,15,2001-01-01,1
M,Vladislav Kolomenskiy,Владислав Коломенский,64.5,,,,,,120,125,-130,125,,,,,,,125,67.5,B,Raw,Yes,Teen 16-17,17,1999-06-30,1
M,Nikita Ryazhskikh,Никита Ряжских,66.2,,,,,,90,97.5,-107.5,97.5,,,,,,,97.5,67.5,B,Raw,Yes,Teen 16-17,17,1999-09-21,2
M,Nikita Rogovets,Никита Роговец,65.5,,,,,,80,87.5,-97.5,87.5,,,,,,,87.5,67.5,B,Raw,Yes,Teen 16-17,16,2000-01-09,3
M,Vadim Zelepukin,Вадим Зелепукин,66.6,,,,,,-120,120,125,125,,,,,,,125,67.5,B,Raw,Yes,Open,29,1987-04-25,2
M,Ivan Gekov,Иван Геков,65.2,,,,,,102.5,107.5,112.5,112.5,,,,,,,112.5,67.5,B,Raw,Yes,Open,28,1988-03-01,3
M,Denis Surovtsev,Денис Суровцев,66.5,,,,,,90,100,107.5,107.5,,,,,,,107.5,67.5,B,Raw,Yes,Open,30,1985-10-27,4
M,Nikita Ryazhskikh,Никита Ряжских,66.2,,,,,,90,97.5,-107.5,97.5,,,,,,,97.5,67.5,B,Raw,Yes,Open,17,1999-09-21,5
M,Valeriy Balyuk,Валерий Балюк,67.4,,,,,,100,107.5,-110,107.5,,,,,,,107.5,67.5,B,Raw,Yes,Masters 40-44,42,1973-12-10,1
M,Aleksandr Fabritskiy,Александр Фабрицкий,65.5,,,,,,-105,-107.5,107.5,107.5,,,,,,,107.5,67.5,B,Raw,Yes,Masters 45-49,46,1970-03-11,1
M,Ruslan Davlyatov,Руслан Давлятов,72.7,,,,,,75,-82.5,82.5,82.5,,,,,,,82.5,75,B,Raw,Yes,Teen 13-15,14,2001-10-29,1
M,Nikita Antipov,Никита Антипов,75,,,,,,110,115,117.5,117.5,,,,,,,117.5,75,B,Raw,Yes,Teen 16-17,17,1998-12-22,1
M,Andrey Anpilogov,Андрей Анпилогов,74.2,,,,,,90,-105,-105,90,,,,,,,90,75,B,Raw,Yes,Teen 18-19,19,1997-03-03,1
M,Yuriy Kosarev,Юрий Косарев,74.1,,,,,,-122.5,122.5,-127.5,122.5,,,,,,,122.5,75,B,Raw,Yes,Juniors 20-23,20,1996-06-06,1
M,Sergey Oboimov,Сергей Обоимов,69.9,,,,,,107.5,110,112.5,112.5,,,,,,,112.5,75,B,Raw,Yes,Juniors 20-23,21,1995-05-25,2
M,Aleksey Redozubov,Алексей Редозубов,73,,,,,,-135,135,140,140,,,,,,,140,75,B,Raw,Yes,Open,26,1990-07-26,3
M,Vasiliy Ryzhov,Василий Рыжов,74.4,,,,,,110,117.5,-122.5,117.5,,,,,,,117.5,75,B,Raw,Yes,Open,37,1979-03-06,4
M,Vadim Loyko,Вадим Лойко,82.2,,,,,,145,,,145,,,,,,,145,82.5,B,Raw,Yes,Juniors 20-23,22,1994-04-16,1
M,Aleksandr Pozdnyakov,Александр Поздняков,82.2,,,,,,155,162.5,-167.5,162.5,,,,,,,162.5,82.5,B,Raw,Yes,Open,37,1979-07-04,2
M,Andrey Maslov,Андрей Маслов,80.8,,,,,,145,,,145,,,,,,,145,82.5,B,Raw,Yes,Open,29,1987-05-27,3
M,Dmitriy Ivannikov,Дмитрий Иванников,75.2,,,,,,125,-130,-130,125,,,,,,,125,82.5,B,Raw,Yes,Open,35,1981-10-13,6
M,Aleksandr Zubov,Александр Зубов,81.4,,,,,,-140,-140,-140,,,,,,,,,82.5,B,Raw,Yes,Open,31,1985-06-04,DQ
M,Aleksandr Maslennikov,Александр Масленников,82,,,,,,-145,-145,-145,,,,,,,,,82.5,B,Raw,Yes,Open,28,1988-07-18,DQ
M,Sergey Shorokhov,Сергей Шорохов,82.2,,,,,,-140,-140,-140,,,,,,,,,82.5,B,Raw,Yes,Open,31,1985-05-26,DQ
M,Aleksey Slepokurov,Алексей Слепокуров,81.4,,,,,,-115,115,-127.5,115,,,,,,,115,82.5,B,Raw,Yes,Masters 40-44,42,1973-12-08,1
M,Vyacheslav Chibisov,Вячеслав Чибисов,81.5,,,,,,120,-127.5,-127.5,120,,,,,,,120,82.5,B,Raw,Yes,Masters 45-49,45,1971-04-10,1
M,Sergey Silionov,Сергей Силионов,81.8,,,,,,125,127.5,132.5,132.5,,,,,,,132.5,82.5,B,Raw,Yes,Masters 50-54,50,1965-12-04,1
M,Dmitriy Kolbeshkin,Дмитрий Колбешкин,88,,,,,,120,125,130,130,,,,,,,130,90,B,Raw,Yes,Teen 18-19,19,1996-10-16,2
M,Artem Makarovskiy,Артем Макаровский,89.7,,,,,,-110,115,-120,115,,,,,,,115,90,B,Raw,Yes,Juniors 20-23,20,1996-02-28,3
M,Dmitriy Filatov,Дмитрий Филатов,89.2,,,,,,160,165,-175,165,,,,,,,165,90,B,Raw,Yes,Open,27,1989-07-19,5
M,Leonid Churkin,Леонид Чуркин,89.3,,,,,,155,160,-167.5,160,,,,,,,160,90,B,Raw,Yes,Open,33,1982-11-23,8
M,Aleksey Sushchenko,Алексей Сущенко,88.7,,,,,,147.5,-152.5,-152.5,147.5,,,,,,,147.5,90,B,Raw,Yes,Open,35,1980-10-21,9
M,Roman Tarasov,Роман Тарасов,85.8,,,,,,125,132.5,-135,132.5,,,,,,,132.5,90,B,Raw,Yes,Open,29,1986-11-10,10
M,Dmitriy Kolbeshkin,Дмитрий Колбешкин,88,,,,,,120,125,130,130,,,,,,,130,90,B,Raw,Yes,Open,19,1996-10-16,11
M,Oleg Ivanov #4,Олег Иванов,87.7,,,,,,125,-132.5,-132.5,125,,,,,,,125,90,B,Raw,Yes,Open,32,1984-08-10,13
M,Artem Makarovskiy,Артем Макаровский,89.7,,,,,,-110,115,-120,115,,,,,,,115,90,B,Raw,Yes,Open,20,1996-02-28,14
M,Vladimir Sukhorukikh,Владимир Сухоруких,87,,,,,,120,125,132.5,132.5,,,,,,,132.5,90,B,Raw,Yes,Masters 40-44,41,1975-02-22,1
M,Aleksandr Kuznetsov #13,Александр Кузнецов,92.6,,,,,,160,165,170,170,,,,,,,170,100,B,Raw,Yes,Teen 18-19,19,1996-11-18,1
M,Dmitriy Glushchenko,Дмитрий Глущенко,99.4,,,,,,150,162.5,167.5,167.5,,,,,,,167.5,100,B,Raw,Yes,Teen 18-19,19,1997-06-13,2
M,Vitaliy Kvasov,Виталий Квасов,91.5,,,,,,130,140,-150,140,,,,,,,140,100,B,Raw,Yes,Juniors 20-23,23,1993-05-17,2
M,Dmitriy Glushchenko,Дмитрий Глущенко,99.4,,,,,,150,162.5,167.5,167.5,,,,,,,167.5,100,B,Raw,Yes,Open,19,1997-06-13,6
M,Aleksandr Khudoyan,Александр Худоян,98.5,,,,,,150,162.5,-170,162.5,,,,,,,162.5,100,B,Raw,Yes,Open,28,1987-11-28,8
M,Aleksandr Kolgin,Александр Колгин,100,,,,,,150,162.5,-170,162.5,,,,,,,162.5,100,B,Raw,Yes,Open,28,1988-06-30,9
M,Ilya Chuzhinov,Илья Чужинов,97.5,,,,,,155,-162.5,-162.5,155,,,,,,,155,100,B,Raw,Yes,Open,36,1980-03-25,10
M,Vyacheslav Mamakin,Вячеслав Мамакин,98,,,,,,-155,155,-157.5,155,,,,,,,155,100,B,Raw,Yes,Open,29,1987-03-04,11
M,Dmitriy Kuznetsov,Дмитрий Кузнецов,96.7,,,,,,140,150,-155,150,,,,,,,150,100,B,Raw,Yes,Open,30,1986-08-26,13
M,Vladimir Luksha,Владимир Лукша,99.9,,,,,,-155,-162.5,-162.5,,,,,,,,,100,B,Raw,Yes,Open,39,1977-08-14,DQ
M,Igor Litvintsev,Игорь Литвинцев,98.2,,,,,,152.5,-162.5,,152.5,,,,,,,152.5,100,B,Raw,Yes,Masters 45-49,46,1970-07-19,3
M,Vladislav Taranchenko,Владислав Таранченко,107.4,,,,,,150,160,167.5,167.5,,,,,,,167.5,110,B,Raw,Yes,Teen 18-19,18,1998-03-20,1
M,Sergey Kuznetsov,Сергей Кузнецов,105.2,,,,,,180,185,-190,185,,,,,,,185,110,B,Raw,Yes,Open,38,1978-03-18,4
M,Andrey Makarevich,Андрей Макаревич,105.3,,,,,,165,172.5,-182.5,172.5,,,,,,,172.5,110,B,Raw,Yes,Open,31,1984-12-13,6
M,Artem Kudinov,Артем Кудинов,108.1,,,,,,160,167.5,-170,167.5,,,,,,,167.5,110,B,Raw,Yes,Open,26,1990-09-27,7
M,Aleksey Fedosov,Алексей Федосов,104.3,,,,,,150,-160,-160,150,,,,,,,150,110,B,Raw,Yes,Open,31,1985-08-20,10
M,Vasiliy Zdorov,Василий Здоров,105.8,,,,,,147.5,-150,-150,147.5,,,,,,,147.5,110,B,Raw,Yes,Open,36,1980-06-17,11
M,Sergey Tyshkevich,Сергей Тышкевич,108.2,,,,,,,,,,,,,,,,,110,B,Raw,Yes,Open,29,1987-05-15,DQ
M,Andrey Lukyanov,Андрей Лукьянов,106.5,,,,,,150,160,-167.5,160,,,,,,,160,110,B,Raw,Yes,Masters 45-49,47,1969-01-29,2
M,Aleksandr Vasilchenko,Александр Васильченко,116.5,,,,,,175,185,190,190,,,,,,,190,125,B,Raw,Yes,Open,50,1966-08-19,1
M,Roman Bashirov,Роман Баширов,122.8,,,,,,182.5,187.5,-192.5,187.5,,,,,,,187.5,125,B,Raw,Yes,Open,28,1988-08-07,2
M,Andrey Tyukin,Андрей Тюкин,115.3,,,,,,-180,180,-185,180,,,,,,,180,125,B,Raw,Yes,Open,33,1983-03-23,3
M,Aleksandr Vasilchenko,Александр Васильченко,116.5,,,,,,175,185,190,190,,,,,,,190,125,B,Raw,Yes,Masters 50-54,50,1966-08-19,1
F,Eleonora Astanina,Элеонора Астанина,51.4,,,,,,-40,-40,-40,,,,,,,,,52,B,Raw,No,Open,25,1991-09-14,DQ
F,Elena Egorova,Елена Егорова,50,,,,,,42.5,,,42.5,,,,,,,42.5,52,B,Raw,No,Masters 40-44,42,1974-01-13,2
F,Olga Lazurenko,Ольга Лазуренко,58.2,,,,,,105,107.5,-110,107.5,,,,,,,107.5,60,B,Raw,No,Open,45,1971-09-05,1
F,Svetlana Rodionova,Светлана Родионова,59.9,,,,,,-57.5,-57.5,-62.5,,,,,,,,,60,B,Raw,No,Open,25,1991-05-05,DQ
F,Anastasiya Prosvetova,Анастасия Просветова,61.7,,,,,,75,,,75,,,,,,,75,67.5,B,Raw,No,Juniors 20-23,21,1995-05-07,2
F,Lyubov Maltseva,Любовь Мальцева,67.5,,,,,,100,107.5,-112.5,107.5,,,,,,,107.5,67.5,B,Raw,No,Open,40,1976-07-05,1
F,Anastasiya Prosvetova,Анастасия Просветова,61.7,,,,,,75,,,75,,,,,,,75,67.5,B,Raw,No,Open,21,1995-05-07,3
F,Lyubov Maltseva,Любовь Мальцева,67.5,,,,,,100,107.5,-112.5,107.5,,,,,,,107.5,67.5,B,Raw,No,Masters 40-44,40,1976-07-05,1
F,Galina Savina,Галина Савина,63.5,,,,,,60,,,60,,,,,,,60,67.5,B,Raw,No,Masters 40-44,41,1975-06-03,3
M,Dmitriy Zhukov,Дмитрий Жуков,33.8,,,,,,22.5,-25,25,25,,,,,,,25,52,B,Raw,No,Youth,8,2008-05-30,2
M,Roman Belousov,Роман Белоусов,55.3,,,,,,150,155,160,160,,,,,,,160,56,B,Raw,No,Open,24,1991-10-19,1
M,Sergey Lotkov,Сергей Лотков,63.3,,,,,,50,55,57.5,57.5,,,,,,,57.5,67.5,B,Raw,No,Teen 13-15,15,2001-07-21,2
M,Artem Nekhaev,Артем Нехаев,67,,,,,,150,155,157.5,157.5,,,,,,,157.5,67.5,B,Raw,No,Open,29,1987-05-13,1
M,Stas Umarov,Стас Умаров,74.3,,,,,,160,170,-177.5,170,,,,,,,170,75,B,Raw,No,Open,30,1986-09-12,1
M,Andrey Kalinin,Андрей Калинин,73,,,,,,145,155,160,160,,,,,,,160,75,B,Raw,No,Open,32,1984-03-06,2
M,Mikhail Galushkin,Михаил Галушкин,72.8,,,,,,-135,-135,-135,,,,,,,,,75,B,Raw,No,Open,30,1985-11-22,DQ
M,Igor Nekhaev,Игорь Нехаев,70.3,,,,,,112.5,117.5,-122.5,117.5,,,,,,,117.5,75,B,Raw,No,Masters 50-54,51,1965-04-03,1
M,Evgeniy Prokopenko,Евгений Прокопенко,77.7,,,,,,70,77.5,82.5,82.5,,,,,,,82.5,82.5,B,Raw,No,Teen 13-15,15,2001-08-05,1
M,Dmitriy Podorozhniy,Дмитрий Подорожний,78.7,,,,,,110,117.5,-127.5,117.5,,,,,,,117.5,82.5,B,Raw,No,Teen 16-17,16,1999-11-20,1
M,Vadim Loyko,Вадим Лойко,82.2,,,,,,145,,,145,,,,,,,145,82.5,B,Raw,No,Juniors 20-23,22,1994-04-16,2
M,Valeriy Ignatov,Валерий Игнатов,81.1,,,,,,115,125,135,135,,,,,,,135,82.5,B,Raw,No,Juniors 20-23,21,1995-01-02,3
M,Maksim Pytkin,Максим Пыткин,81.9,,,,,,182.5,-187.5,-187.5,182.5,,,,,,,182.5,82.5,B,Raw,No,Open,24,1992-03-30,1
M,Vladimir Loboda,Владимир Лобода,75.3,,,,,,135,140,142.5,142.5,,,,,,,142.5,82.5,B,Raw,No,Open,24,1992-02-13,4
M,Valeriy Ignatov,Валерий Игнатов,81.1,,,,,,115,125,135,135,,,,,,,135,82.5,B,Raw,No,Open,21,1995-01-02,5
M,Aleksandr Telegin,Александр Телегин,77.1,,,,,,125,130,135,135,,,,,,,135,82.5,B,Raw,No,Masters 55-59,58,1957-12-08,1
M,Vitaliy Korobkov,Виталий Коробков,86.8,,,,,,155,165,170,170,,,,,,,170,90,B,Raw,No,Teen 18-19,19,1997-05-29,1
M,Dmitriy Kolbeshkin,Дмитрий Колбешкин,88,,,,,,130,,,130,,,,,,,130,90,B,Raw,No,Teen 18-19,19,1996-10-16,3
M,Kotlyarov Artem,Котляров Артем,89.6,,,,,,-165,165,,165,,,,,,,165,90,B,Raw,No,Juniors 20-23,21,1994-11-16,1
M,Artem Kotlyarov,Артем Котляров,89.8,,,,,,-165,165,-170,165,,,,,,,165,90,B,Raw,No,Juniors 20-23,21,1994-11-16,2
M,Denis Prokofev,Денис Прокофьев,89,,,,,,192.5,202.5,,202.5,,,,,,,202.5,90,B,Raw,No,Open,31,1985-04-16,1
M,Khasyl Dadakhanov,Хасыл Дадаханов,90,,,,,,180,-190,-190,180,,,,,,,180,90,B,Raw,No,Open,28,1988-02-14,2
M,Denis Kondusov,Денис Кондусов,88.1,,,,,,160,-170,175,175,,,,,,,175,90,B,Raw,No,Open,28,1988-09-02,3
M,Ruslan Kasumov,Руслан Касумов,88.9,,,,,,160,-172.5,172.5,172.5,,,,,,,172.5,90,B,Raw,No,Open,24,1992-02-24,4
M,Kotlyarov Artem,Котляров Артем,89.6,,,,,,-165,165,,165,,,,,,,165,90,B,Raw,No,Open,21,1994-11-16,6
M,Evgeniy Parshin,Евгений Паршин,89.1,,,,,,160,-170,-170,160,,,,,,,160,90,B,Raw,No,Open,39,1976-11-25,7
M,Dmitriy Kolbeshkin,Дмитрий Колбешкин,88,,,,,,130,,,130,,,,,,,130,90,B,Raw,No,Open,19,1996-10-16,12
M,Aleksandr Kuznetsov #13,Александр Кузнецов,92.6,,,,,,-162.5,,,,,,,,,,,100,B,Raw,No,Teen 18-19,19,1996-11-18,DQ
M,Evgeniy Milovanov,Евгений Милованов,97.1,,,,,,180,187.5,192.5,192.5,,,,,,,192.5,100,B,Raw,No,Juniors 20-23,23,1993-06-03,1
M,Aleksandr Cherednichenko,Александр Чередниченко,99.6,,,,,,200,-205,-205,200,,,,,,,200,100,B,Raw,No,Open,41,1975-09-18,1
M,Maksim Sasanov,Максим Сасанов,96.6,,,,,,180,190,197.5,197.5,,,,,,,197.5,100,B,Raw,No,Open,25,1991-05-19,2
M,Valeriy Volkov,Валерий Волков,99,,,,,,185,192.5,-197.5,192.5,,,,,,,192.5,100,B,Raw,No,Open,48,1968-04-02,3
M,Mikhail Grebennikov,Михаил Гребенников,95.5,,,,,,190,-200,-200,190,,,,,,,190,100,B,Raw,No,Open,32,1984-05-31,4
M,Oleg Korovyakov,Олег Коровяков,97.8,,,,,,170,-177.7,,170,,,,,,,170,100,B,Raw,No,Open,33,1983-10-07,5
M,Dmitriy Polikarpov,Дмитрий Поликарпов,99.3,,,,,,165,-175,-175,165,,,,,,,165,100,B,Raw,No,Open,37,1979-08-01,7
M,Vladimir Luksha,Владимир Лукша,99.9,,,,,,155,,,155,,,,,,,155,100,B,Raw,No,Open,39,1977-08-14,12
M,Aleksandr Cherednichenko,Александр Чередниченко,99.6,,,,,,200,-205,-205,200,,,,,,,200,100,B,Raw,No,Masters 40-44,41,1975-09-18,1
M,Valeriy Volkov,Валерий Волков,99,,,,,,185,192.5,-197.5,192.5,,,,,,,192.5,100,B,Raw,No,Masters 45-49,48,1968-04-02,1
M,Konstantin Krivoruchenko,Константин Криворученко,98.4,,,,,,170,,,170,,,,,,,170,100,B,Raw,No,Masters 45-49,46,1969-10-17,2
M,Denis Bugakov,Денис Бугаков,109.2,,,,,,-210,-210,210,210,,,,,,,210,110,B,Raw,No,Open,29,1987-07-23,1
M,Ruslan Kachanov,Руслан Качанов,104.6,,,,,,180,190,200,200,,,,,,,200,110,B,Raw,No,Open,45,1970-10-19,2
M,Aleksandr Zhukov,Александр Жуков,101.8,,,,,,185,-192.5,-195,185,,,,,,,185,110,B,Raw,No,Open,33,1983-03-13,3
M,Evgeniy Lapunov,Евгений Лапунов,101.9,,,,,,170,180,-185,180,,,,,,,180,110,B,Raw,No,Open,43,1973-10-13,5
M,Andrey Zolotarenok,Андрей Золотаренок,106.4,,,,,,160,,,160,,,,,,,160,110,B,Raw,No,Open,37,1978-11-23,8
M,Sergey Tyshkevich,Сергей Тышкевич,109.2,,,,,,160,-167.5,-167.5,160,,,,,,,160,110,B,Raw,No,Open,29,1987-05-15,9
M,Ruslan Kachanov,Руслан Качанов,104.6,,,,,,180,190,200,200,,,,,,,200,110,B,Raw,No,Masters 45-49,45,1970-10-19,1
M,Andrey Lukyanov,Андрей Лукьянов,106.5,,,,,,160,,,160,,,,,,,160,110,B,Raw,No,Masters 45-49,47,1969-01-29,3
M,Boris Grobovoy,Борис Гробовой,105.5,,,,,,120,125,130,130,,,,,,,130,110,B,Raw,No,Masters 60-64,60,1956-01-23,1
M,Andrey Tyukin,Андрей Тюкин,115.3,,,,,,180,,,180,,,,,,,180,125,B,Raw,No,Open,33,1983-03-23,4
M,Andrey Goncharov,Андрей Гончаров,112.8,,,,,,170,-180,-185,170,,,,,,,170,125,B,Raw,No,Open,27,1988-12-06,5
M,Denis Sinyugin,Денис Синюгин,130.9,,,,,,190,-202.5,202.5,202.5,,,,,,,202.5,140,B,Raw,No,Open,33,1982-11-22,1
M,Igor Dmitriev,Игорь Дмитриев,136.6,,,,,,200,210,-215,210,,,,,,,210,140,B,Raw,No,Masters 40-44,42,1973-11-18,1
M,Ilya Chuzhinov,Илья Чужинов,97.5,,,,,,190,,,190,,,,,,,190,100,B,Single-ply,Yes,Open,36,1980-03-25,1
M,Vadim Loyko,Вадим Лойко,82.2,,,,,,,,,,,265,,,265,,265,82.5,D,Multi-ply,Yes,Juniors 20-23,22,1994-04-16,1
M,Vadim Loyko,Вадим Лойко,82.2,,,,,,,,,,,265,,,265,,265,82.5,D,Multi-ply,Yes,Open,22,1994-04-16,1
M,Ilya Morozov,Илья Морозов,72.1,,,,,,,,,,,130,150,-180,150,,150,75,D,Multi-ply,No,Juniors 20-23,23,1993-09-04,1
M,Ilya Morozov,Илья Морозов,72.1,,,,,,,,,,,130,150,-180,150,,150,75,D,Multi-ply,No,Open,23,1993-09-04,1
M,Vadim Loyko,Вадим Лойко,82.2,,,,,,,,,,,265,,,265,,265,82.5,D,Multi-ply,No,Juniors 20-23,22,1994-04-16,2
M,Vadim Loyko,Вадим Лойко,82.2,,,,,,,,,,,265,,,265,,265,82.5,D,Multi-ply,No,Open,22,1994-04-16,2
M,Vadim Kasparov,Вадим Каспаров,137.1,,,,,,,,,,,340,-377.5,-377.5,340,,340,140,D,Multi-ply,No,Teen 18-19,19,1996-10-28,1
F,Nataliya Piseeva,Наталия Писеева,46,,,,,,,,,,,50,52.5,-55,52.5,,52.5,48,D,Raw,Yes,Juniors 20-23,22,1994-05-07,1
F,Olga Dunaytseva,Ольга Дунайцева,55.4,,,,,,,,,,,-105,105,-117.5,105,,105,56,D,Raw,Yes,Open,30,1986-02-11,1
F,Mariya Krivoruchenko,Мария Криворученко,59.1,,,,,,,,,,,80,,,80,,80,60,D,Raw,Yes,Teen 18-19,19,1997-05-01,1
F,Sofya Lankina,Софья Ланкина,59.6,,,,,,,,,,,105,-115,-115,105,,105,60,D,Raw,Yes,Open,31,1985-03-06,1
F,Darya Timofeeva,Дарья Тимофеева,65,,,,,,,,,,,120,130,142.5,142.5,,142.5,67.5,D,Raw,Yes,Open,24,1991-12-28,1
F,Ekaterina Sheveleva,Екатерина Шевелева,64.7,,,,,,,,,,,130,140,-145,140,,140,67.5,D,Raw,Yes,Open,28,1988-09-05,2
F,Irina Pavlova,Ирина Павлова,67.2,,,,,,,,,,,125,130,-140,130,,130,67.5,D,Raw,Yes,Open,36,1980-07-20,3
F,Tatyana Beglova,Татьяна Беглова,62.8,,,,,,,,,,,70,80,85,85,,85,67.5,D,Raw,Yes,Masters 50-54,51,1965-04-28,1
F,Evgeniya Shvartskopf,Евгения Шварцкопф,71.2,,,,,,,,,,,80,85,92.5,92.5,,92.5,75,D,Raw,Yes,Open,25,1991-03-15,1
F,Svetlana Buryan,Светлана Бурьян,80.2,,,,,,,,,,,120,130,135,135,,135,82.5,D,Raw,Yes,Open,45,1970-12-21,1
F,Svetlana Buryan,Светлана Бурьян,80.2,,,,,,,,,,,120,130,135,135,,135,82.5,D,Raw,Yes,Masters 45-49,45,1970-12-21,1
M,Suren Mkrtumyan,Сурен Мкртумян,66,,,,,,,,,,,182.5,197.5,-202.5,197.5,,197.5,67.5,D,Raw,Yes,Open,27,1989-01-15,1
M,Vitaliy Goltsov,Виталий Гольцов,66.7,,,,,,,,,,,170,-180,-180,170,,170,67.5,D,Raw,Yes,Open,31,1985-09-09,2
M,Yuriy Beglov,Юрий Беглов,74.5,,,,,,,,,,,160,-170,-170,160,,160,75,D,Raw,Yes,Open,51,1965-05-06,1
M,Yuriy Beglov,Юрий Беглов,74.5,,,,,,,,,,,160,-170,-170,160,,160,75,D,Raw,Yes,Masters 50-54,51,1965-05-06,1
M,Vadim Loyko,Вадим Лойко,82.2,,,,,,,,,,,270,,,270,,270,82.5,D,Raw,Yes,Juniors 20-23,22,1994-04-16,1
M,Vladislav Kuzmishchev,Владислав Кузьміщев,82,,,,,,,,,,,260,272.5,285,285,-300.5,285,82.5,D,Raw,Yes,Open,32,1983-10-18,1
M,Vadim Loyko,Вадим Лойко,82.2,,,,,,,,,,,270,,,270,,270,82.5,D,Raw,Yes,Open,22,1994-04-16,2
M,Sergey Doronin,Сергей Доронин,77.5,,,,,,,,,,,-170,-190,-190,,,,82.5,D,Raw,Yes,Open,33,1983-07-07,DQ
M,Oleg Kretinin,Олег Кретинин,88.2,,,,,,,,,,,200,-230,230,230,,230,90,D,Raw,Yes,Juniors 20-23,22,1994-05-30,1
M,Nikita Posadnev,Никита Посаднев,99.6,,,,,,,,,,,190,-220,230,230,,230,100,D,Raw,Yes,Teen 18-19,19,1997-04-06,1
M,Evgeniy Kulakov,Евгений Кулаков,95,,,,,,,,,,,210,,,210,,210,100,D,Raw,Yes,Open,29,1987-03-24,2
M,Maksim Khutornoy,Максим Хуторной,93.2,,,,,,,,,,,-150,150,165,165,,165,100,D,Raw,Yes,Open,33,1983-04-02,4
M,Dmitriy Efimenko,Дмитрий Ефименко,106.9,,,,,,,,,,,247.5,,,247.5,,247.5,110,D,Raw,Yes,Open,25,1990-12-11,2
M,Vadim Loyko,Вадим Лойко,82.2,,,,,,,,,,,250,-265,-270,250,,250,82.5,D,Raw,No,Juniors 20-23,22,1994-04-16,2
M,Vadim Loyko,Вадим Лойко,82.2,,,,,,,,,,,250,-265,-270,250,,250,82.5,D,Raw,No,Open,22,1994-04-16,3
M,Sergey Kiselev,Сергей Киселев,88.9,,,,,,,,,,,280,,,280,,280,90,D,Raw,No,Open,29,1987-02-24,1
M,Grigoriy Provotorov,Григорий Провоторов,88.9,,,,,,,,,,,220,230,-240,230,,230,90,D,Raw,No,Open,36,1980-07-26,2
M,Sergey Shevchenko,Сергей Шевченко,87.6,,,,,,,,,,,160,170,,170,,170,90,D,Raw,No,Masters 40-44,42,1974-04-30,1
M,Evgeniy Gostev,Евгений Гостев,97.6,,,,,,,,,,,200,210,-230,210,,210,100,D,Raw,No,Juniors 20-23,23,1993-09-14,1
M,Aleksandr Kozhukhov,Александр Кожухов,98.5,,,,,,,,,,,250,-272.5,-272.5,250,,250,100,D,Raw,No,Open,29,1987-07-13,1
M,Ivan Efremov,Иван Ефремов,97.7,,,,,,,,,,,200,210,-230,210,,210,100,D,Raw,No,Open,26,1989-12-27,3
M,Konstantin Krivoruchenko,Константин Криворученко,98.4,,,,,,,,,,,210,,,210,,210,100,D,Raw,No,Masters 45-49,46,1969-10-17,1
M,Sergey Inozemtsev,Сергей Иноземцев,108.7,,,,,,,,,,,322.5,-335,,322.5,,322.5,110,D,Raw,No,Open,25,1991-01-06,1
M,Andrey Zolotarenok,Андрей Золотаренок,106.4,,,,,,,,,,,230,,,230,,230,110,D,Raw,No,Open,37,1978-11-23,3
