Division,WeightClassKg,Place,Name,Team,BodyweightKg,Best3SquatKg,Best3BenchKg,Best3DeadliftKg,TotalKg,Equipment,Event,Sex
Boys,51.71,1,Nathan Upshaw,Rusk,48.08,117.93,56.7,108.86,283.5,Single-ply,SBD,M
Boys,51.71,2,Cye Wilson,Huntington,51.71,104.33,54.43,113.4,272.16,Single-ply,SBD,M
Boys,55.79,3,Trevor Lewing,Livingston,51.89,95.25,49.9,95.25,240.4,Single-ply,SBD,M
Boys,55.79,1,Melvin Suell,Center,55.61,138.35,79.38,158.76,376.48,Single-ply,SBD,M
Boys,55.79,2,Will Cross,Huntington,53.07,127.01,61.23,129.27,317.51,Single-ply,SBD,M
Boys,55.79,3,Raive Sheppard,Diboll,55.47,108.86,68.04,124.74,301.64,Single-ply,SBD,M
Boys,55.79,4,Bj Wafer,Huntington,54.61,90.72,70.31,127.01,288.03,Single-ply,SBD,M
Boys,59.87,1,Victor Lara-Cortez,Corrigan-Camden,59.33,142.88,77.11,147.42,367.41,Single-ply,SBD,M
Boys,59.87,2,Dylan Thompson,Rusk,58.6,142.88,70.31,113.4,326.59,Single-ply,SBD,M
Boys,59.87,3,Josh Mathis,Diboll,57.88,99.79,61.23,136.08,297.1,Single-ply,SBD,M
Boys,67.13,1,Emmanuel Thomas,Lufkin,67.13,181.44,111.13,197.31,489.88,Single-ply,SBD,M
Boys,67.13,2,Justin Lovett,Center,67.13,163.29,120.2,190.51,474,Single-ply,SBD,M
Boys,67.13,3,Jetarvis Jackson,Center,66.68,154.22,122.47,172.37,449.06,Single-ply,SBD,M
Boys,74.84,4,KeKe Flanigan,San Augustine,67.31,181.44,72.57,195.04,449.06,Single-ply,SBD,M
Boys,67.13,5,Chaston Bennett,Rusk,65.5,174.63,88.45,174.63,437.72,Single-ply,SBD,M
Boys,67.13,6,Trey Sudds,Center,67.13,145.15,111.13,161.03,417.3,Single-ply,SBD,M
Boys,67.13,7,Cain Kimberlin,Livingston,64.5,145.15,90.72,149.69,385.55,Single-ply,SBD,M
Boys,67.13,8,Doug Waters,Diboll,63.96,147.42,83.91,151.95,383.29,Single-ply,SBD,M
Boys,67.13,9,Jay Harris,Huntington,64.32,129.27,95.25,136.08,360.61,Single-ply,SBD,M
Boys,67.13,10,Cielance Bailey,Diboll,64.59,122.47,68.04,145.15,335.66,Single-ply,SBD,M
Boys,67.13,11,Jason Williams,Huntington,64.32,86.18,61.23,142.88,290.3,Single-ply,SBD,M
Boys,67.13,12,Lane Williams,Huntington,66.95,83.91,68.04,131.54,283.5,Single-ply,SBD,M
Boys,82.1,1,Austin Goulette,Rusk,74.93,199.58,122.47,199.58,521.63,Single-ply,SBD,M
Boys,74.84,2,TyAundra Taylor,San Augustine,68.49,181.44,88.45,195.04,464.93,Single-ply,SBD,M
Boys,74.84,3,Kj Garrett,Center,74.21,163.29,102.06,199.58,464.93,Single-ply,SBD,M
Boys,74.84,4,Kirby Nielsen,Livingston,71.94,195.04,111.13,156.49,462.66,Single-ply,SBD,M
Boys,74.84,5,Bubba Cook,Diboll,71.03,163.29,90.72,163.29,417.3,Single-ply,SBD,M
Boys,74.84,6,Josh Packard,Huntington,74.21,149.69,83.91,156.49,390.09,Single-ply,SBD,M
Boys,74.84,7,Easton McClain,Livingston,70.85,149.69,81.65,151.95,383.29,Single-ply,SBD,M
Boys,74.84,8,Garrett Stanley,Center,71.85,140.61,70.31,165.56,376.48,Single-ply,SBD,M
Boys,74.84,9,Dillion Kelley,Lufkin,71.67,129.27,79.38,165.56,374.21,Single-ply,SBD,M
Boys,74.84,10,Jacob Charanza,Lufkin,74.84,147.42,72.57,142.88,362.87,Single-ply,SBD,M
Boys,74.84,11,Moises Araujo,Center,72.26,122.47,79.38,154.22,356.07,Single-ply,SBD,M
Boys,74.84,12,Luke Martin,Huntington,68.49,104.33,63.5,122.47,290.3,Single-ply,SBD,M
Boys,74.84,13,Westley Potter,Livingston,71.12,183.7,,,183.7,Single-ply,S,M
Boys,74.84,14,Chris Fredergill,Huntington,72.67,117.93,,,117.93,Single-ply,S,M
Boys,82.1,1,Blayne Elster,Livingston,82.1,226.8,108.86,217.72,553.38,Single-ply,SBD,M
Boys,89.81,2,Zach Mason,Joaquin,82.28,192.78,97.52,192.78,483.08,Single-ply,SBD,M
Boys,82.1,3,David Overstreet,Rusk,80.1,172.37,77.11,231.33,480.81,Single-ply,SBD,M
Boys,82.1,4,Chase Emerson,Rusk,76.93,201.85,104.33,165.56,471.74,Single-ply,SBD,M
Boys,82.1,5,Victor Villareal,Corrigan-Camden,80.83,192.78,102.06,151.95,446.79,Single-ply,SBD,M
Boys,82.1,6,Kiaunis Williams,Center,80.1,170.1,88.45,185.97,444.52,Single-ply,SBD,M
Boys,82.1,7,Lavendric Hood,Lufkin,80.74,170.1,72.57,181.44,424.11,Single-ply,SBD,M
Boys,82.1,8,Hunter Mettlen,Huntington,79.83,140.61,92.99,167.83,401.43,Single-ply,SBD,M
Boys,82.1,9,Hail Kendrick,Lufkin,81.65,113.4,63.5,181.44,358.34,Single-ply,SBD,M
Boys,82.1,10,Ray Rosales,Rusk,77.38,190.51,,,190.51,Single-ply,S,M
Boys,89.81,1,Khadafy Davis,San Augustine,89.27,215.46,108.86,235.87,560.19,Single-ply,SBD,M
Boys,89.81,2,Ryan McClain,Livingston,88.54,204.12,131.54,222.26,557.92,Single-ply,SBD,M
Boys,99.79,3,Tyler McSwain,Joaquin,89.99,188.24,124.74,208.65,521.63,Single-ply,SBD,M
Boys,89.81,4,Nathan Sears,Center,82.92,195.04,124.74,199.58,519.36,Single-ply,SBD,M
Boys,89.81,5,Haden Armstrong,Corrigan-Camden,84.73,188.24,115.67,208.65,512.56,Single-ply,SBD,M
Boys,89.81,6,Caesar Felipe,Corrigan-Camden,88.27,176.9,86.18,188.24,451.32,Single-ply,SBD,M
Boys,89.81,7,Demontre Lewis,Lufkin,89.36,161.03,86.18,197.31,444.52,Single-ply,SBD,M
Boys,89.81,8,Quin Sawyer,Diboll,87.36,154.22,99.79,174.63,428.64,Single-ply,SBD,M
Boys,89.81,9,James Ruiz,Rusk,84.01,133.81,90.72,192.78,417.3,Single-ply,SBD,M
Boys,89.81,10,Josh Ruiz,Rusk,84.28,124.74,61.23,131.54,317.51,Single-ply,SBD,M
Boys,89.81,11,Mason Chamblee,Corrigan-Camden,84.82,117.93,52.16,120.2,290.3,Single-ply,SBD,M
Boys,99.79,1,Kevinski Pitts,Center,95.44,265.35,145.15,263.08,673.58,Single-ply,SBD,M
Boys,99.79,2,Aaron Liker,Center,99.02,233.6,140.61,219.99,594.21,Single-ply,SBD,M
Boys,99.79,3,Devante Mays,Livingston,94.44,229.06,145.15,217.72,591.94,Single-ply,SBD,M
Boys,99.79,4,Austin Galloway,Livingston,99.7,208.65,136.08,199.58,544.31,Single-ply,SBD,M
Boys,99.79,5,Robert Harrison,San Augustine,91.72,204.12,90.72,213.19,508.02,Single-ply,SBD,M
Boys,99.79,6,Carlos Inguanzo,Corrigan-Camden,97.61,188.24,102.06,192.78,483.08,Single-ply,SBD,M
Boys,99.79,7,Alex Moreno,San Augustine,92.26,181.44,115.67,163.29,460.4,Single-ply,SBD,M
Boys,99.79,8,Will Capps,Huntington,99.06,181.44,102.06,172.37,455.86,Single-ply,SBD,M
Boys,99.79,9,Eduardo Miranda,Diboll,91.72,165.56,117.93,167.83,451.32,Single-ply,SBD,M
Boys,99.79,10,Octavian Arrington,Rusk,91.35,158.76,88.45,179.17,426.38,Single-ply,SBD,M
Boys,99.79,11,Cummings Holden,Joaquin,96.34,151.95,95.25,161.03,408.23,Single-ply,SBD,M
Boys,99.79,12,Carl Matthews,Lufkin,98.88,158.76,97.52,138.35,394.63,Single-ply,SBD,M
Boys,99.79,13,Mike Venegas,Lufkin,95.71,122.47,81.65,154.22,358.34,Single-ply,SBD,M
Boys,99.79,14,Wacy Hartman,Lufkin,99.79,136.08,83.91,129.27,349.27,Single-ply,SBD,M
Boys,109.77,1,Mark Armstrong,Corrigan-Camden,102.15,281.23,165.56,260.82,707.6,Single-ply,SBD,M
Boys,109.77,2,Emilio Ruiz,Corrigan-Camden,100.61,222.26,129.27,231.33,582.87,Single-ply,SBD,M
Boys,109.77,3,Monty Williams,Diboll,105.23,235.87,122.47,197.31,555.65,Single-ply,SBD,M
Boys,109.77,4,Devron Hadnot,Diboll,109.13,226.8,124.74,199.58,551.11,Single-ply,SBD,M
Boys,109.77,5,BriDarin Dodd,Center,108.41,206.38,122.47,217.72,546.58,Single-ply,SBD,M
Boys,109.77,6,Jevaris Rankin,Center,104.05,213.19,115.67,206.38,535.24,Single-ply,SBD,M
Boys,109.77,7,Daniel Duran,Rusk,104.24,217.72,136.08,181.44,535.24,Single-ply,SBD,M
Boys,109.77,8,Devontae Burrell,Corrigan-Camden,107.14,201.85,102.06,210.92,514.83,Single-ply,SBD,M
Boys,109.77,9,Jacob Slaughter,Huntington,109.68,190.51,99.79,190.51,480.81,Single-ply,SBD,M
Boys,109.77,10,Coy Brown,Corrigan-Camden,106.96,197.31,104.33,172.37,474,Single-ply,SBD,M
Boys,109.77,11,Golden Rhett,Joaquin,109.59,199.58,95.25,142.88,437.72,Single-ply,SBD,M
Boys,109.77,12,Lawton Trekell,Lufkin,100.24,147.42,79.38,149.69,376.48,Single-ply,SBD,M
Boys,109.77,DQ,Cyrus Martin,Diboll,109.41,,,,,Single-ply,SBD,M
Boys,124.74,1,Dj Cratic,Corrigan-Camden,124.1,265.35,151.95,229.06,646.37,Single-ply,SBD,M
Boys,124.74,2,Austin Underbrink,Joaquin,124.74,204.12,136.08,197.31,537.51,Single-ply,SBD,M
Boys,124.74,3,John Serrato,Diboll,115.67,199.58,106.59,185.97,492.15,Single-ply,SBD,M
Boys,124.74,4,Reggie Jackson,Lufkin,111.13,165.56,108.86,181.44,455.86,Single-ply,SBD,M
Boys,124.74,5,Brandon White #2,Diboll,116.39,167.83,113.4,172.37,453.59,Single-ply,SBD,M
Boys,124.74,6,D'Vante Botley,Lufkin,111.13,161.03,81.65,158.76,401.43,Single-ply,SBD,M
Boys,124.74,7,Jake Davis,San Augustine,121.83,163.29,,,163.29,Single-ply,S,M
Boys,124.74+,1,Edwin Hurtado,Diboll,129.27,208.65,120.2,197.31,526.17,Single-ply,SBD,M
Boys,124.74+,2,Colton Placker,Livingston,133.99,190.51,129.27,206.38,526.17,Single-ply,SBD,M
Boys,124.74+,3,Dj Parks,San Augustine,128.19,215.46,122.47,185.97,523.9,Single-ply,SBD,M
Boys,124.74+,4,Abel Gonzalez,Livingston,142.43,208.65,108.86,183.7,501.22,Single-ply,SBD,M
Boys,124.74+,5,Seth Johnson #4,Diboll,148.32,192.78,115.67,172.37,480.81,Single-ply,SBD,M
Boys,,NS,Robert Sparks,Corrigan-Camden,,,,,,Single-ply,SBD,M
Boys,,NS,Brian Ruiz,Center,,,,,,Single-ply,SBD,M
Boys,,NS,Fidell Perez,Joaquin,,,,,,Single-ply,SBD,M
Boys,,NS,Andrew Dean,Joaquin,,,,,,Single-ply,SBD,M
Boys,,NS,Cody Causey,Joaquin,,,,,,Single-ply,SBD,M
