Division,WeightClassKg,Place,Name,Team,BodyweightKg,Best3SquatKg,Best3BenchKg,Best3DeadliftKg,TotalKg,Equipment,Event,Sex
Boys,51.71,1,Rj Hinojosa,Banquete,51.71,129.27,70.31,129.27,328.85,Single-ply,SBD,M
Boys,51.71,2,Max Obregon,Dilley,49.53,122.47,63.5,127.01,312.98,Single-ply,SBD,M
Boys,51.71,3,Jeremiah Jimenez,Lytle,48.63,113.4,63.5,129.27,306.17,Single-ply,SBD,M
Boys,55.79,4,Sid Alcoser,Somerset,51.8,122.47,49.9,124.74,297.1,Single-ply,SBD,M
Boys,51.71,5,Paul Arocha,Devine,51.44,90.72,63.5,122.47,276.69,Single-ply,SBD,M
Boys,51.71,6,Jesus Gomez,Somerset,51.26,83.91,65.77,106.59,256.28,Single-ply,SBD,M
Boys,55.79,1,Ronald Sanchez,Poteet,55.79,170.1,83.91,165.56,419.57,Single-ply,SBD,M
Boys,55.79,2,John Guillen,Lytle,55.34,154.22,99.79,156.49,410.5,Single-ply,SBD,M
Boys,55.79,3,Josh Lomas,Crystal City,55.7,145.15,92.99,161.03,399.16,Single-ply,SBD,M
Boys,55.79,4,Jonathan Starks,Banquete,52.34,131.54,79.38,145.15,356.07,Single-ply,SBD,M
Boys,55.79,5,Sawyer Yandell,Devine,54.43,154.22,65.77,131.54,351.53,Single-ply,SBD,M
Boys,55.79,6,Christian Obregon,Dilley,52.62,131.54,81.65,131.54,344.73,Single-ply,SBD,M
Boys,55.79,7,Felix Gutierrez,Crystal City,55.25,124.74,77.11,133.81,335.66,Single-ply,SBD,M
Boys,55.79,8,Ricky Guerra,Poteet,52.98,117.93,83.91,129.27,331.12,Single-ply,SBD,M
Boys,55.79,9,Hector Gonzalez,Comfort,55.34,106.59,63.5,117.93,288.03,Single-ply,SBD,M
Boys,55.79,10,John Dominguez,Somerset,53.25,102.06,56.7,122.47,281.23,Single-ply,SBD,M
Boys,55.79,11,Robert Kight,Poteet,55.79,99.79,56.7,120.2,276.69,Single-ply,SBD,M
Boys,55.79,12,Xavier Huerta,Lytle,52.62,81.65,52.16,104.33,238.14,Single-ply,SBD,M
Boys,55.79,DQ,Andres Chapa,Freer,54.98,,,,,Single-ply,SBD,M
Boys,59.87,1,Caleb Gale,Somerset,59.15,176.9,90.72,197.31,464.93,Single-ply,SBD,M
Boys,59.87,2,Leonard Garza,Poteet,59.87,176.9,106.59,165.56,449.06,Single-ply,SBD,M
Boys,59.87,3,Darion McMahan,Stockdale,59.87,181.44,102.06,161.03,444.52,Single-ply,SBD,M
Boys,59.87,4,Elvis Benitez,San Antonio East Central,57.97,145.15,102.06,149.69,396.89,Single-ply,SBD,M
Boys,59.87,5,Ricky Benavidez,Banquete,58.33,151.95,90.72,147.42,390.09,Single-ply,SBD,M
Boys,59.87,6,Steven Garza,Crystal City,58.69,142.88,79.38,145.15,367.41,Single-ply,SBD,M
Boys,59.87,7,Michael Davis #1,San Antonio East Central,59.06,140.61,74.84,151.95,367.41,Single-ply,SBD,M
Boys,59.87,8,Juan Guerroero,Lytle,57.29,136.08,79.38,140.61,356.07,Single-ply,SBD,M
Boys,59.87,9,Prendi Garcia,Dilley,58.51,136.08,79.38,131.54,347,Single-ply,SBD,M
Boys,59.87,10,Macario Hernandez,Pleasanton,58.88,120.2,81.65,142.88,344.73,Single-ply,SBD,M
Boys,59.87,11,Luis Flores,Poteet,59.87,127.01,70.31,145.15,342.46,Single-ply,SBD,M
Boys,59.87,12,Alan Espinoza,Dilley,58.88,102.06,68.04,131.54,301.64,Single-ply,SBD,M
Boys,59.87,13,Mark Salinas,Castroville Medina Valley,57.06,115.67,56.7,127.01,299.37,Single-ply,SBD,M
Boys,59.87,14,Oscar de Leon,Somerset,56.43,90.72,61.23,138.35,290.3,Single-ply,SBD,M
Boys,59.87,15,Demetri Molina,Somerset,58.88,102.06,61.23,127.01,290.3,Single-ply,SBD,M
Boys,59.87,16,Roman Kujawski,Freer,56.06,81.65,58.97,120.2,260.82,Single-ply,SBD,M
Boys,59.87,17,Arnold Bednorz,Freer,59.33,61.23,65.77,131.54,258.55,Single-ply,SBD,M
Boys,59.87,18,Francisco Martinez,Poteet,59.87,83.91,63.5,102.06,249.48,Single-ply,SBD,M
Boys,59.87,DQ,Zach Morgan,San Antonio East Central,58.24,120.2,,,,Single-ply,SBD,M
Boys,67.13,1,Robert Carrasco,Pleasanton,65.41,213.19,95.25,215.46,523.9,Single-ply,SBD,M
Boys,74.84,2,Ozzy Varela,Somerset,67.22,197.31,113.4,195.04,505.76,Single-ply,SBD,M
Boys,67.13,3,Marty Garza,Jourdanton,65.77,192.78,127.01,183.7,503.49,Single-ply,SBD,M
Boys,67.13,4,Matt Valdez,Stockdale,65.41,161.03,88.45,172.37,421.84,Single-ply,SBD,M
Boys,67.13,5,Arnold Bueno,Banquete,60.6,154.22,97.52,149.69,401.43,Single-ply,SBD,M
Boys,67.13,6,Jacob Rodriguez #10,Crystal City,63.68,151.95,77.11,163.29,392.36,Single-ply,SBD,M
Boys,67.13,7,Chris Kelly,San Antonio East Central,66.77,140.61,104.33,145.15,390.09,Single-ply,SBD,M
Boys,67.13,8,Ozzy Gonzalez,Somerset,63.78,136.08,72.57,163.29,371.95,Single-ply,SBD,M
Boys,67.13,9,Jose Guajardo,Freer,66.68,142.88,68.04,158.76,369.68,Single-ply,SBD,M
Boys,67.13,10,Trevor Horrath,Castroville Medina Valley,61.96,133.81,90.72,136.08,360.61,Single-ply,SBD,M
Boys,67.13,11,Nicholas Adame,Freer,66.04,145.15,65.77,147.42,358.34,Single-ply,SBD,M
Boys,67.13,12,Miguel Cano,Pleasanton,65.77,136.08,77.11,142.88,356.07,Single-ply,SBD,M
Boys,67.13,13,Mason Undner,Comfort,66.86,136.08,97.52,122.47,356.07,Single-ply,SBD,M
Boys,67.13,14,Taylor Carrilo,Lytle,65.68,120.2,81.65,149.69,351.53,Single-ply,SBD,M
Boys,67.13,15,Joseph Rios,San Antonio Kennedy,63.87,122.47,86.18,133.81,342.46,Single-ply,SBD,M
Boys,67.13,16,Alfredo Ramon,Uvalde,64.77,102.06,90.72,136.08,328.85,Single-ply,SBD,M
Boys,67.13,17,Joshua Ramos,Somerset,66.13,122.47,52.16,147.42,322.05,Single-ply,SBD,M
Boys,67.13,18,Joe Bustos,San Antonio East Central,64.41,111.13,72.57,113.4,297.1,Single-ply,SBD,M
Boys,67.13,19,Johnny Salazar,Somerset,63.41,95.25,77.11,122.47,294.84,Single-ply,SBD,M
Boys,67.13,20,Angel Gonzales,Uvalde,60.78,102.06,65.77,124.74,292.57,Single-ply,SBD,M
Boys,67.13,21,Jacob Rivera,Uvalde,61.6,102.06,65.77,124.74,292.57,Single-ply,SBD,M
Boys,67.13,22,Chris Taylor #9,Comfort,65.77,97.52,58.97,106.59,263.08,Single-ply,SBD,M
Boys,67.13,23,Daniel Mendiola,Somerset,65.05,68.04,49.9,90.72,208.65,Single-ply,SBD,M
Boys,67.13,DQ,Jay Trevino,Banquete,66.86,163.29,,,,Single-ply,SBD,M
Boys,67.13,DQ,Juan Cedillo,Natalia,61.78,124.74,,,,Single-ply,SBD,M
Boys,67.13,DQ,Kris Guzman,Poteet,67.13,124.74,79.38,,,Single-ply,SBD,M
Boys,74.84,1,Arturo Cervantez,Crystal City,73.21,206.38,138.35,226.8,571.53,Single-ply,SBD,M
Boys,74.84,2,Pedro Molina,Somerset,74.48,195.04,111.13,226.8,532.97,Single-ply,SBD,M
Boys,74.84,3,Darrell DuBose,Devine,71.03,190.51,111.13,197.31,498.95,Single-ply,SBD,M
Boys,74.84,4,Josh Lang,Bandera,69.22,183.7,115.67,181.44,480.81,Single-ply,SBD,M
Boys,74.84,5,Jason Jungman,Castroville Medina Valley,74.66,170.1,111.13,170.1,451.32,Single-ply,SBD,M
Boys,74.84,6,Java Sosa,Pleasanton,70.4,161.03,111.13,165.56,437.72,Single-ply,SBD,M
Boys,74.84,7,Zack Bosquez,Comfort,73.94,147.42,102.06,174.63,424.11,Single-ply,SBD,M
Boys,74.84,8,Taylor Shearrer,Pleasanton,73.12,172.37,88.45,158.76,419.57,Single-ply,SBD,M
Boys,74.84,9,Jake Martinez,Lytle,74.39,142.88,92.99,172.37,408.23,Single-ply,SBD,M
Boys,74.84,10,Isrel Ducheco,Somerset,70.58,120.2,81.65,197.31,399.16,Single-ply,SBD,M
Boys,74.84,11,Brian Lee,Freer,70.03,122.47,97.52,158.76,378.75,Single-ply,SBD,M
Boys,74.84,12,Daniel Ramirez,San Antonio Kennedy,74.48,142.88,86.18,142.88,371.95,Single-ply,SBD,M
Boys,74.84,13,Michael Chavez,Devine,68.95,133.81,63.5,149.69,347,Single-ply,SBD,M
Boys,74.84,14,Isaac Oropeza,Jourdanton,72.57,127.01,79.38,129.27,335.66,Single-ply,SBD,M
Boys,74.84,15,Daniel Lozano,Comfort,71.76,113.4,74.84,138.35,326.59,Single-ply,SBD,M
Boys,74.84,16,Miguel Trevino,San Antonio East Central,70.4,113.4,83.91,122.47,319.78,Single-ply,SBD,M
Boys,74.84,17,Dylan Aguinaga,Lytle,68.49,104.33,77.11,133.81,315.25,Single-ply,SBD,M
Boys,74.84,18,Isaac Douglas,San Antonio Kennedy,69.67,129.27,70.31,113.4,312.98,Single-ply,SBD,M
Boys,74.84,19,Eric Luke,Comfort,71.4,117.93,65.77,129.27,312.98,Single-ply,SBD,M
Boys,74.84,20,Corey Spencer,Comfort,72.21,111.13,70.31,129.27,310.71,Single-ply,SBD,M
Boys,74.84,DQ,John Pond,San Antonio East Central,70.31,,,,,Single-ply,SBD,M
Boys,82.1,1,Alex Medrano,Dilley,76.57,217.72,151.95,231.33,601.01,Single-ply,SBD,M
Boys,89.81,2,Kirk Salinas,Banquete,82.19,229.06,129.27,219.99,578.33,Single-ply,SBD,M
Boys,82.1,3,Joey Perez,Crystal City,81.28,213.19,151.95,190.51,555.65,Single-ply,SBD,M
Boys,82.1,4,Justin Quesada,Somerset,80.29,201.85,111.13,206.38,519.36,Single-ply,SBD,M
Boys,82.1,5,Matt Marrs,Bandera,75.3,210.92,106.59,197.31,514.83,Single-ply,SBD,M
Boys,82.1,6,Thomas Garcia,Dilley,78.83,183.7,120.2,199.58,503.49,Single-ply,SBD,M
Boys,82.1,7,Joseph Sadler,Devine,76.2,176.9,102.06,206.38,485.34,Single-ply,SBD,M
Boys,82.1,8,Ruben Hinojosa,Lytle,79.02,185.97,95.25,204.12,485.34,Single-ply,SBD,M
Boys,82.1,9,Nate Cantrell,Comfort,75.93,174.63,122.47,185.97,483.08,Single-ply,SBD,M
Boys,82.1,10,Alec Conoly,Bandera,80.56,197.31,120.2,165.56,483.08,Single-ply,SBD,M
Boys,82.1,11,Miguel Pérez #4,Lytle,81.47,176.9,102.06,163.29,442.25,Single-ply,SBD,M
Boys,82.1,12,Zach Qualls,Pleasanton,77.38,165.56,90.72,183.7,439.98,Single-ply,SBD,M
Boys,82.1,13,Julio Sosa,Pleasanton,77.11,174.63,106.59,156.49,437.72,Single-ply,SBD,M
Boys,82.1,14,Chris Pusente,Crystal City,77.84,158.76,90.72,163.29,412.77,Single-ply,SBD,M
Boys,82.1,15,Rigo Bueno,Uvalde,78.38,151.95,97.52,147.42,396.89,Single-ply,SBD,M
Boys,82.1,16,Michael Bustamante,Somerset,77.56,151.95,92.99,142.88,387.82,Single-ply,SBD,M
Boys,82.1,17,Tomas Trevino,Pleasanton,81.65,142.88,83.91,156.49,383.29,Single-ply,SBD,M
Boys,82.1,18,Roland DeLeon,San Antonio Kennedy,81.1,138.35,97.52,145.15,381.02,Single-ply,SBD,M
Boys,82.1,19,Daniel Autrey,Dilley,76.48,142.88,90.72,145.15,378.75,Single-ply,SBD,M
Boys,82.1,20,David Bernal,Pleasanton,80.83,142.88,79.38,156.49,378.75,Single-ply,SBD,M
Boys,82.1,21,John Valdez,Somerset,77.84,142.88,81.65,142.88,367.41,Single-ply,SBD,M
Boys,82.1,22,Steven Sartuche,Devine,80.92,120.2,97.52,147.42,365.14,Single-ply,SBD,M
Boys,82.1,23,Emilio Valdez,San Antonio Kennedy,82.1,138.35,74.84,138.35,351.53,Single-ply,SBD,M
Boys,82.1,24,Joe D Garcia,Dilley,80.47,136.08,86.18,124.74,347,Single-ply,SBD,M
Boys,82.1,25,Alex Garcia #9,Jourdanton,78.11,115.67,70.31,122.47,308.44,Single-ply,SBD,M
Boys,82.1,26,Bailey Walker,Comfort,78.11,92.99,72.57,136.08,301.64,Single-ply,SBD,M
Boys,82.1,27,Jonathan Castillo,San Antonio Kennedy,80.74,95.25,92.99,108.86,297.1,Single-ply,SBD,M
Boys,89.81,1,Abel Gonzalez,Dilley,89.81,226.8,108.86,201.85,537.51,Single-ply,SBD,M
Boys,89.81,2,Esteban Ferdin,Lytle,86.55,204.12,111.13,185.97,501.22,Single-ply,SBD,M
Boys,89.81,3,Carlos Carrillo,Lytle,86.64,181.44,111.13,185.97,478.54,Single-ply,SBD,M
Boys,99.79,4,Mark Cerda,Somerset,89.99,165.56,102.06,195.04,462.66,Single-ply,SBD,M
Boys,89.81,5,Dillian Bushway,Crystal City,82.92,170.1,95.25,183.7,449.06,Single-ply,SBD,M
Boys,89.81,6,Jeremiah Martinez,Dilley,84.19,167.83,120.2,161.03,449.06,Single-ply,SBD,M
Boys,89.81,7,Isais Cruz,Jourdanton,88.54,149.69,104.33,179.17,433.18,Single-ply,SBD,M
Boys,89.81,8,Ryan Haycraft,San Antonio East Central,89.72,163.29,90.72,163.29,417.3,Single-ply,SBD,M
Boys,89.81,9,Kyle Wehe,Castroville Medina Valley,84.82,147.42,79.38,165.56,392.36,Single-ply,SBD,M
Boys,89.81,10,Hunter Price,Bandera,86.91,131.54,77.11,154.22,362.87,Single-ply,SBD,M
Boys,89.81,11,Rudy Pena,San Antonio Kennedy,87.63,127.01,77.11,136.08,340.19,Single-ply,SBD,M
Boys,99.79,12,Martin Galvan,San Antonio Kennedy,89.9,120.2,79.38,136.08,335.66,Single-ply,SBD,M
Boys,89.81,13,Joe Tovar,Somerset,84.64,88.45,61.23,124.74,274.42,Single-ply,SBD,M
Boys,89.81,14,Paulino Bosquez,San Antonio Kennedy,87.36,56.7,36.29,79.38,172.37,Single-ply,SBD,M
Boys,89.81,DQ,Matthew Garcia,Somerset,86.91,,,,,Single-ply,SBD,M
Boys,89.81,DQ,Logan Garza,Castroville Medina Valley,88.36,,,,,Single-ply,SBD,M
Boys,89.81,DQ,Ruben Molina,Dilley,83.73,,,,,Single-ply,SBD,M
Boys,99.79,1,Brandon Fuentes,Pleasanton,95.44,238.14,154.22,201.85,594.21,Single-ply,SBD,M
Boys,99.79,2,Zane Sanchez,Devine,97.98,226.8,136.08,199.58,562.45,Single-ply,SBD,M
Boys,99.79,3,Josh Smith #25,Pleasanton,98.34,195.04,117.93,195.04,508.02,Single-ply,SBD,M
Boys,99.79,4,Enrique Lugo,Jourdanton,93.62,195.04,113.4,176.9,485.34,Single-ply,SBD,M
Boys,99.79,5,Jeremy Chambererlain,San Antonio East Central,95.44,181.44,106.59,176.9,464.93,Single-ply,SBD,M
Boys,99.79,6,Stevie Cavazos,Natalia,96.43,183.7,92.99,188.24,464.93,Single-ply,SBD,M
Boys,99.79,7,Alex Villarreal,Somerset,99.34,170.1,99.79,181.44,451.32,Single-ply,SBD,M
Boys,99.79,8,Jason Van Epps,Pleasanton,99.06,174.63,90.72,179.17,444.52,Single-ply,SBD,M
Boys,99.79,9,Jack Richlson,Comfort,97.07,140.61,106.59,174.63,421.84,Single-ply,SBD,M
Boys,99.79,10,Michael Guerrero,Uvalde,96.62,172.37,83.91,158.76,415.04,Single-ply,SBD,M
Boys,99.79,11,Dillan Kendrick,Devine,91.53,145.15,131.54,127.01,403.7,Single-ply,SBD,M
Boys,99.79,12,Josh Garza,San Antonio East Central,91.9,136.08,111.13,131.54,378.75,Single-ply,SBD,M
Boys,99.79,13,Isreal Olivares,Bandera,92.71,145.15,83.91,136.08,365.14,Single-ply,SBD,M
Boys,99.79,14,Julius Gonzalez,Dilley,99.34,129.27,70.31,129.27,328.85,Single-ply,SBD,M
Boys,99.79,15,Henry Garzes,Poteet,99.79,136.08,63.5,127.01,326.59,Single-ply,SBD,M
Boys,99.79,16,Bryce Sandoval,Poteet,92.99,124.74,83.91,102.06,310.71,Single-ply,SBD,M
Boys,99.79,17,Adrian Reyna,Dilley,91.81,104.33,77.11,102.06,283.5,Single-ply,SBD,M
Boys,99.79,18,Lance Huerta,Natalia,98.52,124.74,52.16,102.06,278.96,Single-ply,SBD,M
Boys,99.79,DQ,Matt Gamez,Poteet,99.79,179.17,,,,Single-ply,SBD,M
Boys,109.77,1,Salvador Marines,Somerset,105.96,294.84,136.08,249.48,680.39,Single-ply,SBD,M
Boys,109.77,2,Patrick Rodriguez,Devine,105.87,217.72,131.54,181.44,530.7,Single-ply,SBD,M
Boys,109.77,3,Joe Cantu,Lytle,105.23,210.92,99.79,210.92,521.63,Single-ply,SBD,M
Boys,109.77,4,Adrian Contreras,Poteet,109.77,172.37,102.06,197.31,471.74,Single-ply,SBD,M
Boys,109.77,5,Kevin Leal,Freer,101.7,163.29,111.13,190.51,464.93,Single-ply,SBD,M
Boys,109.77,6,Salome Briseno,Poteet,109.77,165.56,113.4,185.97,464.93,Single-ply,SBD,M
Boys,109.77,7,Isreal Aguerro,Jourdanton,105.46,165.56,113.4,176.9,455.86,Single-ply,SBD,M
Boys,109.77,8,Felipe Olivarri,Pleasanton,106.59,172.37,108.86,170.1,451.32,Single-ply,SBD,M
Boys,109.77,9,Gawson Allen,Bandera,101.33,165.56,92.99,183.7,442.25,Single-ply,SBD,M
Boys,109.77,10,Danny DeLeon,San Antonio East Central,108.95,183.7,102.06,154.22,439.98,Single-ply,SBD,M
Boys,109.77,11,Robert Trejo,Somerset,103.24,172.37,104.33,158.76,435.45,Single-ply,SBD,M
Boys,109.77,12,Brice Dowda,Bandera,102.42,161.03,99.79,145.15,405.97,Single-ply,SBD,M
Boys,109.77,13,Benjamin Frieda,Somerset,106.59,142.88,90.72,156.49,390.09,Single-ply,SBD,M
Boys,109.77,14,Michael Blythe,Somerset,108.41,122.47,92.99,136.08,351.53,Single-ply,SBD,M
Boys,109.77,DQ,Cameron Biediger,Castroville Medina Valley,106.68,,,,,Single-ply,SBD,M
Boys,109.77,DQ,Leo Perez,Devine,100.79,151.95,90.72,,,Single-ply,SBD,M
Boys,109.77,DQ,Kevin Garcia,Poteet,109.68,,,,,Single-ply,SBD,M
Boys,109.77,DQ,Joe Zulaica,Pleasanton,107.5,74.84,61.23,,,Single-ply,SBD,M
Boys,124.74,1,Alfred Godines,Somerset,120.84,258.55,172.37,226.8,657.71,Single-ply,SBD,M
Boys,124.74,2,Joe Aguero,Somerset,120.75,226.8,115.67,195.04,537.51,Single-ply,SBD,M
Boys,124.74,3,John Smith #11,Bandera,112.49,217.72,102.06,204.12,523.9,Single-ply,SBD,M
Boys,124.74,4,Nick O'Bryant,Castroville Medina Valley,123.2,213.19,104.33,181.44,498.95,Single-ply,SBD,M
Boys,124.74,5,Raul Loza,Natalia,115.3,204.12,106.59,181.44,492.15,Single-ply,SBD,M
Boys,124.74,6,Marcus Alaniz,Freer,123.65,201.85,106.59,183.7,492.15,Single-ply,SBD,M
Boys,124.74,7,Jon Macat,Lytle,114.76,192.78,106.59,185.97,485.34,Single-ply,SBD,M
Boys,124.74,8,Colton Bragg,Lytle,114.53,154.22,111.13,199.58,464.93,Single-ply,SBD,M
Boys,124.74,9,Zachary Moreno,Somerset,115.03,181.44,115.67,158.76,455.86,Single-ply,SBD,M
Boys,124.74,10,Jesus Angel,Pleasanton,117.66,172.37,92.99,185.97,451.32,Single-ply,SBD,M
Boys,124.74,11,José Castillo #8,Somerset,119.75,161.03,108.86,158.76,428.64,Single-ply,SBD,M
Boys,124.74,12,Zach Zulaica,Pleasanton,110.5,147.42,79.38,161.03,387.82,Single-ply,SBD,M
Boys,124.74,13,Andrew Padilla,Poteet,114.21,170.1,68.04,136.08,374.21,Single-ply,SBD,M
Boys,124.74,14,Noah Ramirez,Comfort,123.6,142.88,86.18,136.08,365.14,Single-ply,SBD,M
Boys,124.74,15,Tyler Moffitt,Freer,112.22,104.33,88.45,136.08,328.85,Single-ply,SBD,M
Boys,124.74,16,Jason Salas,Poteet,115.67,106.59,81.65,136.08,324.32,Single-ply,SBD,M
Boys,124.74,17,Robert Sanchez,Dilley,110.86,97.52,56.7,113.4,267.62,Single-ply,SBD,M
Boys,124.74+,1,Manuel Tijerina,Jourdanton,132.99,226.8,136.08,238.14,601.01,Single-ply,SBD,M
Boys,124.74+,2,Tyler Verette,Jourdanton,129.91,213.19,151.95,204.12,569.26,Single-ply,SBD,M
Boys,124.74+,3,Guy LaRue,San Antonio Kennedy,147.51,222.26,113.4,231.33,566.99,Single-ply,SBD,M
Boys,124.74+,4,Dj Carrlson,Devine,125.19,233.6,122.47,195.04,551.11,Single-ply,SBD,M
Boys,124.74+,5,Gabriel Garza,Somerset,132,195.04,127.01,190.51,512.56,Single-ply,SBD,M
Boys,124.74+,6,Kyle Odem,Uvalde,136.26,142.88,104.33,195.04,442.25,Single-ply,SBD,M
Boys,124.74+,7,Matt Tschirhart,Castroville Medina Valley,133.72,142.88,99.79,136.08,378.75,Single-ply,SBD,M
Boys,124.74+,8,Jesse Flores,Pleasanton,125.1,124.74,49.9,124.74,299.37,Single-ply,SBD,M
Boys,124.74+,DQ,Nune Perez,Crystal City,139.43,,,,,Single-ply,SBD,M
Boys,,NS,Fabian Hueria,Crystal City,,,,,,Single-ply,SBD,M
Boys,,NS,Jose Cisneros,Crystal City,,,,,,Single-ply,SBD,M
Boys,,NS,John Herrera,Banquete,,,,,,Single-ply,SBD,M
Boys,,NS,Michael Dodson,Bandera,,,,,,Single-ply,SBD,M
Boys,,NS,Travis Whitfield,Bandera,,,,,,Single-ply,SBD,M
Boys,,NS,Bobby Ortiz,Uvalde,,,,,,Single-ply,SBD,M
Boys,,NS,Daniel Luna,Uvalde,,,,,,Single-ply,SBD,M
Boys,,NS,Hector Martinez,San Antonio Kennedy,,,,,,Single-ply,SBD,M
Boys,,NS,Gus Palacios,San Antonio Kennedy,,,,,,Single-ply,SBD,M
Boys,,NS,Peter Campos,San Antonio Kennedy,,,,,,Single-ply,SBD,M
Boys,,NS,Fred Carrasco,San Antonio Kennedy,,,,,,Single-ply,SBD,M
Boys,,NS,Juan Vela,San Antonio Kennedy,,,,,,Single-ply,SBD,M
